(kicad_sch
	(version 20231120)
	(generator "eeschema")
	(generator_version "8.0")
	(uuid "85173ce3-35f6-48d6-9ade-c8b780c7bf44")
	(paper "A4")
	(lib_symbols
		(symbol "Graphic:Logo_Open_Hardware_Small"
			(exclude_from_sim no)
			(in_bom no)
			(on_board no)
			(property "Reference" "#SYM"
				(at 0 6.985 0)
				(effects
					(font
						(size 1.27 1.27)
					)
					(hide yes)
				)
			)
			(property "Value" "Logo_Open_Hardware_Small"
				(at 0 -5.715 0)
				(effects
					(font
						(size 1.27 1.27)
					)
					(hide yes)
				)
			)
			(property "Footprint" ""
				(at 0 0 0)
				(effects
					(font
						(size 1.27 1.27)
					)
					(hide yes)
				)
			)
			(property "Datasheet" "~"
				(at 0 0 0)
				(effects
					(font
						(size 1.27 1.27)
					)
					(hide yes)
				)
			)
			(property "Description" "Open Hardware logo, small"
				(at 0 0 0)
				(effects
					(font
						(size 1.27 1.27)
					)
					(hide yes)
				)
			)
			(property "Sim.Enable" "0"
				(at 0 0 0)
				(effects
					(font
						(size 1.27 1.27)
					)
					(hide yes)
				)
			)
			(property "ki_keywords" "Logo"
				(at 0 0 0)
				(effects
					(font
						(size 1.27 1.27)
					)
					(hide yes)
				)
			)
			(symbol "Logo_Open_Hardware_Small_0_1"
				(polyline
					(pts
						(xy 3.3528 -4.3434) (xy 3.302 -4.318) (xy 3.175 -4.2418) (xy 2.9972 -4.1148) (xy 2.7686 -3.9624)
						(xy 2.54 -3.81) (xy 2.3622 -3.7084) (xy 2.2352 -3.6068) (xy 2.1844 -3.5814) (xy 2.159 -3.6068)
						(xy 2.0574 -3.6576) (xy 1.905 -3.7338) (xy 1.8034 -3.7846) (xy 1.6764 -3.8354) (xy 1.6002 -3.8354)
						(xy 1.6002 -3.8354) (xy 1.5494 -3.7338) (xy 1.4732 -3.5306) (xy 1.3462 -3.302) (xy 1.2446 -3.0226)
						(xy 1.1176 -2.7178) (xy 0.9652 -2.413) (xy 0.8636 -2.1082) (xy 0.7366 -1.8288) (xy 0.6604 -1.6256)
						(xy 0.6096 -1.4732) (xy 0.5842 -1.397) (xy 0.5842 -1.397) (xy 0.6604 -1.3208) (xy 0.7874 -1.2446)
						(xy 1.0414 -1.016) (xy 1.2954 -0.6858) (xy 1.4478 -0.3302) (xy 1.524 0.0762) (xy 1.4732 0.4572)
						(xy 1.3208 0.8128) (xy 1.0668 1.143) (xy 0.762 1.3716) (xy 0.4064 1.524) (xy 0 1.5748) (xy -0.381 1.5494)
						(xy -0.7366 1.397) (xy -1.0668 1.143) (xy -1.2192 0.9906) (xy -1.397 0.6604) (xy -1.524 0.3048)
						(xy -1.524 0.2286) (xy -1.4986 -0.1778) (xy -1.397 -0.5334) (xy -1.1938 -0.8636) (xy -0.9144 -1.143)
						(xy -0.8636 -1.1684) (xy -0.7366 -1.27) (xy -0.635 -1.3462) (xy -0.5842 -1.397) (xy -1.0668 -2.5908)
						(xy -1.143 -2.794) (xy -1.2954 -3.1242) (xy -1.397 -3.4036) (xy -1.4986 -3.6322) (xy -1.5748 -3.7846)
						(xy -1.6002 -3.8354) (xy -1.6002 -3.8354) (xy -1.651 -3.8354) (xy -1.7272 -3.81) (xy -1.905 -3.7338)
						(xy -2.0066 -3.683) (xy -2.1336 -3.6068) (xy -2.2098 -3.5814) (xy -2.2606 -3.6068) (xy -2.3622 -3.683)
						(xy -2.54 -3.81) (xy -2.7686 -3.9624) (xy -2.9718 -4.0894) (xy -3.1496 -4.2164) (xy -3.302 -4.318)
						(xy -3.3528 -4.3434) (xy -3.3782 -4.3434) (xy -3.429 -4.318) (xy -3.5306 -4.2164) (xy -3.7084 -4.064)
						(xy -3.937 -3.8354) (xy -3.9624 -3.81) (xy -4.1656 -3.6068) (xy -4.318 -3.4544) (xy -4.4196 -3.3274)
						(xy -4.445 -3.2766) (xy -4.445 -3.2766) (xy -4.4196 -3.2258) (xy -4.318 -3.0734) (xy -4.2164 -2.8956)
						(xy -4.064 -2.667) (xy -3.6576 -2.0828) (xy -3.8862 -1.5494) (xy -3.937 -1.3716) (xy -4.0386 -1.1684)
						(xy -4.0894 -1.0414) (xy -4.1148 -0.9652) (xy -4.191 -0.9398) (xy -4.318 -0.9144) (xy -4.5466 -0.8636)
						(xy -4.8006 -0.8128) (xy -5.0546 -0.7874) (xy -5.2578 -0.7366) (xy -5.4356 -0.7112) (xy -5.5118 -0.6858)
						(xy -5.5118 -0.6858) (xy -5.5372 -0.635) (xy -5.5372 -0.5588) (xy -5.5372 -0.4318) (xy -5.5626 -0.2286)
						(xy -5.5626 0.0762) (xy -5.5626 0.127) (xy -5.5372 0.4064) (xy -5.5372 0.635) (xy -5.5372 0.762)
						(xy -5.5372 0.8382) (xy -5.5372 0.8382) (xy -5.461 0.8382) (xy -5.3086 0.889) (xy -5.08 0.9144)
						(xy -4.826 0.9652) (xy -4.8006 0.9906) (xy -4.5466 1.0414) (xy -4.318 1.0668) (xy -4.1656 1.1176)
						(xy -4.0894 1.143) (xy -4.0894 1.143) (xy -4.0386 1.2446) (xy -3.9624 1.4224) (xy -3.8608 1.6256)
						(xy -3.7846 1.8288) (xy -3.7084 2.0066) (xy -3.6576 2.159) (xy -3.6322 2.2098) (xy -3.6322 2.2098)
						(xy -3.683 2.286) (xy -3.7592 2.413) (xy -3.8862 2.5908) (xy -4.064 2.8194) (xy -4.064 2.8448)
						(xy -4.2164 3.0734) (xy -4.3434 3.2512) (xy -4.4196 3.3782) (xy -4.445 3.4544) (xy -4.445 3.4544)
						(xy -4.3942 3.5052) (xy -4.2926 3.6322) (xy -4.1148 3.81) (xy -3.937 4.0132) (xy -3.8608 4.064)
						(xy -3.6576 4.2926) (xy -3.5052 4.4196) (xy -3.4036 4.4958) (xy -3.3528 4.5212) (xy -3.3528 4.5212)
						(xy -3.302 4.4704) (xy -3.1496 4.3688) (xy -2.9718 4.2418) (xy -2.7432 4.0894) (xy -2.7178 4.0894)
						(xy -2.4892 3.937) (xy -2.3114 3.81) (xy -2.1844 3.7084) (xy -2.1336 3.683) (xy -2.1082 3.683)
						(xy -2.032 3.7084) (xy -1.8542 3.7592) (xy -1.6764 3.8354) (xy -1.4732 3.937) (xy -1.27 4.0132)
						(xy -1.143 4.064) (xy -1.0668 4.1148) (xy -1.0668 4.1148) (xy -1.0414 4.191) (xy -1.016 4.3434)
						(xy -0.9652 4.572) (xy -0.9144 4.8514) (xy -0.889 4.9022) (xy -0.8382 5.1562) (xy -0.8128 5.3848)
						(xy -0.7874 5.5372) (xy -0.762 5.588) (xy -0.7112 5.6134) (xy -0.5842 5.6134) (xy -0.4064 5.6134)
						(xy -0.1524 5.6134) (xy 0.0762 5.6134) (xy 0.3302 5.6134) (xy 0.5334 5.6134) (xy 0.6858 5.588)
						(xy 0.7366 5.588) (xy 0.7366 5.588) (xy 0.762 5.5118) (xy 0.8128 5.334) (xy 0.8382 5.1054) (xy 0.9144 4.826)
						(xy 0.9144 4.7752) (xy 0.9652 4.5212) (xy 1.016 4.2926) (xy 1.0414 4.1402) (xy 1.0668 4.0894)
						(xy 1.0668 4.0894) (xy 1.1938 4.0386) (xy 1.3716 3.9624) (xy 1.5748 3.8608) (xy 2.0828 3.6576)
						(xy 2.7178 4.0894) (xy 2.7686 4.1402) (xy 2.9972 4.2926) (xy 3.175 4.4196) (xy 3.302 4.4958) (xy 3.3782 4.5212)
						(xy 3.3782 4.5212) (xy 3.429 4.4704) (xy 3.556 4.3434) (xy 3.7338 4.191) (xy 3.9116 3.9878) (xy 4.064 3.8354)
						(xy 4.2418 3.6576) (xy 4.3434 3.556) (xy 4.4196 3.4798) (xy 4.4196 3.429) (xy 4.4196 3.4036) (xy 4.3942 3.3274)
						(xy 4.2926 3.2004) (xy 4.1656 2.9972) (xy 4.0132 2.794) (xy 3.8862 2.5908) (xy 3.7592 2.3876)
						(xy 3.6576 2.2352) (xy 3.6322 2.159) (xy 3.6322 2.1336) (xy 3.683 2.0066) (xy 3.7592 1.8288) (xy 3.8608 1.6002)
						(xy 4.064 1.1176) (xy 4.3942 1.0414) (xy 4.5974 1.016) (xy 4.8768 0.9652) (xy 5.1308 0.9144) (xy 5.5372 0.8382)
						(xy 5.5626 -0.6604) (xy 5.4864 -0.6858) (xy 5.4356 -0.6858) (xy 5.2832 -0.7366) (xy 5.0546 -0.762)
						(xy 4.8006 -0.8128) (xy 4.5974 -0.8636) (xy 4.3688 -0.9144) (xy 4.2164 -0.9398) (xy 4.1402 -0.9398)
						(xy 4.1148 -0.9652) (xy 4.064 -1.0668) (xy 3.9878 -1.2446) (xy 3.9116 -1.4478) (xy 3.81 -1.651)
						(xy 3.7338 -1.8542) (xy 3.683 -2.0066) (xy 3.6576 -2.0828) (xy 3.683 -2.1336) (xy 3.7846 -2.2606)
						(xy 3.8862 -2.4638) (xy 4.0386 -2.667) (xy 4.191 -2.8956) (xy 4.318 -3.0734) (xy 4.3942 -3.2004)
						(xy 4.445 -3.2766) (xy 4.4196 -3.3274) (xy 4.3434 -3.429) (xy 4.1656 -3.5814) (xy 3.937 -3.8354)
						(xy 3.8862 -3.8608) (xy 3.683 -4.064) (xy 3.5306 -4.2164) (xy 3.4036 -4.318) (xy 3.3528 -4.3434)
					)
					(stroke
						(width 0)
						(type default)
					)
					(fill
						(type outline)
					)
				)
			)
		)
		(symbol "Jumper:SolderJumper_3_Open"
			(pin_names
				(offset 0) hide)
			(exclude_from_sim yes)
			(in_bom no)
			(on_board yes)
			(property "Reference" "JP"
				(at -2.54 -2.54 0)
				(effects
					(font
						(size 1.27 1.27)
					)
				)
			)
			(property "Value" "SolderJumper_3_Open"
				(at 0 2.794 0)
				(effects
					(font
						(size 1.27 1.27)
					)
				)
			)
			(property "Footprint" ""
				(at 0 0 0)
				(effects
					(font
						(size 1.27 1.27)
					)
					(hide yes)
				)
			)
			(property "Datasheet" "~"
				(at 0 0 0)
				(effects
					(font
						(size 1.27 1.27)
					)
					(hide yes)
				)
			)
			(property "Description" "Solder Jumper, 3-pole, open"
				(at 0 0 0)
				(effects
					(font
						(size 1.27 1.27)
					)
					(hide yes)
				)
			)
			(property "ki_keywords" "Solder Jumper SPDT"
				(at 0 0 0)
				(effects
					(font
						(size 1.27 1.27)
					)
					(hide yes)
				)
			)
			(property "ki_fp_filters" "SolderJumper*Open*"
				(at 0 0 0)
				(effects
					(font
						(size 1.27 1.27)
					)
					(hide yes)
				)
			)
			(symbol "SolderJumper_3_Open_0_1"
				(arc
					(start -1.016 1.016)
					(mid -2.0276 0)
					(end -1.016 -1.016)
					(stroke
						(width 0)
						(type default)
					)
					(fill
						(type none)
					)
				)
				(arc
					(start -1.016 1.016)
					(mid -2.0276 0)
					(end -1.016 -1.016)
					(stroke
						(width 0)
						(type default)
					)
					(fill
						(type outline)
					)
				)
				(rectangle
					(start -0.508 1.016)
					(end 0.508 -1.016)
					(stroke
						(width 0)
						(type default)
					)
					(fill
						(type outline)
					)
				)
				(polyline
					(pts
						(xy -2.54 0) (xy -2.032 0)
					)
					(stroke
						(width 0)
						(type default)
					)
					(fill
						(type none)
					)
				)
				(polyline
					(pts
						(xy -1.016 1.016) (xy -1.016 -1.016)
					)
					(stroke
						(width 0)
						(type default)
					)
					(fill
						(type none)
					)
				)
				(polyline
					(pts
						(xy 0 -1.27) (xy 0 -1.016)
					)
					(stroke
						(width 0)
						(type default)
					)
					(fill
						(type none)
					)
				)
				(polyline
					(pts
						(xy 1.016 1.016) (xy 1.016 -1.016)
					)
					(stroke
						(width 0)
						(type default)
					)
					(fill
						(type none)
					)
				)
				(polyline
					(pts
						(xy 2.54 0) (xy 2.032 0)
					)
					(stroke
						(width 0)
						(type default)
					)
					(fill
						(type none)
					)
				)
				(arc
					(start 1.016 -1.016)
					(mid 2.0276 0)
					(end 1.016 1.016)
					(stroke
						(width 0)
						(type default)
					)
					(fill
						(type none)
					)
				)
				(arc
					(start 1.016 -1.016)
					(mid 2.0276 0)
					(end 1.016 1.016)
					(stroke
						(width 0)
						(type default)
					)
					(fill
						(type outline)
					)
				)
			)
			(symbol "SolderJumper_3_Open_1_1"
				(pin passive line
					(at -5.08 0 0)
					(length 2.54)
					(name "A"
						(effects
							(font
								(size 1.27 1.27)
							)
						)
					)
					(number "1"
						(effects
							(font
								(size 1.27 1.27)
							)
						)
					)
				)
				(pin passive line
					(at 0 -3.81 90)
					(length 2.54)
					(name "C"
						(effects
							(font
								(size 1.27 1.27)
							)
						)
					)
					(number "2"
						(effects
							(font
								(size 1.27 1.27)
							)
						)
					)
				)
				(pin passive line
					(at 5.08 0 180)
					(length 2.54)
					(name "B"
						(effects
							(font
								(size 1.27 1.27)
							)
						)
					)
					(number "3"
						(effects
							(font
								(size 1.27 1.27)
							)
						)
					)
				)
			)
		)
	)
	(no_connect
		(at 195.58 107.95)
		(uuid "3758d1c3-a0c8-4f6f-b226-b2358c2b7f4a")
	)
	(no_connect
		(at 163.83 107.95)
		(uuid "4e3749cf-280c-4e34-8ef0-a1f0cdf2060e")
	)
	(no_connect
		(at 218.44 107.95)
		(uuid "712f6e32-5d63-4a68-95a7-39ee522c9d87")
	)
	(no_connect
		(at 179.07 107.95)
		(uuid "adb53018-a8a2-4545-9bdc-3cfed4aed450")
	)
	(no_connect
		(at 207.01 107.95)
		(uuid "f5defbfb-0114-48d5-a0c0-37034e3c8463")
	)
	(wire
		(pts
			(xy 152.4 125.73) (xy 163.83 125.73)
		)
		(stroke
			(width 0)
			(type default)
		)
		(uuid "00729daf-23ba-4fb1-9107-b5aecea445f6")
	)
	(wire
		(pts
			(xy 226.06 83.82) (xy 226.06 113.03)
		)
		(stroke
			(width 0)
			(type default)
		)
		(uuid "03731188-1ee2-443d-97ea-54569b382c87")
	)
	(wire
		(pts
			(xy 116.84 68.58) (xy 114.3 68.58)
		)
		(stroke
			(width 0)
			(type default)
		)
		(uuid "08ec9dad-d906-427a-9eaa-90300c2779ba")
	)
	(wire
		(pts
			(xy 137.16 57.15) (xy 137.16 63.5)
		)
		(stroke
			(width 0)
			(type default)
		)
		(uuid "0af33eae-c7a7-4c39-b4ac-f4df0215e6bf")
	)
	(wire
		(pts
			(xy 152.4 83.82) (xy 226.06 83.82)
		)
		(stroke
			(width 0)
			(type default)
		)
		(uuid "0ba33d09-d892-4f2b-93c5-aedc7d1f9b1f")
	)
	(wire
		(pts
			(xy 187.96 92.71) (xy 149.86 92.71)
		)
		(stroke
			(width 0)
			(type default)
		)
		(uuid "0d7219db-eb08-499a-a8be-8550f1b0fc0c")
	)
	(wire
		(pts
			(xy 153.67 91.44) (xy 153.67 95.25)
		)
		(stroke
			(width 0)
			(type default)
		)
		(uuid "16a03e3b-873f-453f-b8f2-8a0166d549f1")
	)
	(wire
		(pts
			(xy 124.46 40.64) (xy 116.84 40.64)
		)
		(stroke
			(width 0)
			(type default)
		)
		(uuid "1faed1dc-a0aa-4c1b-8050-cc896bdc57bf")
	)
	(wire
		(pts
			(xy 187.96 113.03) (xy 187.96 92.71)
		)
		(stroke
			(width 0)
			(type default)
		)
		(uuid "224f9563-1f8b-4f3d-b582-d5d6c0a71bda")
	)
	(wire
		(pts
			(xy 134.62 57.15) (xy 134.62 63.5)
		)
		(stroke
			(width 0)
			(type default)
		)
		(uuid "23be4f16-279b-4729-ad7a-d3b228a8e499")
	)
	(wire
		(pts
			(xy 200.66 91.44) (xy 200.66 113.03)
		)
		(stroke
			(width 0)
			(type default)
		)
		(uuid "2a5571a4-13e1-4a35-ab89-07e6b1b14fb1")
	)
	(wire
		(pts
			(xy 147.32 57.15) (xy 147.32 63.5)
		)
		(stroke
			(width 0)
			(type default)
		)
		(uuid "34a97eda-43df-4ef6-8786-b54caf4c95b5")
	)
	(wire
		(pts
			(xy 179.07 118.11) (xy 179.07 128.27)
		)
		(stroke
			(width 0)
			(type default)
		)
		(uuid "399400b0-e364-4aa6-8071-888218ad7782")
	)
	(wire
		(pts
			(xy 137.16 106.68) (xy 137.16 114.3)
		)
		(stroke
			(width 0)
			(type default)
		)
		(uuid "40c402e1-1f28-4e35-b0ff-f841969fb793")
	)
	(wire
		(pts
			(xy 182.88 113.03) (xy 187.96 113.03)
		)
		(stroke
			(width 0)
			(type default)
		)
		(uuid "4fa7fdb3-15b9-4728-9742-7820e4417deb")
	)
	(wire
		(pts
			(xy 226.06 113.03) (xy 222.25 113.03)
		)
		(stroke
			(width 0)
			(type default)
		)
		(uuid "59ee475f-324b-4a6a-8c63-fd0314bad2c3")
	)
	(wire
		(pts
			(xy 218.44 118.11) (xy 218.44 135.89)
		)
		(stroke
			(width 0)
			(type default)
		)
		(uuid "5b640dee-ef7c-4afe-b002-b251d2b05cb9")
	)
	(wire
		(pts
			(xy 153.67 95.25) (xy 149.86 95.25)
		)
		(stroke
			(width 0)
			(type default)
		)
		(uuid "5f472aff-8b12-4f68-9b1c-54f4af747c53")
	)
	(wire
		(pts
			(xy 195.58 118.11) (xy 195.58 130.81)
		)
		(stroke
			(width 0)
			(type default)
		)
		(uuid "62f1e70f-9fdb-45bd-8ae3-bd5d4b30c976")
	)
	(wire
		(pts
			(xy 167.64 113.03) (xy 170.18 113.03)
		)
		(stroke
			(width 0)
			(type default)
		)
		(uuid "685886c8-ec34-42f3-bba5-08eef8c6c860")
	)
	(wire
		(pts
			(xy 207.01 133.35) (xy 152.4 133.35)
		)
		(stroke
			(width 0)
			(type default)
		)
		(uuid "78bd3f55-0b2d-4412-b7dc-286693bec8f2")
	)
	(wire
		(pts
			(xy 218.44 135.89) (xy 152.4 135.89)
		)
		(stroke
			(width 0)
			(type default)
		)
		(uuid "79300f0c-5323-4739-a471-6e6db185681a")
	)
	(wire
		(pts
			(xy 153.67 91.44) (xy 200.66 91.44)
		)
		(stroke
			(width 0)
			(type default)
		)
		(uuid "7ec64903-5091-4036-acad-ad30d051d0a3")
	)
	(wire
		(pts
			(xy 212.09 87.63) (xy 212.09 113.03)
		)
		(stroke
			(width 0)
			(type default)
		)
		(uuid "8d216a0e-80d6-489a-addb-abd175dd577f")
	)
	(wire
		(pts
			(xy 152.4 83.82) (xy 152.4 100.33)
		)
		(stroke
			(width 0)
			(type default)
		)
		(uuid "9002e1c1-299e-4e73-a200-57c55075fec3")
	)
	(wire
		(pts
			(xy 114.3 72.39) (xy 125.73 72.39)
		)
		(stroke
			(width 0)
			(type default)
		)
		(uuid "91903605-c2e9-4707-9262-c92fc908190c")
	)
	(wire
		(pts
			(xy 156.21 87.63) (xy 212.09 87.63)
		)
		(stroke
			(width 0)
			(type default)
		)
		(uuid "95f3958c-e0cc-426d-9de0-d2eed53b8b45")
	)
	(wire
		(pts
			(xy 170.18 113.03) (xy 170.18 90.17)
		)
		(stroke
			(width 0)
			(type default)
		)
		(uuid "9ad72ff3-adfd-4fd9-9591-b46638f0ebaf")
	)
	(wire
		(pts
			(xy 116.84 40.64) (xy 116.84 68.58)
		)
		(stroke
			(width 0)
			(type default)
		)
		(uuid "ac0329c5-6451-4b9c-8b28-87c523802aeb")
	)
	(wire
		(pts
			(xy 152.4 128.27) (xy 179.07 128.27)
		)
		(stroke
			(width 0)
			(type default)
		)
		(uuid "bd9a9576-4f72-4121-a406-8f16c55c6904")
	)
	(wire
		(pts
			(xy 156.21 97.79) (xy 149.86 97.79)
		)
		(stroke
			(width 0)
			(type default)
		)
		(uuid "c52847ff-55b2-4eb4-bf91-f9ce5bc6d526")
	)
	(wire
		(pts
			(xy 144.78 57.15) (xy 144.78 63.5)
		)
		(stroke
			(width 0)
			(type default)
		)
		(uuid "cfdc5d09-1871-4c43-8315-3fb153abbde7")
	)
	(wire
		(pts
			(xy 170.18 90.17) (xy 149.86 90.17)
		)
		(stroke
			(width 0)
			(type default)
		)
		(uuid "d6222ecf-2ab7-4fef-8e08-283f1c363a9f")
	)
	(wire
		(pts
			(xy 156.21 87.63) (xy 156.21 97.79)
		)
		(stroke
			(width 0)
			(type default)
		)
		(uuid "d823c836-f413-4f90-bd14-4716a6d7c5e2")
	)
	(wire
		(pts
			(xy 163.83 118.11) (xy 163.83 125.73)
		)
		(stroke
			(width 0)
			(type default)
		)
		(uuid "d8cf99fe-bc5f-4978-9d4a-690a9336c785")
	)
	(wire
		(pts
			(xy 152.4 100.33) (xy 149.86 100.33)
		)
		(stroke
			(width 0)
			(type default)
		)
		(uuid "dfbc28b8-6fa7-47b5-90a7-12c500bdc677")
	)
	(wire
		(pts
			(xy 195.58 130.81) (xy 152.4 130.81)
		)
		(stroke
			(width 0)
			(type default)
		)
		(uuid "e37b8053-6702-4e92-b5ab-eddbac7d0502")
	)
	(wire
		(pts
			(xy 200.66 113.03) (xy 199.39 113.03)
		)
		(stroke
			(width 0)
			(type default)
		)
		(uuid "e5aa94cc-7501-4f8c-83a6-c7f595eee434")
	)
	(wire
		(pts
			(xy 207.01 118.11) (xy 207.01 133.35)
		)
		(stroke
			(width 0)
			(type default)
		)
		(uuid "e5d328ca-05d3-4371-8c1f-5b16582e1519")
	)
	(wire
		(pts
			(xy 212.09 113.03) (xy 210.82 113.03)
		)
		(stroke
			(width 0)
			(type default)
		)
		(uuid "ef679f15-da53-4217-af63-f64f9cfaaad9")
	)
	(wire
		(pts
			(xy 134.62 106.68) (xy 134.62 114.3)
		)
		(stroke
			(width 0)
			(type default)
		)
		(uuid "f7a44013-d89c-4d3c-a2de-6331682839e6")
	)
	(symbol
		(lib_id "Jumper:SolderJumper_3_Open")
		(at 195.58 113.03 90)
		(unit 1)
		(exclude_from_sim yes)
		(in_bom no)
		(on_board yes)
		(dnp no)
		(fields_autoplaced yes)
		(uuid "16eb5a8d-c040-4a0d-b321-79670cc10b02")
		(property "Reference" "JP3"
			(at 193.04 113.0299 90)
			(effects
				(font
					(size 1.27 1.27)
				)
				(justify left)
			)
		)
		(property "Value" "SolderJumper_3_Open"
			(at 193.04 114.2999 90)
			(effects
				(font
					(size 1.27 1.27)
				)
				(justify left)
				(hide yes)
			)
		)
		(property "Footprint" "Jumper:SolderJumper-3_P1.3mm_Bridged2Bar12_Pad1.0x1.5mm_NumberLabels"
			(at 195.58 113.03 0)
			(effects
				(font
					(size 1.27 1.27)
				)
				(hide yes)
			)
		)
		(property "Datasheet" "~"
			(at 195.58 113.03 0)
			(effects
				(font
					(size 1.27 1.27)
				)
				(hide yes)
			)
		)
		(property "Description" "Solder Jumper, 3-pole, open"
			(at 195.58 113.03 0)
			(effects
				(font
					(size 1.27 1.27)
				)
				(hide yes)
			)
		)
		(pin "1"
			(uuid "b355c188-1f2d-4546-9883-ccafba3e383d")
		)
		(pin "2"
			(uuid "d350707d-494a-429c-b94c-8b5b37cbfe67")
		)
		(pin "3"
			(uuid "1569b829-c69e-49b5-87c3-31a4c8a2c120")
		)
		(instances
			(project "ESP32_DevKit"
				(path "/85173ce3-35f6-48d6-9ade-c8b780c7bf44"
					(reference "JP3")
					(unit 1)
				)
			)
		)
	)
	(symbol
		(lib_id "Jumper:SolderJumper_3_Open")
		(at 218.44 113.03 90)
		(unit 1)
		(exclude_from_sim yes)
		(in_bom no)
		(on_board yes)
		(dnp no)
		(fields_autoplaced yes)
		(uuid "1d34c0d2-947c-4b51-99dd-71a92c7684ae")
		(property "Reference" "JP5"
			(at 215.9 113.0299 90)
			(effects
				(font
					(size 1.27 1.27)
				)
				(justify left)
			)
		)
		(property "Value" "SolderJumper_3_Open"
			(at 215.9 114.2999 90)
			(effects
				(font
					(size 1.27 1.27)
				)
				(justify left)
				(hide yes)
			)
		)
		(property "Footprint" "Jumper:SolderJumper-3_P1.3mm_Bridged2Bar12_Pad1.0x1.5mm_NumberLabels"
			(at 218.44 113.03 0)
			(effects
				(font
					(size 1.27 1.27)
				)
				(hide yes)
			)
		)
		(property "Datasheet" "~"
			(at 218.44 113.03 0)
			(effects
				(font
					(size 1.27 1.27)
				)
				(hide yes)
			)
		)
		(property "Description" "Solder Jumper, 3-pole, open"
			(at 218.44 113.03 0)
			(effects
				(font
					(size 1.27 1.27)
				)
				(hide yes)
			)
		)
		(pin "1"
			(uuid "c6b0f5dc-c024-478e-b718-773ad3ef0a36")
		)
		(pin "2"
			(uuid "c573b69c-2c26-483c-9727-110068ad9493")
		)
		(pin "3"
			(uuid "ecbfb118-68c8-44e6-8b96-f446f5f6d24e")
		)
		(instances
			(project "ESP32_DevKit"
				(path "/85173ce3-35f6-48d6-9ade-c8b780c7bf44"
					(reference "JP5")
					(unit 1)
				)
			)
		)
	)
	(symbol
		(lib_id "Graphic:Logo_Open_Hardware_Small")
		(at 275.59 173.99 0)
		(unit 1)
		(exclude_from_sim yes)
		(in_bom no)
		(on_board no)
		(dnp no)
		(fields_autoplaced yes)
		(uuid "1d97386b-5320-4dda-b0b5-81dbff7af87d")
		(property "Reference" "#SYM1"
			(at 275.59 167.005 0)
			(effects
				(font
					(size 1.27 1.27)
				)
				(hide yes)
			)
		)
		(property "Value" "Logo_Open_Hardware_Small"
			(at 275.59 179.705 0)
			(effects
				(font
					(size 1.27 1.27)
				)
				(hide yes)
			)
		)
		(property "Footprint" ""
			(at 275.59 173.99 0)
			(effects
				(font
					(size 1.27 1.27)
				)
				(hide yes)
			)
		)
		(property "Datasheet" "~"
			(at 275.59 173.99 0)
			(effects
				(font
					(size 1.27 1.27)
				)
				(hide yes)
			)
		)
		(property "Description" "Open Hardware logo, small"
			(at 275.59 173.99 0)
			(effects
				(font
					(size 1.27 1.27)
				)
				(hide yes)
			)
		)
		(instances
			(project "ESP32_DevKit"
				(path "/85173ce3-35f6-48d6-9ade-c8b780c7bf44"
					(reference "#SYM1")
					(unit 1)
				)
			)
		)
	)
	(symbol
		(lib_id "Jumper:SolderJumper_3_Open")
		(at 163.83 113.03 90)
		(unit 1)
		(exclude_from_sim yes)
		(in_bom no)
		(on_board yes)
		(dnp no)
		(fields_autoplaced yes)
		(uuid "4b786d48-6084-4c9a-a76d-26e0fbd32e77")
		(property "Reference" "JP1"
			(at 161.29 113.0299 90)
			(effects
				(font
					(size 1.27 1.27)
				)
				(justify left)
			)
		)
		(property "Value" "SolderJumper_3_Open"
			(at 161.29 114.2999 90)
			(effects
				(font
					(size 1.27 1.27)
				)
				(justify left)
				(hide yes)
			)
		)
		(property "Footprint" "Jumper:SolderJumper-3_P1.3mm_Bridged2Bar12_Pad1.0x1.5mm_NumberLabels"
			(at 163.83 113.03 0)
			(effects
				(font
					(size 1.27 1.27)
				)
				(hide yes)
			)
		)
		(property "Datasheet" "~"
			(at 163.83 113.03 0)
			(effects
				(font
					(size 1.27 1.27)
				)
				(hide yes)
			)
		)
		(property "Description" "Solder Jumper, 3-pole, open"
			(at 163.83 113.03 0)
			(effects
				(font
					(size 1.27 1.27)
				)
				(hide yes)
			)
		)
		(pin "1"
			(uuid "4800e4c1-c6e6-4cd5-a9c9-bc9799153fce")
		)
		(pin "2"
			(uuid "1cfb1719-0210-4864-b95d-63bca61f8b40")
		)
		(pin "3"
			(uuid "80720654-fe2d-4beb-9a48-8e9f8242173a")
		)
		(instances
			(project "ESP32_DevKit"
				(path "/85173ce3-35f6-48d6-9ade-c8b780c7bf44"
					(reference "JP1")
					(unit 1)
				)
			)
		)
	)
	(symbol
		(lib_id "Jumper:SolderJumper_3_Open")
		(at 179.07 113.03 90)
		(unit 1)
		(exclude_from_sim yes)
		(in_bom no)
		(on_board yes)
		(dnp no)
		(fields_autoplaced yes)
		(uuid "58395d22-ddbe-40f8-9b49-820b474d2ced")
		(property "Reference" "JP2"
			(at 176.53 113.0299 90)
			(effects
				(font
					(size 1.27 1.27)
				)
				(justify left)
			)
		)
		(property "Value" "SolderJumper_3_Open"
			(at 176.53 114.2999 90)
			(effects
				(font
					(size 1.27 1.27)
				)
				(justify left)
				(hide yes)
			)
		)
		(property "Footprint" "Jumper:SolderJumper-3_P1.3mm_Bridged2Bar12_Pad1.0x1.5mm_NumberLabels"
			(at 179.07 113.03 0)
			(effects
				(font
					(size 1.27 1.27)
				)
				(hide yes)
			)
		)
		(property "Datasheet" "~"
			(at 179.07 113.03 0)
			(effects
				(font
					(size 1.27 1.27)
				)
				(hide yes)
			)
		)
		(property "Description" "Solder Jumper, 3-pole, open"
			(at 179.07 113.03 0)
			(effects
				(font
					(size 1.27 1.27)
				)
				(hide yes)
			)
		)
		(pin "1"
			(uuid "5f932018-8c7f-4f7d-bc54-a7ae31c60139")
		)
		(pin "2"
			(uuid "f231a604-f8a6-49f1-8146-a4d03e0da8d2")
		)
		(pin "3"
			(uuid "58f73cf4-e86d-469e-bb57-475a68a7bd61")
		)
		(instances
			(project "ESP32_DevKit"
				(path "/85173ce3-35f6-48d6-9ade-c8b780c7bf44"
					(reference "JP2")
					(unit 1)
				)
			)
		)
	)
	(symbol
		(lib_id "Jumper:SolderJumper_3_Open")
		(at 207.01 113.03 90)
		(unit 1)
		(exclude_from_sim yes)
		(in_bom no)
		(on_board yes)
		(dnp no)
		(fields_autoplaced yes)
		(uuid "ae053564-a506-4083-8194-7a815586baa1")
		(property "Reference" "JP4"
			(at 204.47 113.0299 90)
			(effects
				(font
					(size 1.27 1.27)
				)
				(justify left)
			)
		)
		(property "Value" "SolderJumper_3_Open"
			(at 204.47 114.2999 90)
			(effects
				(font
					(size 1.27 1.27)
				)
				(justify left)
				(hide yes)
			)
		)
		(property "Footprint" "Jumper:SolderJumper-3_P1.3mm_Bridged2Bar12_Pad1.0x1.5mm_NumberLabels"
			(at 207.01 113.03 0)
			(effects
				(font
					(size 1.27 1.27)
				)
				(hide yes)
			)
		)
		(property "Datasheet" "~"
			(at 207.01 113.03 0)
			(effects
				(font
					(size 1.27 1.27)
				)
				(hide yes)
			)
		)
		(property "Description" "Solder Jumper, 3-pole, open"
			(at 207.01 113.03 0)
			(effects
				(font
					(size 1.27 1.27)
				)
				(hide yes)
			)
		)
		(pin "1"
			(uuid "c03f49dc-2557-4620-8491-99065df3589a")
		)
		(pin "2"
			(uuid "14bd52e3-dc35-4329-912e-f094f7033e5a")
		)
		(pin "3"
			(uuid "0b2a473a-3295-464c-bdce-137bdd6b7836")
		)
		(instances
			(project "ESP32_DevKit"
				(path "/85173ce3-35f6-48d6-9ade-c8b780c7bf44"
					(reference "JP4")
					(unit 1)
				)
			)
		)
	)
	(sheet
		(at 125.73 63.5)
		(size 24.13 43.18)
		(fields_autoplaced yes)
		(stroke
			(width 0.1524)
			(type solid)
		)
		(fill
			(color 0 0 0 0.0000)
		)
		(uuid "0ac6e24e-d3e3-4f87-a6ed-4fce5daf5131")
		(property "Sheetname" "ESP32"
			(at 125.73 62.7884 0)
			(effects
				(font
					(size 1.27 1.27)
				)
				(justify left bottom)
			)
		)
		(property "Sheetfile" "ESP32.kicad_sch"
			(at 125.73 107.2646 0)
			(effects
				(font
					(size 1.27 1.27)
				)
				(justify left top)
			)
		)
		(pin "I2C_SDA" input
			(at 134.62 106.68 270)
			(effects
				(font
					(size 1.27 1.27)
				)
				(justify left)
			)
			(uuid "c64806f5-adc9-4f35-8ae0-c6c0616978c3")
		)
		(pin "I2C_SCL" input
			(at 137.16 106.68 270)
			(effects
				(font
					(size 1.27 1.27)
				)
				(justify left)
			)
			(uuid "ea4e9b7d-5823-43f7-9e3e-47e98e78a7b7")
		)
		(pin "PWR_3V3" input
			(at 125.73 72.39 180)
			(effects
				(font
					(size 1.27 1.27)
				)
				(justify left)
			)
			(uuid "03239484-5de3-45cf-b8dc-6803c4cb4b1c")
		)
		(pin "RESET" input
			(at 137.16 63.5 90)
			(effects
				(font
					(size 1.27 1.27)
				)
				(justify right)
			)
			(uuid "dab0ad22-6e4c-4b4a-b2f2-f5cf231f7ae5")
		)
		(pin "VP_PIN" input
			(at 149.86 90.17 0)
			(effects
				(font
					(size 1.27 1.27)
				)
				(justify right)
			)
			(uuid "960f88e5-99d8-4aab-8bc1-d18b8c5d18eb")
		)
		(pin "TXD_ESP32" input
			(at 147.32 63.5 90)
			(effects
				(font
					(size 1.27 1.27)
				)
				(justify right)
			)
			(uuid "35b69e1a-d409-43d3-b64e-1b78c8a066a5")
		)
		(pin "BOOT" input
			(at 134.62 63.5 90)
			(effects
				(font
					(size 1.27 1.27)
				)
				(justify right)
			)
			(uuid "3faaab21-86b6-44a2-a82a-2b87a935be6e")
		)
		(pin "SPI_CS" input
			(at 149.86 92.71 0)
			(effects
				(font
					(size 1.27 1.27)
				)
				(justify right)
			)
			(uuid "bdb524fd-55ec-429d-8fe3-ea68d3a3ff5a")
		)
		(pin "RXD_ESP32" output
			(at 144.78 63.5 90)
			(effects
				(font
					(size 1.27 1.27)
				)
				(justify right)
			)
			(uuid "ad86adcb-4c48-408e-b257-4cf49085fb29")
		)
		(pin "SPI_MISO" input
			(at 149.86 97.79 0)
			(effects
				(font
					(size 1.27 1.27)
				)
				(justify right)
			)
			(uuid "729b5ab1-9729-4476-9416-a04771e3a5f5")
		)
		(pin "SPI_MOSI" output
			(at 149.86 95.25 0)
			(effects
				(font
					(size 1.27 1.27)
				)
				(justify right)
			)
			(uuid "396165a2-d371-48d5-a9fa-cccdbe35b089")
		)
		(pin "SPI_SCK" bidirectional
			(at 149.86 100.33 0)
			(effects
				(font
					(size 1.27 1.27)
				)
				(justify right)
			)
			(uuid "cfc7dbf8-ee81-4968-85b2-9737f5fa5104")
		)
		(instances
			(project "ESP32_DevKit"
				(path "/85173ce3-35f6-48d6-9ade-c8b780c7bf44"
					(page "4")
				)
			)
		)
	)
	(sheet
		(at 87.63 63.5)
		(size 26.67 13.97)
		(fields_autoplaced yes)
		(stroke
			(width 0.1524)
			(type solid)
		)
		(fill
			(color 0 0 0 0.0000)
		)
		(uuid "0c848bef-412e-4049-931b-b7ec64d22fb9")
		(property "Sheetname" "PowerSupply"
			(at 87.63 62.7884 0)
			(effects
				(font
					(size 1.27 1.27)
				)
				(justify left bottom)
			)
		)
		(property "Sheetfile" "powersupply.kicad_sch"
			(at 87.63 78.0546 0)
			(effects
				(font
					(size 1.27 1.27)
				)
				(justify left top)
			)
		)
		(pin "PWR_3V3" output
			(at 114.3 72.39 0)
			(effects
				(font
					(size 1.27 1.27)
				)
				(justify right)
			)
			(uuid "25451eef-ee90-4355-96e1-91e1d3cb0fde")
		)
		(pin "PWR_5V" output
			(at 114.3 68.58 0)
			(effects
				(font
					(size 1.27 1.27)
				)
				(justify right)
			)
			(uuid "5dc6800e-ae43-4741-9a5a-fbaf6cdccf83")
		)
		(instances
			(project "ESP32_DevKit"
				(path "/85173ce3-35f6-48d6-9ade-c8b780c7bf44"
					(page "2")
				)
			)
		)
	)
	(sheet
		(at 124.46 34.29)
		(size 26.67 22.86)
		(fields_autoplaced yes)
		(stroke
			(width 0.1524)
			(type solid)
		)
		(fill
			(color 0 0 0 0.0000)
		)
		(uuid "4880bcc7-908b-475d-a98c-f11e3f07fb7b")
		(property "Sheetname" "USB"
			(at 123.7484 57.15 90)
			(effects
				(font
					(size 1.27 1.27)
				)
				(justify left bottom)
			)
		)
		(property "Sheetfile" "usb.kicad_sch"
			(at 151.7146 57.15 90)
			(effects
				(font
					(size 1.27 1.27)
				)
				(justify left top)
			)
		)
		(pin "RESET" input
			(at 137.16 57.15 270)
			(effects
				(font
					(size 1.27 1.27)
				)
				(justify left)
			)
			(uuid "7022c17c-7240-417b-a645-8cb98b32fa3b")
		)
		(pin "RXD_ESP32" output
			(at 144.78 57.15 270)
			(effects
				(font
					(size 1.27 1.27)
				)
				(justify left)
			)
			(uuid "8ffa80fd-8910-4891-992e-ef10fceb60a3")
		)
		(pin "TXD_ESP32" input
			(at 147.32 57.15 270)
			(effects
				(font
					(size 1.27 1.27)
				)
				(justify left)
			)
			(uuid "57103944-a89a-4a0e-8a9c-dbc93d1b9dcf")
		)
		(pin "BOOT" input
			(at 134.62 57.15 270)
			(effects
				(font
					(size 1.27 1.27)
				)
				(justify left)
			)
			(uuid "b688fedb-4e33-4fe3-b4c4-5a057bc0dcec")
		)
		(pin "PWR_5V" input
			(at 124.46 40.64 180)
			(effects
				(font
					(size 1.27 1.27)
				)
				(justify left)
			)
			(uuid "2b0731a2-dcec-4a6e-b7a7-1667ef4b8ae7")
		)
		(instances
			(project "ESP32_DevKit"
				(path "/85173ce3-35f6-48d6-9ade-c8b780c7bf44"
					(page "3")
				)
			)
		)
	)
	(sheet
		(at 160.02 63.5)
		(size 24.13 13.97)
		(fields_autoplaced yes)
		(stroke
			(width 0.1524)
			(type solid)
		)
		(fill
			(color 0 0 0 0.0000)
		)
		(uuid "a0f29b0f-c392-4b9c-943e-cb713f406fab")
		(property "Sheetname" "ETHERNET"
			(at 160.02 62.7884 0)
			(effects
				(font
					(size 1.27 1.27)
				)
				(justify left bottom)
			)
		)
		(property "Sheetfile" "ethernet.kicad_sch"
			(at 160.02 78.0546 0)
			(effects
				(font
					(size 1.27 1.27)
				)
				(justify left top)
			)
		)
		(pin "PWR_3V3" output
			(at 160.02 66.04 180)
			(effects
				(font
					(size 1.27 1.27)
				)
				(justify left)
			)
			(uuid "e406a61d-21a4-45be-aaa3-0e380dab13a2")
		)
		(pin "SPI_MOSI" output
			(at 167.64 77.47 270)
			(effects
				(font
					(size 1.27 1.27)
				)
				(justify left)
			)
			(uuid "4df75521-f858-487b-a703-8eaf83dd4f70")
		)
		(pin "SPI_MISO" input
			(at 170.18 77.47 270)
			(effects
				(font
					(size 1.27 1.27)
				)
				(justify left)
			)
			(uuid "0f9fd0c8-9e62-4b90-9ff1-5736c0632c6a")
		)
		(pin "SPI_SCK" bidirectional
			(at 172.72 77.47 270)
			(effects
				(font
					(size 1.27 1.27)
				)
				(justify left)
			)
			(uuid "786bad67-65b9-457b-b491-ebfd742273df")
		)
		(pin "ETH_CS" input
			(at 175.26 77.47 270)
			(effects
				(font
					(size 1.27 1.27)
				)
				(justify left)
			)
			(uuid "066875e7-7558-419d-a109-d4c0910bffd5")
		)
		(pin "INT" input
			(at 160.02 69.85 180)
			(effects
				(font
					(size 1.27 1.27)
				)
				(justify left)
			)
			(uuid "f901d73d-ee40-41a7-9d86-1da3e47ac8af")
		)
		(pin "RST" input
			(at 160.02 72.39 180)
			(effects
				(font
					(size 1.27 1.27)
				)
				(justify left)
			)
			(uuid "d7dcb16c-1699-4acc-ade4-4589fd7b978f")
		)
		(instances
			(project "ESP32_DevKit"
				(path "/85173ce3-35f6-48d6-9ade-c8b780c7bf44"
					(page "6")
				)
			)
		)
	)
	(sheet
		(at 124.46 114.3)
		(size 27.94 24.13)
		(fields_autoplaced yes)
		(stroke
			(width 0.1524)
			(type solid)
		)
		(fill
			(color 0 0 0 0.0000)
		)
		(uuid "e87e86e8-fd12-48d1-814a-5ad29891b5cf")
		(property "Sheetname" "PERIPHERALS"
			(at 124.46 113.5884 0)
			(effects
				(font
					(size 1.27 1.27)
				)
				(justify left bottom)
			)
		)
		(property "Sheetfile" "peripherals.kicad_sch"
			(at 124.46 139.0146 0)
			(effects
				(font
					(size 1.27 1.27)
				)
				(justify left top)
			)
		)
		(pin "I2C_SCL" input
			(at 134.62 114.3 90)
			(effects
				(font
					(size 1.27 1.27)
				)
				(justify right)
			)
			(uuid "7a763f20-e778-442a-a4b2-adfe12d3c958")
		)
		(pin "I2C_SDA" input
			(at 137.16 114.3 90)
			(effects
				(font
					(size 1.27 1.27)
				)
				(justify right)
			)
			(uuid "b262395d-e0bc-4d60-9930-371759c37f66")
		)
		(pin "SD_MOSI" input
			(at 152.4 130.81 0)
			(effects
				(font
					(size 1.27 1.27)
				)
				(justify right)
			)
			(uuid "5a09266f-89eb-4371-8846-963caf96f5e1")
		)
		(pin "SD_MISO" input
			(at 152.4 133.35 0)
			(effects
				(font
					(size 1.27 1.27)
				)
				(justify right)
			)
			(uuid "b1766178-5179-4f7e-97c5-b9f575be99ee")
		)
		(pin "SD_CLK" input
			(at 152.4 135.89 0)
			(effects
				(font
					(size 1.27 1.27)
				)
				(justify right)
			)
			(uuid "6f2db4e3-91b7-46c4-818f-a39d60ed17e8")
		)
		(pin "SD_CS" input
			(at 152.4 128.27 0)
			(effects
				(font
					(size 1.27 1.27)
				)
				(justify right)
			)
			(uuid "11fa9f28-7686-42e9-9399-f0a8e5c93a8a")
		)
		(pin "SD_CARD_DETECT" input
			(at 152.4 125.73 0)
			(effects
				(font
					(size 1.27 1.27)
				)
				(justify right)
			)
			(uuid "da8bb0c4-2ef0-41cd-bb36-81d71f58e982")
		)
		(instances
			(project "ESP32_DevKit"
				(path "/85173ce3-35f6-48d6-9ade-c8b780c7bf44"
					(page "5")
				)
			)
		)
	)
	(sheet_instances
		(path "/"
			(page "1")
		)
	)
)
