(export (version "E")
  (design
    (source "F:\\Personal Projecgts\\ESP32_DevKit\\ESP32_DevKit.kicad_sch")
    (date "2024-03-29T17:58:15-0300")
    (tool "Eeschema 8.0.1")
    (sheet (number "1") (name "/") (tstamps "/")
      (title_block
        (title)
        (company)
        (rev)
        (date)
        (source "ESP32_DevKit.kicad_sch")
        (comment (number "1") (value ""))
        (comment (number "2") (value ""))
        (comment (number "3") (value ""))
        (comment (number "4") (value ""))
        (comment (number "5") (value ""))
        (comment (number "6") (value ""))
        (comment (number "7") (value ""))
        (comment (number "8") (value ""))
        (comment (number "9") (value ""))))
    (sheet (number "2") (name "/PowerSupply/") (tstamps "/0c848bef-412e-4049-931b-b7ec64d22fb9/")
      (title_block
        (title)
        (company)
        (rev)
        (date)
        (source "powersupply.kicad_sch")
        (comment (number "1") (value ""))
        (comment (number "2") (value ""))
        (comment (number "3") (value ""))
        (comment (number "4") (value ""))
        (comment (number "5") (value ""))
        (comment (number "6") (value ""))
        (comment (number "7") (value ""))
        (comment (number "8") (value ""))
        (comment (number "9") (value ""))))
    (sheet (number "3") (name "/USB/") (tstamps "/4880bcc7-908b-475d-a98c-f11e3f07fb7b/")
      (title_block
        (title)
        (company)
        (rev)
        (date)
        (source "usb.kicad_sch")
        (comment (number "1") (value ""))
        (comment (number "2") (value ""))
        (comment (number "3") (value ""))
        (comment (number "4") (value ""))
        (comment (number "5") (value ""))
        (comment (number "6") (value ""))
        (comment (number "7") (value ""))
        (comment (number "8") (value ""))
        (comment (number "9") (value ""))))
    (sheet (number "4") (name "/ESP32/") (tstamps "/0ac6e24e-d3e3-4f87-a6ed-4fce5daf5131/")
      (title_block
        (title)
        (company)
        (rev)
        (date)
        (source "ESP32.kicad_sch")
        (comment (number "1") (value ""))
        (comment (number "2") (value ""))
        (comment (number "3") (value ""))
        (comment (number "4") (value ""))
        (comment (number "5") (value ""))
        (comment (number "6") (value ""))
        (comment (number "7") (value ""))
        (comment (number "8") (value ""))
        (comment (number "9") (value "")))))
  (components
    (comp (ref "C1")
      (value "220uF")
      (footprint "Capacitor_SMD:CP_Elec_5x5.4")
      (description "Polarized capacitor")
      (fields
        (field (name "Footprint") "Capacitor_SMD:CP_Elec_5x5.4")
        (field (name "Datasheet"))
        (field (name "Description") "Polarized capacitor"))
      (libsource (lib "Device") (part "C_Polarized") (description "Polarized capacitor"))
      (property (name "Sheetname") (value "PowerSupply"))
      (property (name "Sheetfile") (value "powersupply.kicad_sch"))
      (property (name "ki_keywords") (value "cap capacitor"))
      (property (name "ki_fp_filters") (value "CP_*"))
      (sheetpath (names "/PowerSupply/") (tstamps "/0c848bef-412e-4049-931b-b7ec64d22fb9/"))
      (tstamps "a7ce829d-0932-49c2-a91d-a4b03fc1f026"))
    (comp (ref "C2")
      (value "C")
      (footprint "Capacitor_SMD:C_0805_2012Metric_Pad1.18x1.45mm_HandSolder")
      (description "Unpolarized capacitor")
      (fields
        (field (name "Footprint") "Capacitor_SMD:C_0805_2012Metric_Pad1.18x1.45mm_HandSolder")
        (field (name "Datasheet"))
        (field (name "Description") "Unpolarized capacitor"))
      (libsource (lib "Device") (part "C") (description "Unpolarized capacitor"))
      (property (name "Sheetname") (value "PowerSupply"))
      (property (name "Sheetfile") (value "powersupply.kicad_sch"))
      (property (name "ki_keywords") (value "cap capacitor"))
      (property (name "ki_fp_filters") (value "C_*"))
      (sheetpath (names "/PowerSupply/") (tstamps "/0c848bef-412e-4049-931b-b7ec64d22fb9/"))
      (tstamps "c7c807eb-246d-43ec-a48d-07ce245de7a9"))
    (comp (ref "C3")
      (value "1000uF")
      (footprint "Capacitor_SMD:CP_Elec_10x10")
      (description "Polarized capacitor")
      (fields
        (field (name "Footprint") "Capacitor_SMD:CP_Elec_10x10")
        (field (name "Datasheet"))
        (field (name "Description") "Polarized capacitor"))
      (libsource (lib "Device") (part "C_Polarized") (description "Polarized capacitor"))
      (property (name "Sheetname") (value "PowerSupply"))
      (property (name "Sheetfile") (value "powersupply.kicad_sch"))
      (property (name "ki_keywords") (value "cap capacitor"))
      (property (name "ki_fp_filters") (value "CP_*"))
      (sheetpath (names "/PowerSupply/") (tstamps "/0c848bef-412e-4049-931b-b7ec64d22fb9/"))
      (tstamps "26e24576-d882-43ec-a1b8-2abc03ce581f"))
    (comp (ref "C4")
      (value "C")
      (footprint "Capacitor_SMD:C_0805_2012Metric_Pad1.18x1.45mm_HandSolder")
      (description "Unpolarized capacitor")
      (fields
        (field (name "Footprint") "Capacitor_SMD:C_0805_2012Metric_Pad1.18x1.45mm_HandSolder")
        (field (name "Datasheet"))
        (field (name "Description") "Unpolarized capacitor"))
      (libsource (lib "Device") (part "C") (description "Unpolarized capacitor"))
      (property (name "Sheetname") (value "PowerSupply"))
      (property (name "Sheetfile") (value "powersupply.kicad_sch"))
      (property (name "ki_keywords") (value "cap capacitor"))
      (property (name "ki_fp_filters") (value "C_*"))
      (sheetpath (names "/PowerSupply/") (tstamps "/0c848bef-412e-4049-931b-b7ec64d22fb9/"))
      (tstamps "7acebbeb-0243-43fc-b506-333cd432c979"))
    (comp (ref "C5")
      (value "100uF")
      (footprint "Capacitor_SMD:CP_Elec_5x5.4")
      (description "Polarized capacitor")
      (fields
        (field (name "Footprint") "Capacitor_SMD:CP_Elec_5x5.4")
        (field (name "Datasheet"))
        (field (name "Description") "Polarized capacitor"))
      (libsource (lib "Device") (part "C_Polarized") (description "Polarized capacitor"))
      (property (name "Sheetname") (value "PowerSupply"))
      (property (name "Sheetfile") (value "powersupply.kicad_sch"))
      (property (name "ki_keywords") (value "cap capacitor"))
      (property (name "ki_fp_filters") (value "CP_*"))
      (sheetpath (names "/PowerSupply/") (tstamps "/0c848bef-412e-4049-931b-b7ec64d22fb9/"))
      (tstamps "97e2aed1-4d54-4355-ad70-f14c25bb3d23"))
    (comp (ref "C6")
      (value "C")
      (footprint "Capacitor_SMD:C_0805_2012Metric_Pad1.18x1.45mm_HandSolder")
      (description "Unpolarized capacitor")
      (fields
        (field (name "Footprint") "Capacitor_SMD:C_0805_2012Metric_Pad1.18x1.45mm_HandSolder")
        (field (name "Datasheet"))
        (field (name "Description") "Unpolarized capacitor"))
      (libsource (lib "Device") (part "C") (description "Unpolarized capacitor"))
      (property (name "Sheetname") (value "PowerSupply"))
      (property (name "Sheetfile") (value "powersupply.kicad_sch"))
      (property (name "ki_keywords") (value "cap capacitor"))
      (property (name "ki_fp_filters") (value "C_*"))
      (sheetpath (names "/PowerSupply/") (tstamps "/0c848bef-412e-4049-931b-b7ec64d22fb9/"))
      (tstamps "fb921e21-b2ae-4bdb-a124-af4482525d9a"))
    (comp (ref "D1")
      (value "D")
      (footprint "Diode_SMD:D_SMA_Handsoldering")
      (description "Diode")
      (fields
        (field (name "Sim.Device") "D")
        (field (name "Sim.Pins") "1=K 2=A")
        (field (name "Footprint") "Diode_SMD:D_SMA_Handsoldering")
        (field (name "Datasheet"))
        (field (name "Description") "Diode"))
      (libsource (lib "Device") (part "D") (description "Diode"))
      (property (name "Sim.Device") (value "D"))
      (property (name "Sim.Pins") (value "1=K 2=A"))
      (property (name "Sheetname") (value "PowerSupply"))
      (property (name "Sheetfile") (value "powersupply.kicad_sch"))
      (property (name "ki_keywords") (value "diode"))
      (property (name "ki_fp_filters") (value "TO-???* *_Diode_* *SingleDiode* D_*"))
      (sheetpath (names "/PowerSupply/") (tstamps "/0c848bef-412e-4049-931b-b7ec64d22fb9/"))
      (tstamps "9187f132-b1a7-4e57-9bd9-5f6e43378af7"))
    (comp (ref "D2")
      (value "D_Schottky")
      (footprint "Diode_SMD:D_SMA_Handsoldering")
      (description "Schottky diode")
      (fields
        (field (name "Footprint") "Diode_SMD:D_SMA_Handsoldering")
        (field (name "Datasheet"))
        (field (name "Description") "Schottky diode"))
      (libsource (lib "Device") (part "D_Schottky") (description "Schottky diode"))
      (property (name "Sheetname") (value "PowerSupply"))
      (property (name "Sheetfile") (value "powersupply.kicad_sch"))
      (property (name "ki_keywords") (value "diode Schottky"))
      (property (name "ki_fp_filters") (value "TO-???* *_Diode_* *SingleDiode* D_*"))
      (sheetpath (names "/PowerSupply/") (tstamps "/0c848bef-412e-4049-931b-b7ec64d22fb9/"))
      (tstamps "852b47cb-95b3-4dfb-8467-f7ae05642541"))
    (comp (ref "J1")
      (value "Jack-DC")
      (footprint "Connector_BarrelJack:BarrelJack_CLIFF_FC681465S_SMT_Horizontal")
      (description "DC Barrel Jack")
      (fields
        (field (name "Footprint") "Connector_BarrelJack:BarrelJack_CLIFF_FC681465S_SMT_Horizontal")
        (field (name "Datasheet"))
        (field (name "Description") "DC Barrel Jack"))
      (libsource (lib "Connector") (part "Jack-DC") (description "DC Barrel Jack"))
      (property (name "Sheetname") (value "PowerSupply"))
      (property (name "Sheetfile") (value "powersupply.kicad_sch"))
      (property (name "ki_keywords") (value "DC power barrel jack connector"))
      (property (name "ki_fp_filters") (value "BarrelJack*"))
      (sheetpath (names "/PowerSupply/") (tstamps "/0c848bef-412e-4049-931b-b7ec64d22fb9/"))
      (tstamps "d291d18d-cf3f-4766-938c-a59098ffb4ac"))
    (comp (ref "L1")
      (value "L")
      (footprint "Inductor_SMD:L_Neosid_SM-PIC0512H")
      (description "Inductor")
      (fields
        (field (name "Footprint") "Inductor_SMD:L_Neosid_SM-PIC0512H")
        (field (name "Datasheet"))
        (field (name "Description") "Inductor"))
      (libsource (lib "Device") (part "L") (description "Inductor"))
      (property (name "Sheetname") (value "PowerSupply"))
      (property (name "Sheetfile") (value "powersupply.kicad_sch"))
      (property (name "ki_keywords") (value "inductor choke coil reactor magnetic"))
      (property (name "ki_fp_filters") (value "Choke_* *Coil* Inductor_* L_*"))
      (sheetpath (names "/PowerSupply/") (tstamps "/0c848bef-412e-4049-931b-b7ec64d22fb9/"))
      (tstamps "61c4caca-f3a2-4973-b028-34d3317693e0"))
    (comp (ref "U1")
      (value "LM2576HVS-5")
      (footprint "Package_TO_SOT_SMD:TO-263-5_TabPin3")
      (datasheet "http://www.ti.com/lit/ds/symlink/lm2576.pdf")
      (description "5V 3A, SIMPLE SWITCHER® Step-Down Voltage Regulator, High Voltage Input, TO-263")
      (fields
        (field (name "Footprint") "Package_TO_SOT_SMD:TO-263-5_TabPin3")
        (field (name "Datasheet") "http://www.ti.com/lit/ds/symlink/lm2576.pdf")
        (field (name "Description") "5V 3A, SIMPLE SWITCHER® Step-Down Voltage Regulator, High Voltage Input, TO-263"))
      (libsource (lib "Regulator_Switching") (part "LM2576HVS-5") (description "5V 3A, SIMPLE SWITCHER® Step-Down Voltage Regulator, High Voltage Input, TO-263"))
      (property (name "Sheetname") (value "PowerSupply"))
      (property (name "Sheetfile") (value "powersupply.kicad_sch"))
      (property (name "ki_keywords") (value "Step-Down Voltage Regulator 5V 3A High Voltage"))
      (property (name "ki_fp_filters") (value "TO?263*"))
      (sheetpath (names "/PowerSupply/") (tstamps "/0c848bef-412e-4049-931b-b7ec64d22fb9/"))
      (tstamps "5ff40033-2e8d-408d-91cb-7a4a58e99f67"))
    (comp (ref "U2")
      (value "LM1117MP-3.3")
      (footprint "Package_TO_SOT_SMD:SOT-223-3_TabPin2")
      (datasheet "http://www.ti.com/lit/ds/symlink/lm1117.pdf")
      (description "800mA Low-Dropout Linear Regulator, 3.3V fixed output, SOT-223")
      (fields
        (field (name "Footprint") "Package_TO_SOT_SMD:SOT-223-3_TabPin2")
        (field (name "Datasheet") "http://www.ti.com/lit/ds/symlink/lm1117.pdf")
        (field (name "Description") "800mA Low-Dropout Linear Regulator, 3.3V fixed output, SOT-223"))
      (libsource (lib "Regulator_Linear") (part "LM1117MP-3.3") (description "800mA Low-Dropout Linear Regulator, 3.3V fixed output, SOT-223"))
      (property (name "Sheetname") (value "PowerSupply"))
      (property (name "Sheetfile") (value "powersupply.kicad_sch"))
      (property (name "ki_keywords") (value "linear regulator ldo fixed positive"))
      (property (name "ki_fp_filters") (value "SOT?223*"))
      (sheetpath (names "/PowerSupply/") (tstamps "/0c848bef-412e-4049-931b-b7ec64d22fb9/"))
      (tstamps "6d12620a-f286-4e94-bbc0-1728b6a39cf9"))
    (comp (ref "D3")
      (value "SP0503BAHT")
      (footprint "Package_TO_SOT_SMD:SOT-143")
      (datasheet "http://www.littelfuse.com/~/media/files/littelfuse/technical%20resources/documents/data%20sheets/sp05xxba.pdf")
      (description "TVS Diode Array, 5.5V Standoff, 3 Channels, SOT-143 package")
      (fields
        (field (name "Footprint") "Package_TO_SOT_SMD:SOT-143")
        (field (name "Datasheet") "http://www.littelfuse.com/~/media/files/littelfuse/technical%20resources/documents/data%20sheets/sp05xxba.pdf")
        (field (name "Description") "TVS Diode Array, 5.5V Standoff, 3 Channels, SOT-143 package"))
      (libsource (lib "Power_Protection") (part "SP0503BAHT") (description "TVS Diode Array, 5.5V Standoff, 3 Channels, SOT-143 package"))
      (property (name "Sheetname") (value "USB"))
      (property (name "Sheetfile") (value "usb.kicad_sch"))
      (property (name "ki_keywords") (value "usb esd protection suppression transient"))
      (property (name "ki_fp_filters") (value "SOT?143*"))
      (sheetpath (names "/USB/") (tstamps "/4880bcc7-908b-475d-a98c-f11e3f07fb7b/"))
      (tstamps "ec014bd3-f8c2-4715-8493-933b92767c0a"))
    (comp (ref "D4")
      (value "D_Schottky")
      (footprint "Diode_SMD:D_SMA_Handsoldering")
      (description "Schottky diode")
      (fields
        (field (name "Footprint") "Diode_SMD:D_SMA_Handsoldering")
        (field (name "Datasheet"))
        (field (name "Description") "Schottky diode"))
      (libsource (lib "Device") (part "D_Schottky") (description "Schottky diode"))
      (property (name "Sheetname") (value "USB"))
      (property (name "Sheetfile") (value "usb.kicad_sch"))
      (property (name "ki_keywords") (value "diode Schottky"))
      (property (name "ki_fp_filters") (value "TO-???* *_Diode_* *SingleDiode* D_*"))
      (sheetpath (names "/USB/") (tstamps "/4880bcc7-908b-475d-a98c-f11e3f07fb7b/"))
      (tstamps "ebb0bf33-7655-4ccb-90c4-8a7ea6a79f0e"))
    (comp (ref "J2")
      (value "USB_C_Receptacle_USB2.0_14P")
      (footprint "Connector_USB:USB_C_Receptacle_GCT_USB4105-xx-A_16P_TopMnt_Horizontal")
      (datasheet "https://www.usb.org/sites/default/files/documents/usb_type-c.zip")
      (description "USB 2.0-only 14P Type-C Receptacle connector")
      (fields
        (field (name "Footprint") "Connector_USB:USB_C_Receptacle_GCT_USB4105-xx-A_16P_TopMnt_Horizontal")
        (field (name "Datasheet") "https://www.usb.org/sites/default/files/documents/usb_type-c.zip")
        (field (name "Description") "USB 2.0-only 14P Type-C Receptacle connector"))
      (libsource (lib "Connector") (part "USB_C_Receptacle_USB2.0_14P") (description "USB 2.0-only 14P Type-C Receptacle connector"))
      (property (name "Sheetname") (value "USB"))
      (property (name "Sheetfile") (value "usb.kicad_sch"))
      (property (name "ki_keywords") (value "usb universal serial bus type-C USB2.0"))
      (property (name "ki_fp_filters") (value "USB*C*Receptacle*"))
      (sheetpath (names "/USB/") (tstamps "/4880bcc7-908b-475d-a98c-f11e3f07fb7b/"))
      (tstamps "0734624a-8bb6-4a3f-b44d-1ea2331b3c01"))
    (comp (ref "Q1")
      (value "BC817")
      (footprint "Package_TO_SOT_SMD:SOT-23")
      (datasheet "https://www.onsemi.com/pub/Collateral/BC818-D.pdf")
      (description "0.8A Ic, 45V Vce, NPN Transistor, SOT-23")
      (fields
        (field (name "Footprint") "Package_TO_SOT_SMD:SOT-23")
        (field (name "Datasheet") "https://www.onsemi.com/pub/Collateral/BC818-D.pdf")
        (field (name "Description") "0.8A Ic, 45V Vce, NPN Transistor, SOT-23"))
      (libsource (lib "Transistor_BJT") (part "BC817") (description "0.8A Ic, 45V Vce, NPN Transistor, SOT-23"))
      (property (name "Sheetname") (value "USB"))
      (property (name "Sheetfile") (value "usb.kicad_sch"))
      (property (name "ki_keywords") (value "NPN Transistor"))
      (property (name "ki_fp_filters") (value "SOT?23*"))
      (sheetpath (names "/USB/") (tstamps "/4880bcc7-908b-475d-a98c-f11e3f07fb7b/"))
      (tstamps "cc67a4d1-6062-4ead-92e9-174cc5eb2c37"))
    (comp (ref "Q2")
      (value "BC817")
      (footprint "Package_TO_SOT_SMD:SOT-23")
      (datasheet "https://www.onsemi.com/pub/Collateral/BC818-D.pdf")
      (description "0.8A Ic, 45V Vce, NPN Transistor, SOT-23")
      (fields
        (field (name "Footprint") "Package_TO_SOT_SMD:SOT-23")
        (field (name "Datasheet") "https://www.onsemi.com/pub/Collateral/BC818-D.pdf")
        (field (name "Description") "0.8A Ic, 45V Vce, NPN Transistor, SOT-23"))
      (libsource (lib "Transistor_BJT") (part "BC817") (description "0.8A Ic, 45V Vce, NPN Transistor, SOT-23"))
      (property (name "Sheetname") (value "USB"))
      (property (name "Sheetfile") (value "usb.kicad_sch"))
      (property (name "ki_keywords") (value "NPN Transistor"))
      (property (name "ki_fp_filters") (value "SOT?23*"))
      (sheetpath (names "/USB/") (tstamps "/4880bcc7-908b-475d-a98c-f11e3f07fb7b/"))
      (tstamps "213f084f-4e2e-4e72-9863-d6baa6c65ab6"))
    (comp (ref "R1")
      (value "5K1")
      (footprint "Resistor_SMD:R_0805_2012Metric_Pad1.20x1.40mm_HandSolder")
      (description "Resistor, US symbol")
      (fields
        (field (name "Footprint") "Resistor_SMD:R_0805_2012Metric_Pad1.20x1.40mm_HandSolder")
        (field (name "Datasheet"))
        (field (name "Description") "Resistor, US symbol"))
      (libsource (lib "Device") (part "R_US") (description "Resistor, US symbol"))
      (property (name "Sheetname") (value "USB"))
      (property (name "Sheetfile") (value "usb.kicad_sch"))
      (property (name "ki_keywords") (value "R res resistor"))
      (property (name "ki_fp_filters") (value "R_*"))
      (sheetpath (names "/USB/") (tstamps "/4880bcc7-908b-475d-a98c-f11e3f07fb7b/"))
      (tstamps "95100745-dbde-4c4d-87e1-3a8d94eaddca"))
    (comp (ref "R2")
      (value "5K1")
      (footprint "Resistor_SMD:R_0805_2012Metric_Pad1.20x1.40mm_HandSolder")
      (description "Resistor, US symbol")
      (fields
        (field (name "Footprint") "Resistor_SMD:R_0805_2012Metric_Pad1.20x1.40mm_HandSolder")
        (field (name "Datasheet"))
        (field (name "Description") "Resistor, US symbol"))
      (libsource (lib "Device") (part "R_US") (description "Resistor, US symbol"))
      (property (name "Sheetname") (value "USB"))
      (property (name "Sheetfile") (value "usb.kicad_sch"))
      (property (name "ki_keywords") (value "R res resistor"))
      (property (name "ki_fp_filters") (value "R_*"))
      (sheetpath (names "/USB/") (tstamps "/4880bcc7-908b-475d-a98c-f11e3f07fb7b/"))
      (tstamps "152cd97d-8b13-4363-855f-64e3a074caf9"))
    (comp (ref "R3")
      (value "4k7")
      (footprint "Resistor_SMD:R_0805_2012Metric_Pad1.20x1.40mm_HandSolder")
      (description "Resistor, US symbol")
      (fields
        (field (name "Footprint") "Resistor_SMD:R_0805_2012Metric_Pad1.20x1.40mm_HandSolder")
        (field (name "Datasheet"))
        (field (name "Description") "Resistor, US symbol"))
      (libsource (lib "Device") (part "R_US") (description "Resistor, US symbol"))
      (property (name "Sheetname") (value "USB"))
      (property (name "Sheetfile") (value "usb.kicad_sch"))
      (property (name "ki_keywords") (value "R res resistor"))
      (property (name "ki_fp_filters") (value "R_*"))
      (sheetpath (names "/USB/") (tstamps "/4880bcc7-908b-475d-a98c-f11e3f07fb7b/"))
      (tstamps "9809e5bf-7190-45d8-8662-ab98c5afa23b"))
    (comp (ref "R4")
      (value "10k")
      (footprint "Resistor_SMD:R_0805_2012Metric_Pad1.20x1.40mm_HandSolder")
      (description "Resistor, US symbol")
      (fields
        (field (name "Footprint") "Resistor_SMD:R_0805_2012Metric_Pad1.20x1.40mm_HandSolder")
        (field (name "Datasheet"))
        (field (name "Description") "Resistor, US symbol"))
      (libsource (lib "Device") (part "R_US") (description "Resistor, US symbol"))
      (property (name "Sheetname") (value "USB"))
      (property (name "Sheetfile") (value "usb.kicad_sch"))
      (property (name "ki_keywords") (value "R res resistor"))
      (property (name "ki_fp_filters") (value "R_*"))
      (sheetpath (names "/USB/") (tstamps "/4880bcc7-908b-475d-a98c-f11e3f07fb7b/"))
      (tstamps "21e2881f-ec11-44c2-b902-a6bf1dfed51c"))
    (comp (ref "R5")
      (value "4k7")
      (footprint "Resistor_SMD:R_0805_2012Metric_Pad1.20x1.40mm_HandSolder")
      (fields
        (field (name "Footprint") "Resistor_SMD:R_0805_2012Metric_Pad1.20x1.40mm_HandSolder")
        (field (name "Datasheet"))
        (field (name "Description")))
      (libsource (lib "Driver Porta 5.0-eagle-import") (part "R-US_R0805") (description "RESISTOR, American symbol"))
      (property (name "Sheetname") (value "USB"))
      (property (name "Sheetfile") (value "usb.kicad_sch"))
      (sheetpath (names "/USB/") (tstamps "/4880bcc7-908b-475d-a98c-f11e3f07fb7b/"))
      (tstamps "44d6c291-968d-4a45-8a82-358f075ece90"))
    (comp (ref "R6")
      (value "10k")
      (footprint "Resistor_SMD:R_0805_2012Metric_Pad1.20x1.40mm_HandSolder")
      (fields
        (field (name "Footprint") "Resistor_SMD:R_0805_2012Metric_Pad1.20x1.40mm_HandSolder")
        (field (name "Datasheet"))
        (field (name "Description")))
      (libsource (lib "Driver Porta 5.0-eagle-import") (part "R-US_R0805") (description "RESISTOR, American symbol"))
      (property (name "Sheetname") (value "USB"))
      (property (name "Sheetfile") (value "usb.kicad_sch"))
      (sheetpath (names "/USB/") (tstamps "/4880bcc7-908b-475d-a98c-f11e3f07fb7b/"))
      (tstamps "2b01b497-716b-43ad-8c8e-df8922055f42"))
    (comp (ref "R7")
      (value "4k7")
      (footprint "Resistor_SMD:R_0805_2012Metric_Pad1.20x1.40mm_HandSolder")
      (fields
        (field (name "Footprint") "Resistor_SMD:R_0805_2012Metric_Pad1.20x1.40mm_HandSolder")
        (field (name "Datasheet"))
        (field (name "Description")))
      (libsource (lib "Driver Porta 5.0-eagle-import") (part "R-US_R0805") (description "RESISTOR, American symbol"))
      (property (name "Sheetname") (value "USB"))
      (property (name "Sheetfile") (value "usb.kicad_sch"))
      (sheetpath (names "/USB/") (tstamps "/4880bcc7-908b-475d-a98c-f11e3f07fb7b/"))
      (tstamps "00bc0030-3f43-4e1c-81df-e5abc5d4cab3"))
    (comp (ref "R8")
      (value "10k")
      (footprint "Resistor_SMD:R_0805_2012Metric_Pad1.20x1.40mm_HandSolder")
      (fields
        (field (name "Footprint") "Resistor_SMD:R_0805_2012Metric_Pad1.20x1.40mm_HandSolder")
        (field (name "Datasheet"))
        (field (name "Description")))
      (libsource (lib "Driver Porta 5.0-eagle-import") (part "R-US_R0805") (description "RESISTOR, American symbol"))
      (property (name "Sheetname") (value "USB"))
      (property (name "Sheetfile") (value "usb.kicad_sch"))
      (sheetpath (names "/USB/") (tstamps "/4880bcc7-908b-475d-a98c-f11e3f07fb7b/"))
      (tstamps "9b86942a-0db0-4983-a957-092aba238fe5"))
    (comp (ref "U3")
      (value "CP2102N-Axx-xQFN24")
      (footprint "Package_DFN_QFN:QFN-24-1EP_4x4mm_P0.5mm_EP2.6x2.6mm")
      (datasheet "https://www.silabs.com/documents/public/data-sheets/cp2102n-datasheet.pdf")
      (description "USB to UART master bridge, QFN-24")
      (fields
        (field (name "Footprint") "Package_DFN_QFN:QFN-24-1EP_4x4mm_P0.5mm_EP2.6x2.6mm")
        (field (name "Datasheet") "https://www.silabs.com/documents/public/data-sheets/cp2102n-datasheet.pdf")
        (field (name "Description") "USB to UART master bridge, QFN-24"))
      (libsource (lib "Interface_USB") (part "CP2102N-Axx-xQFN24") (description "USB to UART master bridge, QFN-24"))
      (property (name "Sheetname") (value "USB"))
      (property (name "Sheetfile") (value "usb.kicad_sch"))
      (property (name "ki_keywords") (value "USB UART bridge"))
      (property (name "ki_fp_filters") (value "QFN*4x4mm*P0.5mm*"))
      (sheetpath (names "/USB/") (tstamps "/4880bcc7-908b-475d-a98c-f11e3f07fb7b/"))
      (tstamps "cdcce2c8-9239-41da-9d5b-43ec3a3c2d11"))
    (comp (ref "BT1")
      (value "Battery_Cell")
      (footprint "Battery:BatteryHolder_Multicomp_BC-2001_1x2032")
      (description "Single-cell battery")
      (fields
        (field (name "Footprint") "Battery:BatteryHolder_Multicomp_BC-2001_1x2032")
        (field (name "Datasheet"))
        (field (name "Description") "Single-cell battery"))
      (libsource (lib "Device") (part "Battery_Cell") (description "Single-cell battery"))
      (property (name "Sheetname") (value "ESP32"))
      (property (name "Sheetfile") (value "ESP32.kicad_sch"))
      (property (name "ki_keywords") (value "battery cell"))
      (sheetpath (names "/ESP32/") (tstamps "/0ac6e24e-d3e3-4f87-a6ed-4fce5daf5131/"))
      (tstamps "fbe8d458-5113-4fa4-aeda-f833d03b9e4e"))
    (comp (ref "C7")
      (value "C")
      (description "Unpolarized capacitor")
      (fields
        (field (name "Footprint"))
        (field (name "Datasheet"))
        (field (name "Description") "Unpolarized capacitor"))
      (libsource (lib "Device") (part "C") (description "Unpolarized capacitor"))
      (property (name "Sheetname") (value "ESP32"))
      (property (name "Sheetfile") (value "ESP32.kicad_sch"))
      (property (name "ki_keywords") (value "cap capacitor"))
      (property (name "ki_fp_filters") (value "C_*"))
      (sheetpath (names "/ESP32/") (tstamps "/0ac6e24e-d3e3-4f87-a6ed-4fce5daf5131/"))
      (tstamps "59401445-1b7a-44b8-a2d7-dc09e22bb4c5"))
    (comp (ref "C8")
      (value "C")
      (description "Unpolarized capacitor")
      (fields
        (field (name "Footprint"))
        (field (name "Datasheet"))
        (field (name "Description") "Unpolarized capacitor"))
      (libsource (lib "Device") (part "C") (description "Unpolarized capacitor"))
      (property (name "Sheetname") (value "ESP32"))
      (property (name "Sheetfile") (value "ESP32.kicad_sch"))
      (property (name "ki_keywords") (value "cap capacitor"))
      (property (name "ki_fp_filters") (value "C_*"))
      (sheetpath (names "/ESP32/") (tstamps "/0ac6e24e-d3e3-4f87-a6ed-4fce5daf5131/"))
      (tstamps "c089f25e-e713-4555-bea7-0e0613aad59c"))
    (comp (ref "C9")
      (value "C")
      (description "Unpolarized capacitor")
      (fields
        (field (name "Footprint"))
        (field (name "Datasheet"))
        (field (name "Description") "Unpolarized capacitor"))
      (libsource (lib "Device") (part "C") (description "Unpolarized capacitor"))
      (property (name "Sheetname") (value "ESP32"))
      (property (name "Sheetfile") (value "ESP32.kicad_sch"))
      (property (name "ki_keywords") (value "cap capacitor"))
      (property (name "ki_fp_filters") (value "C_*"))
      (sheetpath (names "/ESP32/") (tstamps "/0ac6e24e-d3e3-4f87-a6ed-4fce5daf5131/"))
      (tstamps "d2940a42-2bad-4e5f-9210-2d2c04af3337"))
    (comp (ref "J3")
      (value "Micro_SD_Card_Det1")
      (datasheet "https://datasheet.lcsc.com/lcsc/2110151630_XKB-Connectivity-XKTF-015-N_C381082.pdf")
      (description "Micro SD Card Socket with one card detection pin")
      (fields
        (field (name "Footprint"))
        (field (name "Datasheet") "https://datasheet.lcsc.com/lcsc/2110151630_XKB-Connectivity-XKTF-015-N_C381082.pdf")
        (field (name "Description") "Micro SD Card Socket with one card detection pin"))
      (libsource (lib "Connector") (part "Micro_SD_Card_Det1") (description "Micro SD Card Socket with one card detection pin"))
      (property (name "Sheetname") (value "ESP32"))
      (property (name "Sheetfile") (value "ESP32.kicad_sch"))
      (property (name "ki_keywords") (value "connector SD microsd"))
      (property (name "ki_fp_filters") (value "microSD*"))
      (sheetpath (names "/ESP32/") (tstamps "/0ac6e24e-d3e3-4f87-a6ed-4fce5daf5131/"))
      (tstamps "b5f3c5b8-592a-4a57-83ed-f99f6b740427"))
    (comp (ref "J4")
      (value "Conn_02x05_Odd_Even")
      (footprint "Connector_PinHeader_1.27mm:PinHeader_2x05_P1.27mm_Vertical_SMD")
      (description "Generic connector, double row, 02x05, odd/even pin numbering scheme (row 1 odd numbers, row 2 even numbers), script generated (kicad-library-utils/schlib/autogen/connector/)")
      (fields
        (field (name "Footprint") "Connector_PinHeader_1.27mm:PinHeader_2x05_P1.27mm_Vertical_SMD")
        (field (name "Datasheet"))
        (field (name "Description") "Generic connector, double row, 02x05, odd/even pin numbering scheme (row 1 odd numbers, row 2 even numbers), script generated (kicad-library-utils/schlib/autogen/connector/)"))
      (libsource (lib "Connector_Generic") (part "Conn_02x05_Odd_Even") (description "Generic connector, double row, 02x05, odd/even pin numbering scheme (row 1 odd numbers, row 2 even numbers), script generated (kicad-library-utils/schlib/autogen/connector/)"))
      (property (name "Sheetname") (value "ESP32"))
      (property (name "Sheetfile") (value "ESP32.kicad_sch"))
      (property (name "ki_keywords") (value "connector"))
      (property (name "ki_fp_filters") (value "Connector*:*_2x??_*"))
      (sheetpath (names "/ESP32/") (tstamps "/0ac6e24e-d3e3-4f87-a6ed-4fce5daf5131/"))
      (tstamps "737cf767-606d-434f-9989-e2cce204601d"))
    (comp (ref "R9")
      (value "10K")
      (footprint "Resistor_SMD:R_0805_2012Metric_Pad1.20x1.40mm_HandSolder")
      (description "Resistor, US symbol")
      (fields
        (field (name "Footprint") "Resistor_SMD:R_0805_2012Metric_Pad1.20x1.40mm_HandSolder")
        (field (name "Datasheet"))
        (field (name "Description") "Resistor, US symbol"))
      (libsource (lib "Device") (part "R_US") (description "Resistor, US symbol"))
      (property (name "Sheetname") (value "ESP32"))
      (property (name "Sheetfile") (value "ESP32.kicad_sch"))
      (property (name "ki_keywords") (value "R res resistor"))
      (property (name "ki_fp_filters") (value "R_*"))
      (sheetpath (names "/ESP32/") (tstamps "/0ac6e24e-d3e3-4f87-a6ed-4fce5daf5131/"))
      (tstamps "cf0f55ee-6c4a-476f-a525-0f4bd527e3a5"))
    (comp (ref "R10")
      (value "10K")
      (footprint "Resistor_SMD:R_0805_2012Metric_Pad1.20x1.40mm_HandSolder")
      (description "Resistor, US symbol")
      (fields
        (field (name "Footprint") "Resistor_SMD:R_0805_2012Metric_Pad1.20x1.40mm_HandSolder")
        (field (name "Datasheet"))
        (field (name "Description") "Resistor, US symbol"))
      (libsource (lib "Device") (part "R_US") (description "Resistor, US symbol"))
      (property (name "Sheetname") (value "ESP32"))
      (property (name "Sheetfile") (value "ESP32.kicad_sch"))
      (property (name "ki_keywords") (value "R res resistor"))
      (property (name "ki_fp_filters") (value "R_*"))
      (sheetpath (names "/ESP32/") (tstamps "/0ac6e24e-d3e3-4f87-a6ed-4fce5daf5131/"))
      (tstamps "05878bcb-095d-400b-830d-342907ea0f49"))
    (comp (ref "R11")
      (value "10K")
      (footprint "Resistor_SMD:R_0805_2012Metric_Pad1.20x1.40mm_HandSolder")
      (description "Resistor, US symbol")
      (fields
        (field (name "Footprint") "Resistor_SMD:R_0805_2012Metric_Pad1.20x1.40mm_HandSolder")
        (field (name "Datasheet"))
        (field (name "Description") "Resistor, US symbol"))
      (libsource (lib "Device") (part "R_US") (description "Resistor, US symbol"))
      (property (name "Sheetname") (value "ESP32"))
      (property (name "Sheetfile") (value "ESP32.kicad_sch"))
      (property (name "ki_keywords") (value "R res resistor"))
      (property (name "ki_fp_filters") (value "R_*"))
      (sheetpath (names "/ESP32/") (tstamps "/0ac6e24e-d3e3-4f87-a6ed-4fce5daf5131/"))
      (tstamps "09b5b02a-be29-42b0-a217-4d7701b0262c"))
    (comp (ref "R12")
      (value "10K")
      (footprint "Resistor_SMD:R_0805_2012Metric_Pad1.20x1.40mm_HandSolder")
      (description "Resistor, US symbol")
      (fields
        (field (name "Footprint") "Resistor_SMD:R_0805_2012Metric_Pad1.20x1.40mm_HandSolder")
        (field (name "Datasheet"))
        (field (name "Description") "Resistor, US symbol"))
      (libsource (lib "Device") (part "R_US") (description "Resistor, US symbol"))
      (property (name "Sheetname") (value "ESP32"))
      (property (name "Sheetfile") (value "ESP32.kicad_sch"))
      (property (name "ki_keywords") (value "R res resistor"))
      (property (name "ki_fp_filters") (value "R_*"))
      (sheetpath (names "/ESP32/") (tstamps "/0ac6e24e-d3e3-4f87-a6ed-4fce5daf5131/"))
      (tstamps "5bea90ea-7e94-46f9-b6da-195f00545fdf"))
    (comp (ref "R13")
      (value "10K")
      (footprint "Resistor_SMD:R_0805_2012Metric_Pad1.20x1.40mm_HandSolder")
      (description "Resistor, US symbol")
      (fields
        (field (name "Footprint") "Resistor_SMD:R_0805_2012Metric_Pad1.20x1.40mm_HandSolder")
        (field (name "Datasheet"))
        (field (name "Description") "Resistor, US symbol"))
      (libsource (lib "Device") (part "R_US") (description "Resistor, US symbol"))
      (property (name "Sheetname") (value "ESP32"))
      (property (name "Sheetfile") (value "ESP32.kicad_sch"))
      (property (name "ki_keywords") (value "R res resistor"))
      (property (name "ki_fp_filters") (value "R_*"))
      (sheetpath (names "/ESP32/") (tstamps "/0ac6e24e-d3e3-4f87-a6ed-4fce5daf5131/"))
      (tstamps "f0d49ca5-0407-4946-a6f7-491fded94477"))
    (comp (ref "R14")
      (value "10K")
      (footprint "Resistor_SMD:R_0805_2012Metric_Pad1.20x1.40mm_HandSolder")
      (description "Resistor, US symbol")
      (fields
        (field (name "Footprint") "Resistor_SMD:R_0805_2012Metric_Pad1.20x1.40mm_HandSolder")
        (field (name "Datasheet"))
        (field (name "Description") "Resistor, US symbol"))
      (libsource (lib "Device") (part "R_US") (description "Resistor, US symbol"))
      (property (name "Sheetname") (value "ESP32"))
      (property (name "Sheetfile") (value "ESP32.kicad_sch"))
      (property (name "ki_keywords") (value "R res resistor"))
      (property (name "ki_fp_filters") (value "R_*"))
      (sheetpath (names "/ESP32/") (tstamps "/0ac6e24e-d3e3-4f87-a6ed-4fce5daf5131/"))
      (tstamps "7d37accf-ea59-4e99-9c78-ab3771c5b96d"))
    (comp (ref "RN1")
      (value "10K")
      (footprint "Resistor_THT:R_Array_SIP7")
      (datasheet "http://www.vishay.com/docs/31509/csc.pdf")
      (description "6 resistor network, star topology, bussed resistors, small US symbol")
      (fields
        (field (name "Footprint") "Resistor_THT:R_Array_SIP7")
        (field (name "Datasheet") "http://www.vishay.com/docs/31509/csc.pdf")
        (field (name "Description") "6 resistor network, star topology, bussed resistors, small US symbol"))
      (libsource (lib "Device") (part "R_Network06_US") (description "6 resistor network, star topology, bussed resistors, small US symbol"))
      (property (name "Sheetname") (value "ESP32"))
      (property (name "Sheetfile") (value "ESP32.kicad_sch"))
      (property (name "ki_keywords") (value "R network star-topology"))
      (property (name "ki_fp_filters") (value "R?Array?SIP*"))
      (sheetpath (names "/ESP32/") (tstamps "/0ac6e24e-d3e3-4f87-a6ed-4fce5daf5131/"))
      (tstamps "b4107e56-efa9-454e-96eb-a29e6f432e2c"))
    (comp (ref "SW1")
      (value "SW_Push")
      (description "Push button switch, generic, two pins")
      (fields
        (field (name "Footprint"))
        (field (name "Datasheet"))
        (field (name "Description") "Push button switch, generic, two pins"))
      (libsource (lib "Switch") (part "SW_Push") (description "Push button switch, generic, two pins"))
      (property (name "Sheetname") (value "ESP32"))
      (property (name "Sheetfile") (value "ESP32.kicad_sch"))
      (property (name "ki_keywords") (value "switch normally-open pushbutton push-button"))
      (sheetpath (names "/ESP32/") (tstamps "/0ac6e24e-d3e3-4f87-a6ed-4fce5daf5131/"))
      (tstamps "21525964-3130-437c-9b05-b095589dcb8d"))
    (comp (ref "SW2")
      (value "SW_Push")
      (description "Push button switch, generic, two pins")
      (fields
        (field (name "Footprint"))
        (field (name "Datasheet"))
        (field (name "Description") "Push button switch, generic, two pins"))
      (libsource (lib "Switch") (part "SW_Push") (description "Push button switch, generic, two pins"))
      (property (name "Sheetname") (value "ESP32"))
      (property (name "Sheetfile") (value "ESP32.kicad_sch"))
      (property (name "ki_keywords") (value "switch normally-open pushbutton push-button"))
      (sheetpath (names "/ESP32/") (tstamps "/0ac6e24e-d3e3-4f87-a6ed-4fce5daf5131/"))
      (tstamps "86db6e17-3957-4370-a2ad-6ec7cf1e278a"))
    (comp (ref "U4")
      (value "ESP32-WROOM-32")
      (footprint "RF_Module:ESP32-WROOM-32")
      (datasheet "https://www.espressif.com/sites/default/files/documentation/esp32-wroom-32_datasheet_en.pdf")
      (description "RF Module, ESP32-D0WDQ6 SoC, Wi-Fi 802.11b/g/n, Bluetooth, BLE, 32-bit, 2.7-3.6V, onboard antenna, SMD")
      (fields
        (field (name "Footprint") "RF_Module:ESP32-WROOM-32")
        (field (name "Datasheet") "https://www.espressif.com/sites/default/files/documentation/esp32-wroom-32_datasheet_en.pdf")
        (field (name "Description") "RF Module, ESP32-D0WDQ6 SoC, Wi-Fi 802.11b/g/n, Bluetooth, BLE, 32-bit, 2.7-3.6V, onboard antenna, SMD"))
      (libsource (lib "RF_Module") (part "ESP32-WROOM-32") (description "RF Module, ESP32-D0WDQ6 SoC, Wi-Fi 802.11b/g/n, Bluetooth, BLE, 32-bit, 2.7-3.6V, onboard antenna, SMD"))
      (property (name "Sheetname") (value "ESP32"))
      (property (name "Sheetfile") (value "ESP32.kicad_sch"))
      (property (name "ki_keywords") (value "RF Radio BT ESP ESP32 Espressif onboard PCB antenna"))
      (property (name "ki_fp_filters") (value "ESP32?WROOM?32*"))
      (sheetpath (names "/ESP32/") (tstamps "/0ac6e24e-d3e3-4f87-a6ed-4fce5daf5131/"))
      (tstamps "dcd19bf0-8658-426f-b468-ae8a4af0d926"))
    (comp (ref "U5")
      (value "ADS1115IDGS")
      (footprint "Package_SO:TSSOP-10_3x3mm_P0.5mm")
      (datasheet "http://www.ti.com/lit/ds/symlink/ads1113.pdf")
      (description "Ultra-Small, Low-Power, I2C-Compatible, 860-SPS, 16-Bit ADCs With Internal Reference, Oscillator, and Programmable Comparator, VSSOP-10")
      (fields
        (field (name "Footprint") "Package_SO:TSSOP-10_3x3mm_P0.5mm")
        (field (name "Datasheet") "http://www.ti.com/lit/ds/symlink/ads1113.pdf")
        (field (name "Description") "Ultra-Small, Low-Power, I2C-Compatible, 860-SPS, 16-Bit ADCs With Internal Reference, Oscillator, and Programmable Comparator, VSSOP-10"))
      (libsource (lib "Analog_ADC") (part "ADS1115IDGS") (description "Ultra-Small, Low-Power, I2C-Compatible, 860-SPS, 16-Bit ADCs With Internal Reference, Oscillator, and Programmable Comparator, VSSOP-10"))
      (property (name "Sheetname") (value "ESP32"))
      (property (name "Sheetfile") (value "ESP32.kicad_sch"))
      (property (name "ki_keywords") (value "16 bit 4 channel I2C ADC"))
      (property (name "ki_fp_filters") (value "TSSOP*3x3mm*P0.5mm*"))
      (sheetpath (names "/ESP32/") (tstamps "/0ac6e24e-d3e3-4f87-a6ed-4fce5daf5131/"))
      (tstamps "f4bb2755-e54a-41b8-9489-7c054e705b8f"))
    (comp (ref "U6")
      (value "DS3231M")
      (footprint "Package_SO:SOIC-16W_7.5x10.3mm_P1.27mm")
      (datasheet "http://datasheets.maximintegrated.com/en/ds/DS3231.pdf")
      (description "Extremely Accurate I2C-Integrated RTC/TCXO/Crystal SOIC-16")
      (fields
        (field (name "Footprint") "Package_SO:SOIC-16W_7.5x10.3mm_P1.27mm")
        (field (name "Datasheet") "http://datasheets.maximintegrated.com/en/ds/DS3231.pdf")
        (field (name "Description") "Extremely Accurate I2C-Integrated RTC/TCXO/Crystal SOIC-16"))
      (libsource (lib "Timer_RTC") (part "DS3231M") (description "Extremely Accurate I2C-Integrated RTC/TCXO/Crystal SOIC-16"))
      (property (name "Sheetname") (value "ESP32"))
      (property (name "Sheetfile") (value "ESP32.kicad_sch"))
      (property (name "ki_keywords") (value "RTC TCXO Realtime Time Clock Crystal Oscillator I2C"))
      (property (name "ki_fp_filters") (value "SOIC*7.5x10.3mm*P1.27mm*"))
      (sheetpath (names "/ESP32/") (tstamps "/0ac6e24e-d3e3-4f87-a6ed-4fce5daf5131/"))
      (tstamps "0dea933c-2028-4695-9265-940e0638a093")))
  (libparts
    (libpart (lib "Analog_ADC") (part "ADS1115IDGS")
      (description "Ultra-Small, Low-Power, I2C-Compatible, 860-SPS, 16-Bit ADCs With Internal Reference, Oscillator, and Programmable Comparator, VSSOP-10")
      (docs "http://www.ti.com/lit/ds/symlink/ads1113.pdf")
      (footprints
        (fp "TSSOP*3x3mm*P0.5mm*"))
      (fields
        (field (name "Reference") "U")
        (field (name "Value") "ADS1115IDGS")
        (field (name "Footprint") "Package_SO:TSSOP-10_3x3mm_P0.5mm")
        (field (name "Datasheet") "http://www.ti.com/lit/ds/symlink/ads1113.pdf")
        (field (name "Description") "Ultra-Small, Low-Power, I2C-Compatible, 860-SPS, 16-Bit ADCs With Internal Reference, Oscillator, and Programmable Comparator, VSSOP-10"))
      (pins
        (pin (num "1") (name "ADDR") (type "input"))
        (pin (num "2") (name "ALERT/RDY") (type "output"))
        (pin (num "3") (name "GND") (type "power_in"))
        (pin (num "4") (name "AIN0") (type "input"))
        (pin (num "5") (name "AIN1") (type "input"))
        (pin (num "6") (name "AIN2") (type "input"))
        (pin (num "7") (name "AIN3") (type "input"))
        (pin (num "8") (name "VDD") (type "power_in"))
        (pin (num "9") (name "SDA") (type "bidirectional"))
        (pin (num "10") (name "SCL") (type "input"))))
    (libpart (lib "Connector") (part "Jack-DC")
      (description "DC Barrel Jack")
      (docs "~")
      (footprints
        (fp "BarrelJack*"))
      (fields
        (field (name "Reference") "J")
        (field (name "Value") "Jack-DC")
        (field (name "Footprint"))
        (field (name "Datasheet") "~")
        (field (name "Description") "DC Barrel Jack"))
      (pins
        (pin (num "1") (name "") (type "passive"))
        (pin (num "2") (name "") (type "passive"))))
    (libpart (lib "Connector") (part "Micro_SD_Card_Det1")
      (description "Micro SD Card Socket with one card detection pin")
      (docs "https://datasheet.lcsc.com/lcsc/2110151630_XKB-Connectivity-XKTF-015-N_C381082.pdf")
      (footprints
        (fp "microSD*"))
      (fields
        (field (name "Reference") "J")
        (field (name "Value") "Micro_SD_Card_Det1")
        (field (name "Footprint"))
        (field (name "Datasheet") "https://datasheet.lcsc.com/lcsc/2110151630_XKB-Connectivity-XKTF-015-N_C381082.pdf")
        (field (name "Description") "Micro SD Card Socket with one card detection pin"))
      (pins
        (pin (num "1") (name "DAT2") (type "bidirectional"))
        (pin (num "2") (name "DAT3/CD") (type "bidirectional"))
        (pin (num "3") (name "CMD") (type "input"))
        (pin (num "4") (name "VDD") (type "power_in"))
        (pin (num "5") (name "CLK") (type "input"))
        (pin (num "6") (name "VSS") (type "power_in"))
        (pin (num "7") (name "DAT0") (type "bidirectional"))
        (pin (num "8") (name "DAT1") (type "bidirectional"))
        (pin (num "9") (name "DET") (type "passive"))
        (pin (num "10") (name "SHIELD") (type "passive"))))
    (libpart (lib "Connector") (part "USB_C_Receptacle_USB2.0_14P")
      (description "USB 2.0-only 14P Type-C Receptacle connector")
      (docs "https://www.usb.org/sites/default/files/documents/usb_type-c.zip")
      (footprints
        (fp "USB*C*Receptacle*"))
      (fields
        (field (name "Reference") "J")
        (field (name "Value") "USB_C_Receptacle_USB2.0_14P")
        (field (name "Footprint"))
        (field (name "Datasheet") "https://www.usb.org/sites/default/files/documents/usb_type-c.zip")
        (field (name "Description") "USB 2.0-only 14P Type-C Receptacle connector"))
      (pins
        (pin (num "A1") (name "GND") (type "passive"))
        (pin (num "A4") (name "VBUS") (type "passive"))
        (pin (num "A5") (name "CC1") (type "bidirectional"))
        (pin (num "A6") (name "D+") (type "bidirectional"))
        (pin (num "A7") (name "D-") (type "bidirectional"))
        (pin (num "A9") (name "VBUS") (type "passive"))
        (pin (num "A12") (name "GND") (type "passive"))
        (pin (num "B1") (name "GND") (type "passive"))
        (pin (num "B4") (name "VBUS") (type "passive"))
        (pin (num "B5") (name "CC2") (type "bidirectional"))
        (pin (num "B6") (name "D+") (type "bidirectional"))
        (pin (num "B7") (name "D-") (type "bidirectional"))
        (pin (num "B9") (name "VBUS") (type "passive"))
        (pin (num "B12") (name "GND") (type "passive"))
        (pin (num "S1") (name "SHIELD") (type "passive"))))
    (libpart (lib "Connector_Generic") (part "Conn_02x05_Odd_Even")
      (description "Generic connector, double row, 02x05, odd/even pin numbering scheme (row 1 odd numbers, row 2 even numbers), script generated (kicad-library-utils/schlib/autogen/connector/)")
      (docs "~")
      (footprints
        (fp "Connector*:*_2x??_*"))
      (fields
        (field (name "Reference") "J")
        (field (name "Value") "Conn_02x05_Odd_Even")
        (field (name "Footprint"))
        (field (name "Datasheet") "~")
        (field (name "Description") "Generic connector, double row, 02x05, odd/even pin numbering scheme (row 1 odd numbers, row 2 even numbers), script generated (kicad-library-utils/schlib/autogen/connector/)"))
      (pins
        (pin (num "1") (name "Pin_1") (type "passive"))
        (pin (num "2") (name "Pin_2") (type "passive"))
        (pin (num "3") (name "Pin_3") (type "passive"))
        (pin (num "4") (name "Pin_4") (type "passive"))
        (pin (num "5") (name "Pin_5") (type "passive"))
        (pin (num "6") (name "Pin_6") (type "passive"))
        (pin (num "7") (name "Pin_7") (type "passive"))
        (pin (num "8") (name "Pin_8") (type "passive"))
        (pin (num "9") (name "Pin_9") (type "passive"))
        (pin (num "10") (name "Pin_10") (type "passive"))))
    (libpart (lib "Device") (part "Battery_Cell")
      (description "Single-cell battery")
      (docs "~")
      (fields
        (field (name "Reference") "BT")
        (field (name "Value") "Battery_Cell")
        (field (name "Footprint"))
        (field (name "Datasheet") "~")
        (field (name "Description") "Single-cell battery"))
      (pins
        (pin (num "1") (name "+") (type "passive"))
        (pin (num "2") (name "-") (type "passive"))))
    (libpart (lib "Device") (part "C")
      (description "Unpolarized capacitor")
      (docs "~")
      (footprints
        (fp "C_*"))
      (fields
        (field (name "Reference") "C")
        (field (name "Value") "C")
        (field (name "Footprint"))
        (field (name "Datasheet") "~")
        (field (name "Description") "Unpolarized capacitor"))
      (pins
        (pin (num "1") (name "") (type "passive"))
        (pin (num "2") (name "") (type "passive"))))
    (libpart (lib "Device") (part "C_Polarized")
      (description "Polarized capacitor")
      (docs "~")
      (footprints
        (fp "CP_*"))
      (fields
        (field (name "Reference") "C")
        (field (name "Value") "C_Polarized")
        (field (name "Footprint"))
        (field (name "Datasheet") "~")
        (field (name "Description") "Polarized capacitor"))
      (pins
        (pin (num "1") (name "") (type "passive"))
        (pin (num "2") (name "") (type "passive"))))
    (libpart (lib "Device") (part "D")
      (description "Diode")
      (docs "~")
      (footprints
        (fp "TO-???*")
        (fp "*_Diode_*")
        (fp "*SingleDiode*")
        (fp "D_*"))
      (fields
        (field (name "Reference") "D")
        (field (name "Value") "D")
        (field (name "Footprint"))
        (field (name "Datasheet") "~")
        (field (name "Description") "Diode")
        (field (name "Sim.Device") "D")
        (field (name "Sim.Pins") "1=K 2=A"))
      (pins
        (pin (num "1") (name "K") (type "passive"))
        (pin (num "2") (name "A") (type "passive"))))
    (libpart (lib "Device") (part "D_Schottky")
      (description "Schottky diode")
      (docs "~")
      (footprints
        (fp "TO-???*")
        (fp "*_Diode_*")
        (fp "*SingleDiode*")
        (fp "D_*"))
      (fields
        (field (name "Reference") "D")
        (field (name "Value") "D_Schottky")
        (field (name "Footprint"))
        (field (name "Datasheet") "~")
        (field (name "Description") "Schottky diode"))
      (pins
        (pin (num "1") (name "K") (type "passive"))
        (pin (num "2") (name "A") (type "passive"))))
    (libpart (lib "Device") (part "L")
      (description "Inductor")
      (docs "~")
      (footprints
        (fp "Choke_*")
        (fp "*Coil*")
        (fp "Inductor_*")
        (fp "L_*"))
      (fields
        (field (name "Reference") "L")
        (field (name "Value") "L")
        (field (name "Footprint"))
        (field (name "Datasheet") "~")
        (field (name "Description") "Inductor"))
      (pins
        (pin (num "1") (name "1") (type "passive"))
        (pin (num "2") (name "2") (type "passive"))))
    (libpart (lib "Device") (part "R_Network06_US")
      (description "6 resistor network, star topology, bussed resistors, small US symbol")
      (docs "http://www.vishay.com/docs/31509/csc.pdf")
      (footprints
        (fp "R?Array?SIP*"))
      (fields
        (field (name "Reference") "RN")
        (field (name "Value") "R_Network06_US")
        (field (name "Footprint") "Resistor_THT:R_Array_SIP7")
        (field (name "Datasheet") "http://www.vishay.com/docs/31509/csc.pdf")
        (field (name "Description") "6 resistor network, star topology, bussed resistors, small US symbol"))
      (pins
        (pin (num "1") (name "common") (type "passive"))
        (pin (num "2") (name "R1") (type "passive"))
        (pin (num "3") (name "R2") (type "passive"))
        (pin (num "4") (name "R3") (type "passive"))
        (pin (num "5") (name "R4") (type "passive"))
        (pin (num "6") (name "R5") (type "passive"))
        (pin (num "7") (name "R6") (type "passive"))))
    (libpart (lib "Device") (part "R_US")
      (description "Resistor, US symbol")
      (docs "~")
      (footprints
        (fp "R_*"))
      (fields
        (field (name "Reference") "R")
        (field (name "Value") "R_US")
        (field (name "Footprint"))
        (field (name "Datasheet") "~")
        (field (name "Description") "Resistor, US symbol"))
      (pins
        (pin (num "1") (name "") (type "passive"))
        (pin (num "2") (name "") (type "passive"))))
    (libpart (lib "Driver Porta 5.0-eagle-import") (part "R-US_R0805")
      (description "RESISTOR, American symbol")
      (fields
        (field (name "Reference") "R")
        (field (name "Value"))
        (field (name "Footprint") "Driver Porta 5.0:R0805")
        (field (name "Datasheet"))
        (field (name "Description") "RESISTOR, American symbol"))
      (pins
        (pin (num "1") (name "1") (type "passive"))
        (pin (num "2") (name "2") (type "passive"))))
    (libpart (lib "Interface_USB") (part "CP2102N-Axx-xQFN24")
      (description "USB to UART master bridge, QFN-24")
      (docs "https://www.silabs.com/documents/public/data-sheets/cp2102n-datasheet.pdf")
      (footprints
        (fp "QFN*4x4mm*P0.5mm*"))
      (fields
        (field (name "Reference") "U")
        (field (name "Value") "CP2102N-Axx-xQFN24")
        (field (name "Footprint") "Package_DFN_QFN:QFN-24-1EP_4x4mm_P0.5mm_EP2.6x2.6mm")
        (field (name "Datasheet") "https://www.silabs.com/documents/public/data-sheets/cp2102n-datasheet.pdf")
        (field (name "Description") "USB to UART master bridge, QFN-24"))
      (pins
        (pin (num "1") (name "~{RI}/CLK") (type "bidirectional"))
        (pin (num "2") (name "GND") (type "power_in"))
        (pin (num "3") (name "D+") (type "bidirectional"))
        (pin (num "4") (name "D-") (type "bidirectional"))
        (pin (num "5") (name "VIO") (type "power_in"))
        (pin (num "6") (name "VDD") (type "power_in"))
        (pin (num "7") (name "VREGIN") (type "power_in"))
        (pin (num "8") (name "VBUS") (type "input"))
        (pin (num "9") (name "~{RST}") (type "input"))
        (pin (num "10") (name "NC") (type "no_connect"))
        (pin (num "11") (name "~{WAKEUP}/GPIO.3") (type "bidirectional"))
        (pin (num "12") (name "RS485/GPIO.2") (type "bidirectional"))
        (pin (num "13") (name "~{RXT}/GPIO.1") (type "bidirectional"))
        (pin (num "14") (name "~{TXT}/GPIO.0") (type "bidirectional"))
        (pin (num "15") (name "~{SUSPEND}") (type "output"))
        (pin (num "16") (name "NC") (type "no_connect"))
        (pin (num "17") (name "SUSPEND") (type "output"))
        (pin (num "18") (name "~{CTS}") (type "input"))
        (pin (num "19") (name "~{RTS}") (type "output"))
        (pin (num "20") (name "RXD") (type "input"))
        (pin (num "21") (name "TXD") (type "output"))
        (pin (num "22") (name "~{DSR}") (type "input"))
        (pin (num "23") (name "~{DTR}") (type "output"))
        (pin (num "24") (name "~{DCD}") (type "input"))
        (pin (num "25") (name "GND") (type "passive"))))
    (libpart (lib "Power_Protection") (part "SP0503BAHT")
      (description "TVS Diode Array, 5.5V Standoff, 3 Channels, SOT-143 package")
      (docs "http://www.littelfuse.com/~/media/files/littelfuse/technical%20resources/documents/data%20sheets/sp05xxba.pdf")
      (footprints
        (fp "SOT?143*"))
      (fields
        (field (name "Reference") "D")
        (field (name "Value") "SP0503BAHT")
        (field (name "Footprint") "Package_TO_SOT_SMD:SOT-143")
        (field (name "Datasheet") "http://www.littelfuse.com/~/media/files/littelfuse/technical%20resources/documents/data%20sheets/sp05xxba.pdf")
        (field (name "Description") "TVS Diode Array, 5.5V Standoff, 3 Channels, SOT-143 package"))
      (pins
        (pin (num "1") (name "A") (type "passive"))
        (pin (num "2") (name "K") (type "passive"))
        (pin (num "3") (name "K") (type "passive"))
        (pin (num "4") (name "K") (type "passive"))))
    (libpart (lib "RF_Module") (part "ESP32-WROOM-32")
      (description "RF Module, ESP32-D0WDQ6 SoC, Wi-Fi 802.11b/g/n, Bluetooth, BLE, 32-bit, 2.7-3.6V, onboard antenna, SMD")
      (docs "https://www.espressif.com/sites/default/files/documentation/esp32-wroom-32_datasheet_en.pdf")
      (footprints
        (fp "ESP32?WROOM?32*"))
      (fields
        (field (name "Reference") "U")
        (field (name "Value") "ESP32-WROOM-32")
        (field (name "Footprint") "RF_Module:ESP32-WROOM-32")
        (field (name "Datasheet") "https://www.espressif.com/sites/default/files/documentation/esp32-wroom-32_datasheet_en.pdf")
        (field (name "Description") "RF Module, ESP32-D0WDQ6 SoC, Wi-Fi 802.11b/g/n, Bluetooth, BLE, 32-bit, 2.7-3.6V, onboard antenna, SMD"))
      (pins
        (pin (num "1") (name "GND") (type "power_in"))
        (pin (num "2") (name "VDD") (type "power_in"))
        (pin (num "3") (name "EN") (type "input"))
        (pin (num "4") (name "SENSOR_VP") (type "input"))
        (pin (num "5") (name "SENSOR_VN") (type "input"))
        (pin (num "6") (name "IO34") (type "input"))
        (pin (num "7") (name "IO35") (type "input"))
        (pin (num "8") (name "IO32") (type "bidirectional"))
        (pin (num "9") (name "IO33") (type "bidirectional"))
        (pin (num "10") (name "IO25") (type "bidirectional"))
        (pin (num "11") (name "IO26") (type "bidirectional"))
        (pin (num "12") (name "IO27") (type "bidirectional"))
        (pin (num "13") (name "IO14") (type "bidirectional"))
        (pin (num "14") (name "IO12") (type "bidirectional"))
        (pin (num "15") (name "GND") (type "passive"))
        (pin (num "16") (name "IO13") (type "bidirectional"))
        (pin (num "17") (name "SHD/SD2") (type "bidirectional"))
        (pin (num "18") (name "SWP/SD3") (type "bidirectional"))
        (pin (num "19") (name "SCS/CMD") (type "bidirectional"))
        (pin (num "20") (name "SCK/CLK") (type "bidirectional"))
        (pin (num "21") (name "SDO/SD0") (type "bidirectional"))
        (pin (num "22") (name "SDI/SD1") (type "bidirectional"))
        (pin (num "23") (name "IO15") (type "bidirectional"))
        (pin (num "24") (name "IO2") (type "bidirectional"))
        (pin (num "25") (name "IO0") (type "bidirectional"))
        (pin (num "26") (name "IO4") (type "bidirectional"))
        (pin (num "27") (name "IO16") (type "bidirectional"))
        (pin (num "28") (name "IO17") (type "bidirectional"))
        (pin (num "29") (name "IO5") (type "bidirectional"))
        (pin (num "30") (name "IO18") (type "bidirectional"))
        (pin (num "31") (name "IO19") (type "bidirectional"))
        (pin (num "32") (name "NC") (type "no_connect"))
        (pin (num "33") (name "IO21") (type "bidirectional"))
        (pin (num "34") (name "RXD0/IO3") (type "bidirectional"))
        (pin (num "35") (name "TXD0/IO1") (type "bidirectional"))
        (pin (num "36") (name "IO22") (type "bidirectional"))
        (pin (num "37") (name "IO23") (type "bidirectional"))
        (pin (num "38") (name "GND") (type "passive"))
        (pin (num "39") (name "GND") (type "passive"))))
    (libpart (lib "Regulator_Linear") (part "LM1117MP-3.3")
      (description "800mA Low-Dropout Linear Regulator, 3.3V fixed output, SOT-223")
      (docs "http://www.ti.com/lit/ds/symlink/lm1117.pdf")
      (footprints
        (fp "SOT?223*"))
      (fields
        (field (name "Reference") "U")
        (field (name "Value") "LM1117MP-3.3")
        (field (name "Footprint") "Package_TO_SOT_SMD:SOT-223-3_TabPin2")
        (field (name "Datasheet") "http://www.ti.com/lit/ds/symlink/lm1117.pdf")
        (field (name "Description") "800mA Low-Dropout Linear Regulator, 3.3V fixed output, SOT-223"))
      (pins
        (pin (num "1") (name "GND") (type "power_in"))
        (pin (num "2") (name "VO") (type "power_out"))
        (pin (num "3") (name "VI") (type "power_in"))))
    (libpart (lib "Regulator_Switching") (part "LM2576HVS-5")
      (description "5V 3A, SIMPLE SWITCHER® Step-Down Voltage Regulator, High Voltage Input, TO-263")
      (docs "http://www.ti.com/lit/ds/symlink/lm2576.pdf")
      (footprints
        (fp "TO?263*"))
      (fields
        (field (name "Reference") "U")
        (field (name "Value") "LM2576HVS-5")
        (field (name "Footprint") "Package_TO_SOT_SMD:TO-263-5_TabPin3")
        (field (name "Datasheet") "http://www.ti.com/lit/ds/symlink/lm2576.pdf")
        (field (name "Description") "5V 3A, SIMPLE SWITCHER® Step-Down Voltage Regulator, High Voltage Input, TO-263"))
      (pins
        (pin (num "1") (name "VIN") (type "power_in"))
        (pin (num "2") (name "OUT") (type "output"))
        (pin (num "3") (name "GND") (type "power_in"))
        (pin (num "4") (name "FB") (type "input"))
        (pin (num "5") (name "~{ON}/OFF") (type "input"))))
    (libpart (lib "Switch") (part "SW_Push")
      (description "Push button switch, generic, two pins")
      (docs "~")
      (fields
        (field (name "Reference") "SW")
        (field (name "Value") "SW_Push")
        (field (name "Footprint"))
        (field (name "Datasheet") "~")
        (field (name "Description") "Push button switch, generic, two pins"))
      (pins
        (pin (num "1") (name "1") (type "passive"))
        (pin (num "2") (name "2") (type "passive"))))
    (libpart (lib "Timer_RTC") (part "DS3231M")
      (description "Extremely Accurate I2C-Integrated RTC/TCXO/Crystal SOIC-16")
      (docs "http://datasheets.maximintegrated.com/en/ds/DS3231.pdf")
      (footprints
        (fp "SOIC*7.5x10.3mm*P1.27mm*"))
      (fields
        (field (name "Reference") "U")
        (field (name "Value") "DS3231M")
        (field (name "Footprint") "Package_SO:SOIC-16W_7.5x10.3mm_P1.27mm")
        (field (name "Datasheet") "http://datasheets.maximintegrated.com/en/ds/DS3231.pdf")
        (field (name "Description") "Extremely Accurate I2C-Integrated RTC/TCXO/Crystal SOIC-16"))
      (pins
        (pin (num "1") (name "32KHZ") (type "open_collector"))
        (pin (num "2") (name "VCC") (type "power_in"))
        (pin (num "3") (name "~{INT}/SQW") (type "open_collector"))
        (pin (num "4") (name "~{RST}") (type "bidirectional"))
        (pin (num "5") (name "GND") (type "passive"))
        (pin (num "6") (name "GND") (type "passive"))
        (pin (num "7") (name "GND") (type "passive"))
        (pin (num "8") (name "GND") (type "passive"))
        (pin (num "9") (name "GND") (type "passive"))
        (pin (num "10") (name "GND") (type "passive"))
        (pin (num "11") (name "GND") (type "passive"))
        (pin (num "12") (name "GND") (type "passive"))
        (pin (num "13") (name "GND") (type "power_in"))
        (pin (num "14") (name "VBAT") (type "power_in"))
        (pin (num "15") (name "SDA") (type "bidirectional"))
        (pin (num "16") (name "SCL") (type "input"))))
    (libpart (lib "Transistor_BJT") (part "BC817")
      (description "0.8A Ic, 45V Vce, NPN Transistor, SOT-23")
      (docs "https://www.onsemi.com/pub/Collateral/BC818-D.pdf")
      (footprints
        (fp "SOT?23*"))
      (fields
        (field (name "Reference") "Q")
        (field (name "Value") "BC817")
        (field (name "Footprint") "Package_TO_SOT_SMD:SOT-23")
        (field (name "Datasheet") "https://www.onsemi.com/pub/Collateral/BC818-D.pdf")
        (field (name "Description") "0.8A Ic, 45V Vce, NPN Transistor, SOT-23"))
      (pins
        (pin (num "1") (name "B") (type "input"))
        (pin (num "2") (name "E") (type "passive"))
        (pin (num "3") (name "C") (type "passive")))))
  (libraries
    (library (logical "Analog_ADC")
      (uri "C:\\Program Files\\KiCad\\8.0\\share\\kicad\\symbols\\/Analog_ADC.kicad_sym"))
    (library (logical "Connector")
      (uri "C:\\Program Files\\KiCad\\8.0\\share\\kicad\\symbols\\/Connector.kicad_sym"))
    (library (logical "Connector_Generic")
      (uri "C:\\Program Files\\KiCad\\8.0\\share\\kicad\\symbols\\/Connector_Generic.kicad_sym"))
    (library (logical "Device")
      (uri "C:\\Program Files\\KiCad\\8.0\\share\\kicad\\symbols\\/Device.kicad_sym"))
    (library (logical "Interface_USB")
      (uri "C:\\Program Files\\KiCad\\8.0\\share\\kicad\\symbols\\/Interface_USB.kicad_sym"))
    (library (logical "Power_Protection")
      (uri "C:\\Program Files\\KiCad\\8.0\\share\\kicad\\symbols\\/Power_Protection.kicad_sym"))
    (library (logical "RF_Module")
      (uri "C:\\Program Files\\KiCad\\8.0\\share\\kicad\\symbols\\/RF_Module.kicad_sym"))
    (library (logical "Regulator_Linear")
      (uri "C:\\Program Files\\KiCad\\8.0\\share\\kicad\\symbols\\/Regulator_Linear.kicad_sym"))
    (library (logical "Regulator_Switching")
      (uri "C:\\Program Files\\KiCad\\8.0\\share\\kicad\\symbols\\/Regulator_Switching.kicad_sym"))
    (library (logical "Switch")
      (uri "C:\\Program Files\\KiCad\\8.0\\share\\kicad\\symbols\\/Switch.kicad_sym"))
    (library (logical "Timer_RTC")
      (uri "C:\\Program Files\\KiCad\\8.0\\share\\kicad\\symbols\\/Timer_RTC.kicad_sym"))
    (library (logical "Transistor_BJT")
      (uri "C:\\Program Files\\KiCad\\8.0\\share\\kicad\\symbols\\/Transistor_BJT.kicad_sym")))
  (nets
    (net (code "1") (name "+3.3V")
      (node (ref "C5") (pin "1") (pintype "passive"))
      (node (ref "C6") (pin "1") (pintype "passive"))
      (node (ref "C7") (pin "2") (pintype "passive"))
      (node (ref "C8") (pin "2") (pintype "passive"))
      (node (ref "C9") (pin "2") (pintype "passive"))
      (node (ref "J3") (pin "4") (pinfunction "VDD") (pintype "power_in"))
      (node (ref "J4") (pin "1") (pinfunction "Pin_1") (pintype "passive"))
      (node (ref "R10") (pin "2") (pintype "passive"))
      (node (ref "R11") (pin "2") (pintype "passive"))
      (node (ref "R12") (pin "2") (pintype "passive"))
      (node (ref "R14") (pin "2") (pintype "passive"))
      (node (ref "R6") (pin "1") (pinfunction "1") (pintype "passive"))
      (node (ref "R8") (pin "1") (pinfunction "1") (pintype "passive"))
      (node (ref "R9") (pin "2") (pintype "passive"))
      (node (ref "RN1") (pin "1") (pinfunction "common") (pintype "passive"))
      (node (ref "U2") (pin "2") (pinfunction "VO") (pintype "power_out"))
      (node (ref "U4") (pin "2") (pinfunction "VDD") (pintype "power_in"))
      (node (ref "U5") (pin "8") (pinfunction "VDD") (pintype "power_in"))
      (node (ref "U6") (pin "2") (pinfunction "VCC") (pintype "power_in")))
    (net (code "2") (name "+5V")
      (node (ref "C3") (pin "1") (pintype "passive"))
      (node (ref "C4") (pin "1") (pintype "passive"))
      (node (ref "D4") (pin "1") (pinfunction "K") (pintype "passive"))
      (node (ref "L1") (pin "2") (pinfunction "2") (pintype "passive"))
      (node (ref "U1") (pin "4") (pinfunction "FB") (pintype "input"))
      (node (ref "U2") (pin "3") (pinfunction "VI") (pintype "power_in"))
      (node (ref "U3") (pin "7") (pinfunction "VREGIN") (pintype "power_in")))
    (net (code "3") (name "BOOT")
      (node (ref "Q2") (pin "3") (pinfunction "C") (pintype "passive"))
      (node (ref "R8") (pin "2") (pinfunction "2") (pintype "passive"))
      (node (ref "U4") (pin "25") (pinfunction "IO0") (pintype "bidirectional")))
    (net (code "4") (name "BUTTON1")
      (node (ref "R9") (pin "1") (pintype "passive"))
      (node (ref "SW1") (pin "2") (pinfunction "2") (pintype "passive"))
      (node (ref "U4") (pin "6") (pinfunction "IO34") (pintype "input")))
    (net (code "5") (name "BUTTON2")
      (node (ref "R10") (pin "1") (pintype "passive"))
      (node (ref "SW2") (pin "2") (pinfunction "2") (pintype "passive"))
      (node (ref "U4") (pin "7") (pinfunction "IO35") (pintype "input")))
    (net (code "6") (name "D+")
      (node (ref "D3") (pin "2") (pinfunction "K") (pintype "passive"))
      (node (ref "J2") (pin "A6") (pinfunction "D+") (pintype "bidirectional"))
      (node (ref "J2") (pin "B6") (pinfunction "D+") (pintype "bidirectional"))
      (node (ref "U3") (pin "3") (pinfunction "D+") (pintype "bidirectional")))
    (net (code "7") (name "D-")
      (node (ref "D3") (pin "3") (pinfunction "K") (pintype "passive"))
      (node (ref "J2") (pin "A7") (pinfunction "D-") (pintype "bidirectional"))
      (node (ref "J2") (pin "B7") (pinfunction "D-") (pintype "bidirectional"))
      (node (ref "U3") (pin "4") (pinfunction "D-") (pintype "bidirectional")))
    (net (code "8") (name "GNDD")
      (node (ref "BT1") (pin "2") (pinfunction "-") (pintype "passive"))
      (node (ref "C1") (pin "2") (pintype "passive"))
      (node (ref "C2") (pin "2") (pintype "passive"))
      (node (ref "C3") (pin "2") (pintype "passive"))
      (node (ref "C4") (pin "2") (pintype "passive"))
      (node (ref "C5") (pin "2") (pintype "passive"))
      (node (ref "C6") (pin "2") (pintype "passive"))
      (node (ref "C7") (pin "1") (pintype "passive"))
      (node (ref "C8") (pin "1") (pintype "passive"))
      (node (ref "C9") (pin "1") (pintype "passive"))
      (node (ref "D2") (pin "2") (pinfunction "A") (pintype "passive"))
      (node (ref "D3") (pin "1") (pinfunction "A") (pintype "passive"))
      (node (ref "J1") (pin "2") (pintype "passive"))
      (node (ref "J2") (pin "A1") (pinfunction "GND") (pintype "passive"))
      (node (ref "J2") (pin "A12") (pinfunction "GND") (pintype "passive"))
      (node (ref "J2") (pin "B1") (pinfunction "GND") (pintype "passive"))
      (node (ref "J2") (pin "B12") (pinfunction "GND") (pintype "passive"))
      (node (ref "J2") (pin "S1") (pinfunction "SHIELD") (pintype "passive"))
      (node (ref "J3") (pin "10") (pinfunction "SHIELD") (pintype "passive"))
      (node (ref "J3") (pin "6") (pinfunction "VSS") (pintype "power_in"))
      (node (ref "J4") (pin "3") (pinfunction "Pin_3") (pintype "passive"))
      (node (ref "J4") (pin "5") (pinfunction "Pin_5") (pintype "passive"))
      (node (ref "J4") (pin "7") (pinfunction "Pin_7") (pintype "passive"))
      (node (ref "J4") (pin "9") (pinfunction "Pin_9") (pintype "passive"))
      (node (ref "R1") (pin "2") (pintype "passive"))
      (node (ref "R13") (pin "1") (pintype "passive"))
      (node (ref "R2") (pin "2") (pintype "passive"))
      (node (ref "R4") (pin "1") (pintype "passive"))
      (node (ref "SW1") (pin "1") (pinfunction "1") (pintype "passive"))
      (node (ref "SW2") (pin "1") (pinfunction "1") (pintype "passive"))
      (node (ref "U1") (pin "3") (pinfunction "GND") (pintype "power_in"))
      (node (ref "U2") (pin "1") (pinfunction "GND") (pintype "power_in"))
      (node (ref "U3") (pin "2") (pinfunction "GND") (pintype "power_in"))
      (node (ref "U3") (pin "25") (pinfunction "GND") (pintype "passive"))
      (node (ref "U4") (pin "1") (pinfunction "GND") (pintype "power_in"))
      (node (ref "U4") (pin "15") (pinfunction "GND") (pintype "passive"))
      (node (ref "U4") (pin "38") (pinfunction "GND") (pintype "passive"))
      (node (ref "U4") (pin "39") (pinfunction "GND") (pintype "passive"))
      (node (ref "U5") (pin "3") (pinfunction "GND") (pintype "power_in"))
      (node (ref "U6") (pin "10") (pinfunction "GND") (pintype "passive"))
      (node (ref "U6") (pin "11") (pinfunction "GND") (pintype "passive"))
      (node (ref "U6") (pin "12") (pinfunction "GND") (pintype "passive"))
      (node (ref "U6") (pin "13") (pinfunction "GND") (pintype "power_in"))
      (node (ref "U6") (pin "5") (pinfunction "GND") (pintype "passive"))
      (node (ref "U6") (pin "6") (pinfunction "GND") (pintype "passive"))
      (node (ref "U6") (pin "7") (pinfunction "GND") (pintype "passive"))
      (node (ref "U6") (pin "8") (pinfunction "GND") (pintype "passive"))
      (node (ref "U6") (pin "9") (pinfunction "GND") (pintype "passive")))
    (net (code "9") (name "I2C_SCL")
      (node (ref "R11") (pin "1") (pintype "passive"))
      (node (ref "U4") (pin "36") (pinfunction "IO22") (pintype "bidirectional"))
      (node (ref "U5") (pin "10") (pinfunction "SCL") (pintype "input"))
      (node (ref "U6") (pin "16") (pinfunction "SCL") (pintype "input")))
    (net (code "10") (name "I2C_SDA")
      (node (ref "R12") (pin "1") (pintype "passive"))
      (node (ref "U4") (pin "33") (pinfunction "IO21") (pintype "bidirectional"))
      (node (ref "U5") (pin "9") (pinfunction "SDA") (pintype "bidirectional"))
      (node (ref "U6") (pin "15") (pinfunction "SDA") (pintype "bidirectional")))
    (net (code "11") (name "JTAG_TCK")
      (node (ref "J4") (pin "4") (pinfunction "Pin_4") (pintype "passive"))
      (node (ref "U4") (pin "16") (pinfunction "IO13") (pintype "bidirectional")))
    (net (code "12") (name "JTAG_TDI")
      (node (ref "J4") (pin "8") (pinfunction "Pin_8") (pintype "passive"))
      (node (ref "U4") (pin "14") (pinfunction "IO12") (pintype "bidirectional")))
    (net (code "13") (name "JTAG_TDO")
      (node (ref "J4") (pin "6") (pinfunction "Pin_6") (pintype "passive"))
      (node (ref "U4") (pin "23") (pinfunction "IO15") (pintype "bidirectional")))
    (net (code "14") (name "JTAG_TMS")
      (node (ref "J4") (pin "2") (pinfunction "Pin_2") (pintype "passive"))
      (node (ref "U4") (pin "13") (pinfunction "IO14") (pintype "bidirectional")))
    (net (code "15") (name "Net-(BT1-+)")
      (node (ref "BT1") (pin "1") (pinfunction "+") (pintype "passive"))
      (node (ref "U6") (pin "14") (pinfunction "VBAT") (pintype "power_in")))
    (net (code "16") (name "Net-(D1-A)")
      (node (ref "D1") (pin "2") (pinfunction "A") (pintype "passive"))
      (node (ref "J1") (pin "1") (pintype "passive")))
    (net (code "17") (name "Net-(D1-K)")
      (node (ref "C1") (pin "1") (pintype "passive"))
      (node (ref "C2") (pin "1") (pintype "passive"))
      (node (ref "D1") (pin "1") (pinfunction "K") (pintype "passive"))
      (node (ref "U1") (pin "1") (pinfunction "VIN") (pintype "power_in"))
      (node (ref "U1") (pin "5") (pinfunction "~{ON}/OFF") (pintype "input")))
    (net (code "18") (name "Net-(D2-K)")
      (node (ref "D2") (pin "1") (pinfunction "K") (pintype "passive"))
      (node (ref "L1") (pin "1") (pinfunction "1") (pintype "passive"))
      (node (ref "U1") (pin "2") (pinfunction "OUT") (pintype "output")))
    (net (code "19") (name "Net-(J2-CC1)")
      (node (ref "J2") (pin "A5") (pinfunction "CC1") (pintype "bidirectional"))
      (node (ref "R1") (pin "1") (pintype "passive")))
    (net (code "20") (name "Net-(J2-CC2)")
      (node (ref "J2") (pin "B5") (pinfunction "CC2") (pintype "bidirectional"))
      (node (ref "R2") (pin "1") (pintype "passive")))
    (net (code "21") (name "Net-(Q1-B)")
      (node (ref "Q1") (pin "1") (pinfunction "B") (pintype "input"))
      (node (ref "R5") (pin "1") (pinfunction "1") (pintype "passive")))
    (net (code "22") (name "Net-(Q2-B)")
      (node (ref "Q2") (pin "1") (pinfunction "B") (pintype "input"))
      (node (ref "R7") (pin "1") (pinfunction "1") (pintype "passive")))
    (net (code "23") (name "Net-(U3-~{RST})")
      (node (ref "R3") (pin "1") (pintype "passive"))
      (node (ref "U3") (pin "9") (pinfunction "~{RST}") (pintype "input")))
    (net (code "24") (name "Net-(U3-~{SUSPEND})")
      (node (ref "R4") (pin "2") (pintype "passive"))
      (node (ref "U3") (pin "15") (pinfunction "~{SUSPEND}") (pintype "output")))
    (net (code "25") (name "Net-(U5-ADDR)")
      (node (ref "R13") (pin "2") (pintype "passive"))
      (node (ref "U5") (pin "1") (pinfunction "ADDR") (pintype "input")))
    (net (code "26") (name "Net-(U5-ALERT{slash}RDY)")
      (node (ref "R14") (pin "1") (pintype "passive"))
      (node (ref "U5") (pin "2") (pinfunction "ALERT/RDY") (pintype "output")))
    (net (code "27") (name "RESET")
      (node (ref "Q1") (pin "3") (pinfunction "C") (pintype "passive"))
      (node (ref "R6") (pin "2") (pinfunction "2") (pintype "passive"))
      (node (ref "U4") (pin "3") (pinfunction "EN") (pintype "input")))
    (net (code "28") (name "RXD_ESP32")
      (node (ref "U3") (pin "21") (pinfunction "TXD") (pintype "output"))
      (node (ref "U4") (pin "34") (pinfunction "RXD0/IO3") (pintype "bidirectional")))
    (net (code "29") (name "SD_CARD_DETECT")
      (node (ref "J3") (pin "9") (pinfunction "DET") (pintype "passive"))
      (node (ref "RN1") (pin "2") (pinfunction "R1") (pintype "passive")))
    (net (code "30") (name "SD_CLK")
      (node (ref "J3") (pin "5") (pinfunction "CLK") (pintype "input")))
    (net (code "31") (name "SD_CMD")
      (node (ref "J3") (pin "3") (pinfunction "CMD") (pintype "input"))
      (node (ref "RN1") (pin "5") (pinfunction "R4") (pintype "passive")))
    (net (code "32") (name "SD_DAT0")
      (node (ref "J3") (pin "7") (pinfunction "DAT0") (pintype "bidirectional"))
      (node (ref "RN1") (pin "4") (pinfunction "R3") (pintype "passive")))
    (net (code "33") (name "SD_DAT1")
      (node (ref "J3") (pin "8") (pinfunction "DAT1") (pintype "bidirectional"))
      (node (ref "RN1") (pin "3") (pinfunction "R2") (pintype "passive")))
    (net (code "34") (name "SD_DAT2")
      (node (ref "J3") (pin "1") (pinfunction "DAT2") (pintype "bidirectional"))
      (node (ref "RN1") (pin "7") (pinfunction "R6") (pintype "passive")))
    (net (code "35") (name "SD_DAT3")
      (node (ref "J3") (pin "2") (pinfunction "DAT3/CD") (pintype "bidirectional"))
      (node (ref "RN1") (pin "6") (pinfunction "R5") (pintype "passive")))
    (net (code "36") (name "TXD1_ESP32")
      (node (ref "U4") (pin "18") (pinfunction "SWP/SD3") (pintype "bidirectional")))
    (net (code "37") (name "TXD_ESP32")
      (node (ref "U3") (pin "20") (pinfunction "RXD") (pintype "input"))
      (node (ref "U4") (pin "35") (pinfunction "TXD0/IO1") (pintype "bidirectional")))
    (net (code "38") (name "UART_DTR")
      (node (ref "Q2") (pin "2") (pinfunction "E") (pintype "passive"))
      (node (ref "R5") (pin "2") (pinfunction "2") (pintype "passive"))
      (node (ref "U3") (pin "23") (pinfunction "~{DTR}") (pintype "output")))
    (net (code "39") (name "UART_RTS")
      (node (ref "Q1") (pin "2") (pinfunction "E") (pintype "passive"))
      (node (ref "R7") (pin "2") (pinfunction "2") (pintype "passive"))
      (node (ref "U3") (pin "19") (pinfunction "~{RTS}") (pintype "output")))
    (net (code "40") (name "VBUS")
      (node (ref "D3") (pin "4") (pinfunction "K") (pintype "passive"))
      (node (ref "D4") (pin "2") (pinfunction "A") (pintype "passive"))
      (node (ref "J2") (pin "A4") (pinfunction "VBUS") (pintype "passive"))
      (node (ref "J2") (pin "A9") (pinfunction "VBUS") (pintype "passive"))
      (node (ref "J2") (pin "B4") (pinfunction "VBUS") (pintype "passive"))
      (node (ref "J2") (pin "B9") (pinfunction "VBUS") (pintype "passive"))
      (node (ref "U3") (pin "8") (pinfunction "VBUS") (pintype "input")))
    (net (code "41") (name "VDD")
      (node (ref "R3") (pin "2") (pintype "passive"))
      (node (ref "U3") (pin "6") (pinfunction "VDD") (pintype "power_in")))
    (net (code "42") (name "unconnected-(J4-Pin_10-Pad10)")
      (node (ref "J4") (pin "10") (pinfunction "Pin_10") (pintype "passive+no_connect")))
    (net (code "43") (name "unconnected-(U3-NC-Pad10)")
      (node (ref "U3") (pin "10") (pinfunction "NC") (pintype "no_connect")))
    (net (code "44") (name "unconnected-(U3-NC-Pad16)")
      (node (ref "U3") (pin "16") (pinfunction "NC") (pintype "no_connect")))
    (net (code "45") (name "unconnected-(U3-RS485{slash}GPIO.2-Pad12)")
      (node (ref "U3") (pin "12") (pinfunction "RS485/GPIO.2") (pintype "bidirectional+no_connect")))
    (net (code "46") (name "unconnected-(U3-SUSPEND-Pad17)")
      (node (ref "U3") (pin "17") (pinfunction "SUSPEND") (pintype "output+no_connect")))
    (net (code "47") (name "unconnected-(U3-VIO-Pad5)")
      (node (ref "U3") (pin "5") (pinfunction "VIO") (pintype "power_in+no_connect")))
    (net (code "48") (name "unconnected-(U3-~{CTS}-Pad18)")
      (node (ref "U3") (pin "18") (pinfunction "~{CTS}") (pintype "input+no_connect")))
    (net (code "49") (name "unconnected-(U3-~{DCD}-Pad24)")
      (node (ref "U3") (pin "24") (pinfunction "~{DCD}") (pintype "input+no_connect")))
    (net (code "50") (name "unconnected-(U3-~{DSR}-Pad22)")
      (node (ref "U3") (pin "22") (pinfunction "~{DSR}") (pintype "input+no_connect")))
    (net (code "51") (name "unconnected-(U3-~{RI}{slash}CLK-Pad1)")
      (node (ref "U3") (pin "1") (pinfunction "~{RI}/CLK") (pintype "bidirectional+no_connect")))
    (net (code "52") (name "unconnected-(U3-~{RXT}{slash}GPIO.1-Pad13)")
      (node (ref "U3") (pin "13") (pinfunction "~{RXT}/GPIO.1") (pintype "bidirectional+no_connect")))
    (net (code "53") (name "unconnected-(U3-~{TXT}{slash}GPIO.0-Pad14)")
      (node (ref "U3") (pin "14") (pinfunction "~{TXT}/GPIO.0") (pintype "bidirectional+no_connect")))
    (net (code "54") (name "unconnected-(U3-~{WAKEUP}{slash}GPIO.3-Pad11)")
      (node (ref "U3") (pin "11") (pinfunction "~{WAKEUP}/GPIO.3") (pintype "bidirectional+no_connect")))
    (net (code "55") (name "unconnected-(U4-IO2-Pad24)")
      (node (ref "U4") (pin "24") (pinfunction "IO2") (pintype "bidirectional")))
    (net (code "56") (name "unconnected-(U4-IO4-Pad26)")
      (node (ref "U4") (pin "26") (pinfunction "IO4") (pintype "bidirectional")))
    (net (code "57") (name "unconnected-(U4-IO5-Pad29)")
      (node (ref "U4") (pin "29") (pinfunction "IO5") (pintype "bidirectional")))
    (net (code "58") (name "unconnected-(U4-IO16-Pad27)")
      (node (ref "U4") (pin "27") (pinfunction "IO16") (pintype "bidirectional")))
    (net (code "59") (name "unconnected-(U4-IO17-Pad28)")
      (node (ref "U4") (pin "28") (pinfunction "IO17") (pintype "bidirectional")))
    (net (code "60") (name "unconnected-(U4-IO18-Pad30)")
      (node (ref "U4") (pin "30") (pinfunction "IO18") (pintype "bidirectional")))
    (net (code "61") (name "unconnected-(U4-IO19-Pad31)")
      (node (ref "U4") (pin "31") (pinfunction "IO19") (pintype "bidirectional")))
    (net (code "62") (name "unconnected-(U4-IO23-Pad37)")
      (node (ref "U4") (pin "37") (pinfunction "IO23") (pintype "bidirectional")))
    (net (code "63") (name "unconnected-(U4-IO25-Pad10)")
      (node (ref "U4") (pin "10") (pinfunction "IO25") (pintype "bidirectional")))
    (net (code "64") (name "unconnected-(U4-IO26-Pad11)")
      (node (ref "U4") (pin "11") (pinfunction "IO26") (pintype "bidirectional")))
    (net (code "65") (name "unconnected-(U4-IO27-Pad12)")
      (node (ref "U4") (pin "12") (pinfunction "IO27") (pintype "bidirectional")))
    (net (code "66") (name "unconnected-(U4-IO32-Pad8)")
      (node (ref "U4") (pin "8") (pinfunction "IO32") (pintype "bidirectional")))
    (net (code "67") (name "unconnected-(U4-IO33-Pad9)")
      (node (ref "U4") (pin "9") (pinfunction "IO33") (pintype "bidirectional")))
    (net (code "68") (name "unconnected-(U4-NC-Pad32)")
      (node (ref "U4") (pin "32") (pinfunction "NC") (pintype "no_connect")))
    (net (code "69") (name "unconnected-(U4-SCK{slash}CLK-Pad20)")
      (node (ref "U4") (pin "20") (pinfunction "SCK/CLK") (pintype "bidirectional+no_connect")))
    (net (code "70") (name "unconnected-(U4-SCS{slash}CMD-Pad19)")
      (node (ref "U4") (pin "19") (pinfunction "SCS/CMD") (pintype "bidirectional+no_connect")))
    (net (code "71") (name "unconnected-(U4-SDI{slash}SD1-Pad22)")
      (node (ref "U4") (pin "22") (pinfunction "SDI/SD1") (pintype "bidirectional+no_connect")))
    (net (code "72") (name "unconnected-(U4-SDO{slash}SD0-Pad21)")
      (node (ref "U4") (pin "21") (pinfunction "SDO/SD0") (pintype "bidirectional+no_connect")))
    (net (code "73") (name "unconnected-(U4-SENSOR_VN-Pad5)")
      (node (ref "U4") (pin "5") (pinfunction "SENSOR_VN") (pintype "input")))
    (net (code "74") (name "unconnected-(U4-SENSOR_VP-Pad4)")
      (node (ref "U4") (pin "4") (pinfunction "SENSOR_VP") (pintype "input")))
    (net (code "75") (name "unconnected-(U4-SHD{slash}SD2-Pad17)")
      (node (ref "U4") (pin "17") (pinfunction "SHD/SD2") (pintype "bidirectional+no_connect")))
    (net (code "76") (name "unconnected-(U5-AIN0-Pad4)")
      (node (ref "U5") (pin "4") (pinfunction "AIN0") (pintype "input")))
    (net (code "77") (name "unconnected-(U5-AIN1-Pad5)")
      (node (ref "U5") (pin "5") (pinfunction "AIN1") (pintype "input")))
    (net (code "78") (name "unconnected-(U5-AIN2-Pad6)")
      (node (ref "U5") (pin "6") (pinfunction "AIN2") (pintype "input")))
    (net (code "79") (name "unconnected-(U5-AIN3-Pad7)")
      (node (ref "U5") (pin "7") (pinfunction "AIN3") (pintype "input")))
    (net (code "80") (name "unconnected-(U6-32KHZ-Pad1)")
      (node (ref "U6") (pin "1") (pinfunction "32KHZ") (pintype "open_collector+no_connect")))
    (net (code "81") (name "unconnected-(U6-~{INT}{slash}SQW-Pad3)")
      (node (ref "U6") (pin "3") (pinfunction "~{INT}/SQW") (pintype "open_collector+no_connect")))
    (net (code "82") (name "unconnected-(U6-~{RST}-Pad4)")
      (node (ref "U6") (pin "4") (pinfunction "~{RST}") (pintype "bidirectional")))))