(kicad_sch
	(version 20231120)
	(generator "eeschema")
	(generator_version "8.0")
	(uuid "38f2eed4-58a0-4438-8eea-c5bfb15c319e")
	(paper "A4")
	(lib_symbols
		(symbol "Analog_ADC:ADS1115IDGS"
			(exclude_from_sim no)
			(in_bom yes)
			(on_board yes)
			(property "Reference" "U"
				(at 2.54 13.97 0)
				(effects
					(font
						(size 1.27 1.27)
					)
				)
			)
			(property "Value" "ADS1115IDGS"
				(at 7.62 11.43 0)
				(effects
					(font
						(size 1.27 1.27)
					)
				)
			)
			(property "Footprint" "Package_SO:TSSOP-10_3x3mm_P0.5mm"
				(at 0 -12.7 0)
				(effects
					(font
						(size 1.27 1.27)
					)
					(hide yes)
				)
			)
			(property "Datasheet" "http://www.ti.com/lit/ds/symlink/ads1113.pdf"
				(at -1.27 -22.86 0)
				(effects
					(font
						(size 1.27 1.27)
					)
					(hide yes)
				)
			)
			(property "Description" "Ultra-Small, Low-Power, I2C-Compatible, 860-SPS, 16-Bit ADCs With Internal Reference, Oscillator, and Programmable Comparator, VSSOP-10"
				(at 0 0 0)
				(effects
					(font
						(size 1.27 1.27)
					)
					(hide yes)
				)
			)
			(property "ki_keywords" "16 bit 4 channel I2C ADC"
				(at 0 0 0)
				(effects
					(font
						(size 1.27 1.27)
					)
					(hide yes)
				)
			)
			(property "ki_fp_filters" "TSSOP*3x3mm*P0.5mm*"
				(at 0 0 0)
				(effects
					(font
						(size 1.27 1.27)
					)
					(hide yes)
				)
			)
			(symbol "ADS1115IDGS_0_1"
				(rectangle
					(start -7.62 10.16)
					(end 7.62 -7.62)
					(stroke
						(width 0.254)
						(type default)
					)
					(fill
						(type background)
					)
				)
			)
			(symbol "ADS1115IDGS_1_1"
				(pin input line
					(at 10.16 -5.08 180)
					(length 2.54)
					(name "ADDR"
						(effects
							(font
								(size 1.27 1.27)
							)
						)
					)
					(number "1"
						(effects
							(font
								(size 1.27 1.27)
							)
						)
					)
				)
				(pin input line
					(at 10.16 0 180)
					(length 2.54)
					(name "SCL"
						(effects
							(font
								(size 1.27 1.27)
							)
						)
					)
					(number "10"
						(effects
							(font
								(size 1.27 1.27)
							)
						)
					)
				)
				(pin output line
					(at 10.16 5.08 180)
					(length 2.54)
					(name "ALERT/RDY"
						(effects
							(font
								(size 1.27 1.27)
							)
						)
					)
					(number "2"
						(effects
							(font
								(size 1.27 1.27)
							)
						)
					)
				)
				(pin power_in line
					(at 0 -10.16 90)
					(length 2.54)
					(name "GND"
						(effects
							(font
								(size 1.27 1.27)
							)
						)
					)
					(number "3"
						(effects
							(font
								(size 1.27 1.27)
							)
						)
					)
				)
				(pin input line
					(at -10.16 2.54 0)
					(length 2.54)
					(name "AIN0"
						(effects
							(font
								(size 1.27 1.27)
							)
						)
					)
					(number "4"
						(effects
							(font
								(size 1.27 1.27)
							)
						)
					)
				)
				(pin input line
					(at -10.16 0 0)
					(length 2.54)
					(name "AIN1"
						(effects
							(font
								(size 1.27 1.27)
							)
						)
					)
					(number "5"
						(effects
							(font
								(size 1.27 1.27)
							)
						)
					)
				)
				(pin input line
					(at -10.16 -2.54 0)
					(length 2.54)
					(name "AIN2"
						(effects
							(font
								(size 1.27 1.27)
							)
						)
					)
					(number "6"
						(effects
							(font
								(size 1.27 1.27)
							)
						)
					)
				)
				(pin input line
					(at -10.16 -5.08 0)
					(length 2.54)
					(name "AIN3"
						(effects
							(font
								(size 1.27 1.27)
							)
						)
					)
					(number "7"
						(effects
							(font
								(size 1.27 1.27)
							)
						)
					)
				)
				(pin power_in line
					(at 0 12.7 270)
					(length 2.54)
					(name "VDD"
						(effects
							(font
								(size 1.27 1.27)
							)
						)
					)
					(number "8"
						(effects
							(font
								(size 1.27 1.27)
							)
						)
					)
				)
				(pin bidirectional line
					(at 10.16 -2.54 180)
					(length 2.54)
					(name "SDA"
						(effects
							(font
								(size 1.27 1.27)
							)
						)
					)
					(number "9"
						(effects
							(font
								(size 1.27 1.27)
							)
						)
					)
				)
			)
		)
		(symbol "Connector:Micro_SD_Card_Det1"
			(exclude_from_sim no)
			(in_bom yes)
			(on_board yes)
			(property "Reference" "J"
				(at -16.51 17.78 0)
				(effects
					(font
						(size 1.27 1.27)
					)
				)
			)
			(property "Value" "Micro_SD_Card_Det1"
				(at 16.51 17.78 0)
				(effects
					(font
						(size 1.27 1.27)
					)
					(justify right)
				)
			)
			(property "Footprint" ""
				(at 52.07 17.78 0)
				(effects
					(font
						(size 1.27 1.27)
					)
					(hide yes)
				)
			)
			(property "Datasheet" "https://datasheet.lcsc.com/lcsc/2110151630_XKB-Connectivity-XKTF-015-N_C381082.pdf"
				(at 0 2.54 0)
				(effects
					(font
						(size 1.27 1.27)
					)
					(hide yes)
				)
			)
			(property "Description" "Micro SD Card Socket with one card detection pin"
				(at 0 0 0)
				(effects
					(font
						(size 1.27 1.27)
					)
					(hide yes)
				)
			)
			(property "ki_keywords" "connector SD microsd"
				(at 0 0 0)
				(effects
					(font
						(size 1.27 1.27)
					)
					(hide yes)
				)
			)
			(property "ki_fp_filters" "microSD*"
				(at 0 0 0)
				(effects
					(font
						(size 1.27 1.27)
					)
					(hide yes)
				)
			)
			(symbol "Micro_SD_Card_Det1_0_1"
				(rectangle
					(start -7.62 -6.985)
					(end -5.08 -8.255)
					(stroke
						(width 0.254)
						(type default)
					)
					(fill
						(type outline)
					)
				)
				(rectangle
					(start -7.62 -4.445)
					(end -5.08 -5.715)
					(stroke
						(width 0.254)
						(type default)
					)
					(fill
						(type outline)
					)
				)
				(rectangle
					(start -7.62 -1.905)
					(end -5.08 -3.175)
					(stroke
						(width 0.254)
						(type default)
					)
					(fill
						(type outline)
					)
				)
				(rectangle
					(start -7.62 0.635)
					(end -5.08 -0.635)
					(stroke
						(width 0.254)
						(type default)
					)
					(fill
						(type outline)
					)
				)
				(rectangle
					(start -7.62 3.175)
					(end -5.08 1.905)
					(stroke
						(width 0.254)
						(type default)
					)
					(fill
						(type outline)
					)
				)
				(rectangle
					(start -7.62 5.715)
					(end -5.08 4.445)
					(stroke
						(width 0.254)
						(type default)
					)
					(fill
						(type outline)
					)
				)
				(rectangle
					(start -7.62 8.255)
					(end -5.08 6.985)
					(stroke
						(width 0.254)
						(type default)
					)
					(fill
						(type outline)
					)
				)
				(rectangle
					(start -7.62 10.795)
					(end -5.08 9.525)
					(stroke
						(width 0.254)
						(type default)
					)
					(fill
						(type outline)
					)
				)
				(polyline
					(pts
						(xy 16.51 15.24) (xy 16.51 16.51) (xy -19.05 16.51) (xy -19.05 -16.51) (xy 16.51 -16.51) (xy 16.51 -8.89)
					)
					(stroke
						(width 0.254)
						(type default)
					)
					(fill
						(type none)
					)
				)
				(polyline
					(pts
						(xy -8.89 -8.89) (xy -8.89 11.43) (xy -1.27 11.43) (xy 2.54 15.24) (xy 3.81 15.24) (xy 3.81 13.97)
						(xy 6.35 13.97) (xy 7.62 15.24) (xy 20.32 15.24) (xy 20.32 -8.89) (xy -8.89 -8.89)
					)
					(stroke
						(width 0.254)
						(type default)
					)
					(fill
						(type background)
					)
				)
			)
			(symbol "Micro_SD_Card_Det1_1_1"
				(pin bidirectional line
					(at -22.86 10.16 0)
					(length 3.81)
					(name "DAT2"
						(effects
							(font
								(size 1.27 1.27)
							)
						)
					)
					(number "1"
						(effects
							(font
								(size 1.27 1.27)
							)
						)
					)
				)
				(pin passive line
					(at 20.32 -12.7 180)
					(length 3.81)
					(name "SHIELD"
						(effects
							(font
								(size 1.27 1.27)
							)
						)
					)
					(number "10"
						(effects
							(font
								(size 1.27 1.27)
							)
						)
					)
				)
				(pin bidirectional line
					(at -22.86 7.62 0)
					(length 3.81)
					(name "DAT3/CD"
						(effects
							(font
								(size 1.27 1.27)
							)
						)
					)
					(number "2"
						(effects
							(font
								(size 1.27 1.27)
							)
						)
					)
				)
				(pin input line
					(at -22.86 5.08 0)
					(length 3.81)
					(name "CMD"
						(effects
							(font
								(size 1.27 1.27)
							)
						)
					)
					(number "3"
						(effects
							(font
								(size 1.27 1.27)
							)
						)
					)
				)
				(pin power_in line
					(at -22.86 2.54 0)
					(length 3.81)
					(name "VDD"
						(effects
							(font
								(size 1.27 1.27)
							)
						)
					)
					(number "4"
						(effects
							(font
								(size 1.27 1.27)
							)
						)
					)
				)
				(pin input line
					(at -22.86 0 0)
					(length 3.81)
					(name "CLK"
						(effects
							(font
								(size 1.27 1.27)
							)
						)
					)
					(number "5"
						(effects
							(font
								(size 1.27 1.27)
							)
						)
					)
				)
				(pin power_in line
					(at -22.86 -2.54 0)
					(length 3.81)
					(name "VSS"
						(effects
							(font
								(size 1.27 1.27)
							)
						)
					)
					(number "6"
						(effects
							(font
								(size 1.27 1.27)
							)
						)
					)
				)
				(pin bidirectional line
					(at -22.86 -5.08 0)
					(length 3.81)
					(name "DAT0"
						(effects
							(font
								(size 1.27 1.27)
							)
						)
					)
					(number "7"
						(effects
							(font
								(size 1.27 1.27)
							)
						)
					)
				)
				(pin bidirectional line
					(at -22.86 -7.62 0)
					(length 3.81)
					(name "DAT1"
						(effects
							(font
								(size 1.27 1.27)
							)
						)
					)
					(number "8"
						(effects
							(font
								(size 1.27 1.27)
							)
						)
					)
				)
				(pin passive line
					(at -22.86 -12.7 0)
					(length 3.81)
					(name "DET"
						(effects
							(font
								(size 1.27 1.27)
							)
						)
					)
					(number "9"
						(effects
							(font
								(size 1.27 1.27)
							)
						)
					)
				)
			)
		)
		(symbol "Device:Battery_Cell"
			(pin_numbers hide)
			(pin_names
				(offset 0) hide)
			(exclude_from_sim no)
			(in_bom yes)
			(on_board yes)
			(property "Reference" "BT"
				(at 2.54 2.54 0)
				(effects
					(font
						(size 1.27 1.27)
					)
					(justify left)
				)
			)
			(property "Value" "Battery_Cell"
				(at 2.54 0 0)
				(effects
					(font
						(size 1.27 1.27)
					)
					(justify left)
				)
			)
			(property "Footprint" ""
				(at 0 1.524 90)
				(effects
					(font
						(size 1.27 1.27)
					)
					(hide yes)
				)
			)
			(property "Datasheet" "~"
				(at 0 1.524 90)
				(effects
					(font
						(size 1.27 1.27)
					)
					(hide yes)
				)
			)
			(property "Description" "Single-cell battery"
				(at 0 0 0)
				(effects
					(font
						(size 1.27 1.27)
					)
					(hide yes)
				)
			)
			(property "ki_keywords" "battery cell"
				(at 0 0 0)
				(effects
					(font
						(size 1.27 1.27)
					)
					(hide yes)
				)
			)
			(symbol "Battery_Cell_0_1"
				(rectangle
					(start -2.286 1.778)
					(end 2.286 1.524)
					(stroke
						(width 0)
						(type default)
					)
					(fill
						(type outline)
					)
				)
				(rectangle
					(start -1.524 1.016)
					(end 1.524 0.508)
					(stroke
						(width 0)
						(type default)
					)
					(fill
						(type outline)
					)
				)
				(polyline
					(pts
						(xy 0 0.762) (xy 0 0)
					)
					(stroke
						(width 0)
						(type default)
					)
					(fill
						(type none)
					)
				)
				(polyline
					(pts
						(xy 0 1.778) (xy 0 2.54)
					)
					(stroke
						(width 0)
						(type default)
					)
					(fill
						(type none)
					)
				)
				(polyline
					(pts
						(xy 0.762 3.048) (xy 1.778 3.048)
					)
					(stroke
						(width 0.254)
						(type default)
					)
					(fill
						(type none)
					)
				)
				(polyline
					(pts
						(xy 1.27 3.556) (xy 1.27 2.54)
					)
					(stroke
						(width 0.254)
						(type default)
					)
					(fill
						(type none)
					)
				)
			)
			(symbol "Battery_Cell_1_1"
				(pin passive line
					(at 0 5.08 270)
					(length 2.54)
					(name "+"
						(effects
							(font
								(size 1.27 1.27)
							)
						)
					)
					(number "1"
						(effects
							(font
								(size 1.27 1.27)
							)
						)
					)
				)
				(pin passive line
					(at 0 -2.54 90)
					(length 2.54)
					(name "-"
						(effects
							(font
								(size 1.27 1.27)
							)
						)
					)
					(number "2"
						(effects
							(font
								(size 1.27 1.27)
							)
						)
					)
				)
			)
		)
		(symbol "Device:C"
			(pin_numbers hide)
			(pin_names
				(offset 0.254)
			)
			(exclude_from_sim no)
			(in_bom yes)
			(on_board yes)
			(property "Reference" "C"
				(at 0.635 2.54 0)
				(effects
					(font
						(size 1.27 1.27)
					)
					(justify left)
				)
			)
			(property "Value" "C"
				(at 0.635 -2.54 0)
				(effects
					(font
						(size 1.27 1.27)
					)
					(justify left)
				)
			)
			(property "Footprint" ""
				(at 0.9652 -3.81 0)
				(effects
					(font
						(size 1.27 1.27)
					)
					(hide yes)
				)
			)
			(property "Datasheet" "~"
				(at 0 0 0)
				(effects
					(font
						(size 1.27 1.27)
					)
					(hide yes)
				)
			)
			(property "Description" "Unpolarized capacitor"
				(at 0 0 0)
				(effects
					(font
						(size 1.27 1.27)
					)
					(hide yes)
				)
			)
			(property "ki_keywords" "cap capacitor"
				(at 0 0 0)
				(effects
					(font
						(size 1.27 1.27)
					)
					(hide yes)
				)
			)
			(property "ki_fp_filters" "C_*"
				(at 0 0 0)
				(effects
					(font
						(size 1.27 1.27)
					)
					(hide yes)
				)
			)
			(symbol "C_0_1"
				(polyline
					(pts
						(xy -2.032 -0.762) (xy 2.032 -0.762)
					)
					(stroke
						(width 0.508)
						(type default)
					)
					(fill
						(type none)
					)
				)
				(polyline
					(pts
						(xy -2.032 0.762) (xy 2.032 0.762)
					)
					(stroke
						(width 0.508)
						(type default)
					)
					(fill
						(type none)
					)
				)
			)
			(symbol "C_1_1"
				(pin passive line
					(at 0 3.81 270)
					(length 2.794)
					(name "~"
						(effects
							(font
								(size 1.27 1.27)
							)
						)
					)
					(number "1"
						(effects
							(font
								(size 1.27 1.27)
							)
						)
					)
				)
				(pin passive line
					(at 0 -3.81 90)
					(length 2.794)
					(name "~"
						(effects
							(font
								(size 1.27 1.27)
							)
						)
					)
					(number "2"
						(effects
							(font
								(size 1.27 1.27)
							)
						)
					)
				)
			)
		)
		(symbol "Device:R_Network06_US"
			(pin_names
				(offset 0) hide)
			(exclude_from_sim no)
			(in_bom yes)
			(on_board yes)
			(property "Reference" "RN"
				(at -10.16 0 90)
				(effects
					(font
						(size 1.27 1.27)
					)
				)
			)
			(property "Value" "R_Network06_US"
				(at 7.62 0 90)
				(effects
					(font
						(size 1.27 1.27)
					)
				)
			)
			(property "Footprint" "Resistor_THT:R_Array_SIP7"
				(at 9.525 0 90)
				(effects
					(font
						(size 1.27 1.27)
					)
					(hide yes)
				)
			)
			(property "Datasheet" "http://www.vishay.com/docs/31509/csc.pdf"
				(at 0 0 0)
				(effects
					(font
						(size 1.27 1.27)
					)
					(hide yes)
				)
			)
			(property "Description" "6 resistor network, star topology, bussed resistors, small US symbol"
				(at 0 0 0)
				(effects
					(font
						(size 1.27 1.27)
					)
					(hide yes)
				)
			)
			(property "ki_keywords" "R network star-topology"
				(at 0 0 0)
				(effects
					(font
						(size 1.27 1.27)
					)
					(hide yes)
				)
			)
			(property "ki_fp_filters" "R?Array?SIP*"
				(at 0 0 0)
				(effects
					(font
						(size 1.27 1.27)
					)
					(hide yes)
				)
			)
			(symbol "R_Network06_US_0_1"
				(rectangle
					(start -8.89 -3.175)
					(end 6.35 3.175)
					(stroke
						(width 0.254)
						(type default)
					)
					(fill
						(type background)
					)
				)
				(circle
					(center -7.62 2.286)
					(radius 0.254)
					(stroke
						(width 0)
						(type default)
					)
					(fill
						(type outline)
					)
				)
				(circle
					(center -5.08 2.286)
					(radius 0.254)
					(stroke
						(width 0)
						(type default)
					)
					(fill
						(type outline)
					)
				)
				(circle
					(center -2.54 2.286)
					(radius 0.254)
					(stroke
						(width 0)
						(type default)
					)
					(fill
						(type outline)
					)
				)
				(polyline
					(pts
						(xy -7.62 2.286) (xy 5.08 2.286)
					)
					(stroke
						(width 0)
						(type default)
					)
					(fill
						(type none)
					)
				)
				(polyline
					(pts
						(xy -7.62 2.286) (xy -7.62 1.524) (xy -6.858 1.1684) (xy -8.382 0.508) (xy -6.858 -0.1524) (xy -8.382 -0.8382)
						(xy -6.858 -1.524) (xy -8.382 -2.1844) (xy -7.62 -2.54) (xy -7.62 -3.81)
					)
					(stroke
						(width 0)
						(type default)
					)
					(fill
						(type none)
					)
				)
				(polyline
					(pts
						(xy -5.08 2.286) (xy -5.08 1.524) (xy -4.318 1.1684) (xy -5.842 0.508) (xy -4.318 -0.1524) (xy -5.842 -0.8382)
						(xy -4.318 -1.524) (xy -5.842 -2.1844) (xy -5.08 -2.54) (xy -5.08 -3.81)
					)
					(stroke
						(width 0)
						(type default)
					)
					(fill
						(type none)
					)
				)
				(polyline
					(pts
						(xy -2.54 2.286) (xy -2.54 1.524) (xy -1.778 1.1684) (xy -3.302 0.508) (xy -1.778 -0.1524) (xy -3.302 -0.8382)
						(xy -1.778 -1.524) (xy -3.302 -2.1844) (xy -2.54 -2.54) (xy -2.54 -3.81)
					)
					(stroke
						(width 0)
						(type default)
					)
					(fill
						(type none)
					)
				)
				(polyline
					(pts
						(xy 0 2.286) (xy 0 1.524) (xy 0.762 1.1684) (xy -0.762 0.508) (xy 0.762 -0.1524) (xy -0.762 -0.8382)
						(xy 0.762 -1.524) (xy -0.762 -2.1844) (xy 0 -2.54) (xy 0 -3.81)
					)
					(stroke
						(width 0)
						(type default)
					)
					(fill
						(type none)
					)
				)
				(polyline
					(pts
						(xy 2.54 2.286) (xy 2.54 1.524) (xy 3.302 1.1684) (xy 1.778 0.508) (xy 3.302 -0.1524) (xy 1.778 -0.8382)
						(xy 3.302 -1.524) (xy 1.778 -2.1844) (xy 2.54 -2.54) (xy 2.54 -3.81)
					)
					(stroke
						(width 0)
						(type default)
					)
					(fill
						(type none)
					)
				)
				(polyline
					(pts
						(xy 5.08 2.286) (xy 5.08 1.524) (xy 5.842 1.1684) (xy 4.318 0.508) (xy 5.842 -0.1524) (xy 4.318 -0.8382)
						(xy 5.842 -1.524) (xy 4.318 -2.1844) (xy 5.08 -2.54) (xy 5.08 -3.81)
					)
					(stroke
						(width 0)
						(type default)
					)
					(fill
						(type none)
					)
				)
				(circle
					(center 0 2.286)
					(radius 0.254)
					(stroke
						(width 0)
						(type default)
					)
					(fill
						(type outline)
					)
				)
				(circle
					(center 2.54 2.286)
					(radius 0.254)
					(stroke
						(width 0)
						(type default)
					)
					(fill
						(type outline)
					)
				)
			)
			(symbol "R_Network06_US_1_1"
				(pin passive line
					(at -7.62 5.08 270)
					(length 2.54)
					(name "common"
						(effects
							(font
								(size 1.27 1.27)
							)
						)
					)
					(number "1"
						(effects
							(font
								(size 1.27 1.27)
							)
						)
					)
				)
				(pin passive line
					(at -7.62 -5.08 90)
					(length 1.27)
					(name "R1"
						(effects
							(font
								(size 1.27 1.27)
							)
						)
					)
					(number "2"
						(effects
							(font
								(size 1.27 1.27)
							)
						)
					)
				)
				(pin passive line
					(at -5.08 -5.08 90)
					(length 1.27)
					(name "R2"
						(effects
							(font
								(size 1.27 1.27)
							)
						)
					)
					(number "3"
						(effects
							(font
								(size 1.27 1.27)
							)
						)
					)
				)
				(pin passive line
					(at -2.54 -5.08 90)
					(length 1.27)
					(name "R3"
						(effects
							(font
								(size 1.27 1.27)
							)
						)
					)
					(number "4"
						(effects
							(font
								(size 1.27 1.27)
							)
						)
					)
				)
				(pin passive line
					(at 0 -5.08 90)
					(length 1.27)
					(name "R4"
						(effects
							(font
								(size 1.27 1.27)
							)
						)
					)
					(number "5"
						(effects
							(font
								(size 1.27 1.27)
							)
						)
					)
				)
				(pin passive line
					(at 2.54 -5.08 90)
					(length 1.27)
					(name "R5"
						(effects
							(font
								(size 1.27 1.27)
							)
						)
					)
					(number "6"
						(effects
							(font
								(size 1.27 1.27)
							)
						)
					)
				)
				(pin passive line
					(at 5.08 -5.08 90)
					(length 1.27)
					(name "R6"
						(effects
							(font
								(size 1.27 1.27)
							)
						)
					)
					(number "7"
						(effects
							(font
								(size 1.27 1.27)
							)
						)
					)
				)
			)
		)
		(symbol "Device:R_US"
			(pin_numbers hide)
			(pin_names
				(offset 0)
			)
			(exclude_from_sim no)
			(in_bom yes)
			(on_board yes)
			(property "Reference" "R"
				(at 2.54 0 90)
				(effects
					(font
						(size 1.27 1.27)
					)
				)
			)
			(property "Value" "R_US"
				(at -2.54 0 90)
				(effects
					(font
						(size 1.27 1.27)
					)
				)
			)
			(property "Footprint" ""
				(at 1.016 -0.254 90)
				(effects
					(font
						(size 1.27 1.27)
					)
					(hide yes)
				)
			)
			(property "Datasheet" "~"
				(at 0 0 0)
				(effects
					(font
						(size 1.27 1.27)
					)
					(hide yes)
				)
			)
			(property "Description" "Resistor, US symbol"
				(at 0 0 0)
				(effects
					(font
						(size 1.27 1.27)
					)
					(hide yes)
				)
			)
			(property "ki_keywords" "R res resistor"
				(at 0 0 0)
				(effects
					(font
						(size 1.27 1.27)
					)
					(hide yes)
				)
			)
			(property "ki_fp_filters" "R_*"
				(at 0 0 0)
				(effects
					(font
						(size 1.27 1.27)
					)
					(hide yes)
				)
			)
			(symbol "R_US_0_1"
				(polyline
					(pts
						(xy 0 -2.286) (xy 0 -2.54)
					)
					(stroke
						(width 0)
						(type default)
					)
					(fill
						(type none)
					)
				)
				(polyline
					(pts
						(xy 0 2.286) (xy 0 2.54)
					)
					(stroke
						(width 0)
						(type default)
					)
					(fill
						(type none)
					)
				)
				(polyline
					(pts
						(xy 0 -0.762) (xy 1.016 -1.143) (xy 0 -1.524) (xy -1.016 -1.905) (xy 0 -2.286)
					)
					(stroke
						(width 0)
						(type default)
					)
					(fill
						(type none)
					)
				)
				(polyline
					(pts
						(xy 0 0.762) (xy 1.016 0.381) (xy 0 0) (xy -1.016 -0.381) (xy 0 -0.762)
					)
					(stroke
						(width 0)
						(type default)
					)
					(fill
						(type none)
					)
				)
				(polyline
					(pts
						(xy 0 2.286) (xy 1.016 1.905) (xy 0 1.524) (xy -1.016 1.143) (xy 0 0.762)
					)
					(stroke
						(width 0)
						(type default)
					)
					(fill
						(type none)
					)
				)
			)
			(symbol "R_US_1_1"
				(pin passive line
					(at 0 3.81 270)
					(length 1.27)
					(name "~"
						(effects
							(font
								(size 1.27 1.27)
							)
						)
					)
					(number "1"
						(effects
							(font
								(size 1.27 1.27)
							)
						)
					)
				)
				(pin passive line
					(at 0 -3.81 90)
					(length 1.27)
					(name "~"
						(effects
							(font
								(size 1.27 1.27)
							)
						)
					)
					(number "2"
						(effects
							(font
								(size 1.27 1.27)
							)
						)
					)
				)
			)
		)
		(symbol "Timer_RTC:DS3231M"
			(exclude_from_sim no)
			(in_bom yes)
			(on_board yes)
			(property "Reference" "U"
				(at -7.62 8.89 0)
				(effects
					(font
						(size 1.27 1.27)
					)
					(justify right)
				)
			)
			(property "Value" "DS3231M"
				(at 10.16 8.89 0)
				(effects
					(font
						(size 1.27 1.27)
					)
					(justify right)
				)
			)
			(property "Footprint" "Package_SO:SOIC-16W_7.5x10.3mm_P1.27mm"
				(at 0 -15.24 0)
				(effects
					(font
						(size 1.27 1.27)
					)
					(hide yes)
				)
			)
			(property "Datasheet" "http://datasheets.maximintegrated.com/en/ds/DS3231.pdf"
				(at 6.858 1.27 0)
				(effects
					(font
						(size 1.27 1.27)
					)
					(hide yes)
				)
			)
			(property "Description" "Extremely Accurate I2C-Integrated RTC/TCXO/Crystal SOIC-16"
				(at 0 0 0)
				(effects
					(font
						(size 1.27 1.27)
					)
					(hide yes)
				)
			)
			(property "ki_keywords" "RTC TCXO Realtime Time Clock Crystal Oscillator I2C"
				(at 0 0 0)
				(effects
					(font
						(size 1.27 1.27)
					)
					(hide yes)
				)
			)
			(property "ki_fp_filters" "SOIC*7.5x10.3mm*P1.27mm*"
				(at 0 0 0)
				(effects
					(font
						(size 1.27 1.27)
					)
					(hide yes)
				)
			)
			(symbol "DS3231M_0_1"
				(rectangle
					(start -10.16 7.62)
					(end 10.16 -7.62)
					(stroke
						(width 0.254)
						(type default)
					)
					(fill
						(type background)
					)
				)
			)
			(symbol "DS3231M_1_1"
				(pin open_collector line
					(at 12.7 5.08 180)
					(length 2.54)
					(name "32KHZ"
						(effects
							(font
								(size 1.27 1.27)
							)
						)
					)
					(number "1"
						(effects
							(font
								(size 1.27 1.27)
							)
						)
					)
				)
				(pin passive line
					(at 0 -10.16 90)
					(length 2.54) hide
					(name "GND"
						(effects
							(font
								(size 1.27 1.27)
							)
						)
					)
					(number "10"
						(effects
							(font
								(size 1.27 1.27)
							)
						)
					)
				)
				(pin passive line
					(at 0 -10.16 90)
					(length 2.54) hide
					(name "GND"
						(effects
							(font
								(size 1.27 1.27)
							)
						)
					)
					(number "11"
						(effects
							(font
								(size 1.27 1.27)
							)
						)
					)
				)
				(pin passive line
					(at 0 -10.16 90)
					(length 2.54) hide
					(name "GND"
						(effects
							(font
								(size 1.27 1.27)
							)
						)
					)
					(number "12"
						(effects
							(font
								(size 1.27 1.27)
							)
						)
					)
				)
				(pin power_in line
					(at 0 -10.16 90)
					(length 2.54)
					(name "GND"
						(effects
							(font
								(size 1.27 1.27)
							)
						)
					)
					(number "13"
						(effects
							(font
								(size 1.27 1.27)
							)
						)
					)
				)
				(pin power_in line
					(at 0 10.16 270)
					(length 2.54)
					(name "VBAT"
						(effects
							(font
								(size 1.27 1.27)
							)
						)
					)
					(number "14"
						(effects
							(font
								(size 1.27 1.27)
							)
						)
					)
				)
				(pin bidirectional line
					(at -12.7 2.54 0)
					(length 2.54)
					(name "SDA"
						(effects
							(font
								(size 1.27 1.27)
							)
						)
					)
					(number "15"
						(effects
							(font
								(size 1.27 1.27)
							)
						)
					)
				)
				(pin input line
					(at -12.7 5.08 0)
					(length 2.54)
					(name "SCL"
						(effects
							(font
								(size 1.27 1.27)
							)
						)
					)
					(number "16"
						(effects
							(font
								(size 1.27 1.27)
							)
						)
					)
				)
				(pin power_in line
					(at -2.54 10.16 270)
					(length 2.54)
					(name "VCC"
						(effects
							(font
								(size 1.27 1.27)
							)
						)
					)
					(number "2"
						(effects
							(font
								(size 1.27 1.27)
							)
						)
					)
				)
				(pin open_collector line
					(at 12.7 -2.54 180)
					(length 2.54)
					(name "~{INT}/SQW"
						(effects
							(font
								(size 1.27 1.27)
							)
						)
					)
					(number "3"
						(effects
							(font
								(size 1.27 1.27)
							)
						)
					)
				)
				(pin bidirectional line
					(at -12.7 -5.08 0)
					(length 2.54)
					(name "~{RST}"
						(effects
							(font
								(size 1.27 1.27)
							)
						)
					)
					(number "4"
						(effects
							(font
								(size 1.27 1.27)
							)
						)
					)
				)
				(pin passive line
					(at 0 -10.16 90)
					(length 2.54) hide
					(name "GND"
						(effects
							(font
								(size 1.27 1.27)
							)
						)
					)
					(number "5"
						(effects
							(font
								(size 1.27 1.27)
							)
						)
					)
				)
				(pin passive line
					(at 0 -10.16 90)
					(length 2.54) hide
					(name "GND"
						(effects
							(font
								(size 1.27 1.27)
							)
						)
					)
					(number "6"
						(effects
							(font
								(size 1.27 1.27)
							)
						)
					)
				)
				(pin passive line
					(at 0 -10.16 90)
					(length 2.54) hide
					(name "GND"
						(effects
							(font
								(size 1.27 1.27)
							)
						)
					)
					(number "7"
						(effects
							(font
								(size 1.27 1.27)
							)
						)
					)
				)
				(pin passive line
					(at 0 -10.16 90)
					(length 2.54) hide
					(name "GND"
						(effects
							(font
								(size 1.27 1.27)
							)
						)
					)
					(number "8"
						(effects
							(font
								(size 1.27 1.27)
							)
						)
					)
				)
				(pin passive line
					(at 0 -10.16 90)
					(length 2.54) hide
					(name "GND"
						(effects
							(font
								(size 1.27 1.27)
							)
						)
					)
					(number "9"
						(effects
							(font
								(size 1.27 1.27)
							)
						)
					)
				)
			)
		)
		(symbol "power:+3.3V"
			(power)
			(pin_numbers hide)
			(pin_names
				(offset 0) hide)
			(exclude_from_sim no)
			(in_bom yes)
			(on_board yes)
			(property "Reference" "#PWR"
				(at 0 -3.81 0)
				(effects
					(font
						(size 1.27 1.27)
					)
					(hide yes)
				)
			)
			(property "Value" "+3.3V"
				(at 0 3.556 0)
				(effects
					(font
						(size 1.27 1.27)
					)
				)
			)
			(property "Footprint" ""
				(at 0 0 0)
				(effects
					(font
						(size 1.27 1.27)
					)
					(hide yes)
				)
			)
			(property "Datasheet" ""
				(at 0 0 0)
				(effects
					(font
						(size 1.27 1.27)
					)
					(hide yes)
				)
			)
			(property "Description" "Power symbol creates a global label with name \"+3.3V\""
				(at 0 0 0)
				(effects
					(font
						(size 1.27 1.27)
					)
					(hide yes)
				)
			)
			(property "ki_keywords" "global power"
				(at 0 0 0)
				(effects
					(font
						(size 1.27 1.27)
					)
					(hide yes)
				)
			)
			(symbol "+3.3V_0_1"
				(polyline
					(pts
						(xy -0.762 1.27) (xy 0 2.54)
					)
					(stroke
						(width 0)
						(type default)
					)
					(fill
						(type none)
					)
				)
				(polyline
					(pts
						(xy 0 0) (xy 0 2.54)
					)
					(stroke
						(width 0)
						(type default)
					)
					(fill
						(type none)
					)
				)
				(polyline
					(pts
						(xy 0 2.54) (xy 0.762 1.27)
					)
					(stroke
						(width 0)
						(type default)
					)
					(fill
						(type none)
					)
				)
			)
			(symbol "+3.3V_1_1"
				(pin power_in line
					(at 0 0 90)
					(length 0)
					(name "~"
						(effects
							(font
								(size 1.27 1.27)
							)
						)
					)
					(number "1"
						(effects
							(font
								(size 1.27 1.27)
							)
						)
					)
				)
			)
		)
		(symbol "power:GNDD"
			(power)
			(pin_numbers hide)
			(pin_names
				(offset 0) hide)
			(exclude_from_sim no)
			(in_bom yes)
			(on_board yes)
			(property "Reference" "#PWR"
				(at 0 -6.35 0)
				(effects
					(font
						(size 1.27 1.27)
					)
					(hide yes)
				)
			)
			(property "Value" "GNDD"
				(at 0 -3.175 0)
				(effects
					(font
						(size 1.27 1.27)
					)
				)
			)
			(property "Footprint" ""
				(at 0 0 0)
				(effects
					(font
						(size 1.27 1.27)
					)
					(hide yes)
				)
			)
			(property "Datasheet" ""
				(at 0 0 0)
				(effects
					(font
						(size 1.27 1.27)
					)
					(hide yes)
				)
			)
			(property "Description" "Power symbol creates a global label with name \"GNDD\" , digital ground"
				(at 0 0 0)
				(effects
					(font
						(size 1.27 1.27)
					)
					(hide yes)
				)
			)
			(property "ki_keywords" "global power"
				(at 0 0 0)
				(effects
					(font
						(size 1.27 1.27)
					)
					(hide yes)
				)
			)
			(symbol "GNDD_0_1"
				(rectangle
					(start -1.27 -1.524)
					(end 1.27 -2.032)
					(stroke
						(width 0.254)
						(type default)
					)
					(fill
						(type outline)
					)
				)
				(polyline
					(pts
						(xy 0 0) (xy 0 -1.524)
					)
					(stroke
						(width 0)
						(type default)
					)
					(fill
						(type none)
					)
				)
			)
			(symbol "GNDD_1_1"
				(pin power_in line
					(at 0 0 270)
					(length 0)
					(name "~"
						(effects
							(font
								(size 1.27 1.27)
							)
						)
					)
					(number "1"
						(effects
							(font
								(size 1.27 1.27)
							)
						)
					)
				)
			)
		)
	)
	(junction
		(at 168.91 36.83)
		(diameter 0)
		(color 0 0 0 0)
		(uuid "10093bff-ea43-4d60-bb15-f8343b0b10a8")
	)
	(junction
		(at 71.12 48.26)
		(diameter 0)
		(color 0 0 0 0)
		(uuid "3e05abe4-4434-467f-9172-a87124e07771")
	)
	(junction
		(at 78.74 66.04)
		(diameter 0)
		(color 0 0 0 0)
		(uuid "5377674c-51fb-4de7-b833-f4d5280e26f0")
	)
	(junction
		(at 171.45 39.37)
		(diameter 0)
		(color 0 0 0 0)
		(uuid "6f0ab928-bfd9-4970-9140-917cea230e3b")
	)
	(junction
		(at 81.28 68.58)
		(diameter 0)
		(color 0 0 0 0)
		(uuid "8238c597-db66-4303-8de2-0e83f34d4c0f")
	)
	(junction
		(at 76.2 55.88)
		(diameter 0)
		(color 0 0 0 0)
		(uuid "9271be9a-6bc3-47d2-b3bf-76e5307a0ea8")
	)
	(junction
		(at 198.12 27.94)
		(diameter 0)
		(color 0 0 0 0)
		(uuid "97e40e35-1ade-4d74-8f32-028ed4e84a05")
	)
	(junction
		(at 147.32 29.21)
		(diameter 0)
		(color 0 0 0 0)
		(uuid "ab6e96cc-3df8-413a-96b6-953e765ba926")
	)
	(no_connect
		(at 213.36 36.83)
		(uuid "06dfa41f-0264-4f6f-87f7-c98ec0e1187f")
	)
	(no_connect
		(at 213.36 44.45)
		(uuid "e1a93b14-9c97-4db9-842a-37c2016470e0")
	)
	(wire
		(pts
			(xy 168.91 30.48) (xy 168.91 36.83)
		)
		(stroke
			(width 0)
			(type default)
		)
		(uuid "01d3dfc5-216c-49f2-9611-940aade446e3")
	)
	(wire
		(pts
			(xy 147.32 29.21) (xy 147.32 31.75)
		)
		(stroke
			(width 0)
			(type default)
		)
		(uuid "0262c8b9-fdb9-45a7-8549-bbd71a134f6f")
	)
	(wire
		(pts
			(xy 147.32 25.4) (xy 147.32 29.21)
		)
		(stroke
			(width 0)
			(type default)
		)
		(uuid "06393394-6c8e-424e-ab90-f4ace6bef534")
	)
	(wire
		(pts
			(xy 163.83 21.59) (xy 163.83 24.13)
		)
		(stroke
			(width 0)
			(type default)
		)
		(uuid "06833c69-5ede-477d-b43f-dd6fcfd809e5")
	)
	(wire
		(pts
			(xy 187.96 39.37) (xy 171.45 39.37)
		)
		(stroke
			(width 0)
			(type default)
		)
		(uuid "102579c1-14ba-4f49-acef-36c7ccbe94f8")
	)
	(wire
		(pts
			(xy 69.85 48.26) (xy 71.12 48.26)
		)
		(stroke
			(width 0)
			(type default)
		)
		(uuid "103fe4b0-940a-4b17-8143-bf2fa0ad94f5")
	)
	(wire
		(pts
			(xy 24.13 48.26) (xy 26.67 48.26)
		)
		(stroke
			(width 0)
			(type default)
		)
		(uuid "17e96aa4-8f92-47ca-9383-6b57c6fcb230")
	)
	(wire
		(pts
			(xy 168.91 36.83) (xy 168.91 44.45)
		)
		(stroke
			(width 0)
			(type default)
		)
		(uuid "1970c3a3-8eda-43b5-9b4e-599fafa51969")
	)
	(wire
		(pts
			(xy 130.81 29.21) (xy 135.89 29.21)
		)
		(stroke
			(width 0)
			(type default)
		)
		(uuid "2016ed76-5a4f-4bc3-8f5c-145857bc2974")
	)
	(wire
		(pts
			(xy 78.74 41.91) (xy 78.74 66.04)
		)
		(stroke
			(width 0)
			(type default)
		)
		(uuid "27f2f261-3c14-4fa8-afc1-27c4f1249639")
	)
	(wire
		(pts
			(xy 194.31 27.94) (xy 198.12 27.94)
		)
		(stroke
			(width 0)
			(type default)
		)
		(uuid "29b0fd6d-8425-4a5a-950c-fff43dbf3fcd")
	)
	(wire
		(pts
			(xy 170.18 39.37) (xy 170.18 46.99)
		)
		(stroke
			(width 0)
			(type default)
		)
		(uuid "3208aa63-6828-4ca8-9f5e-f290ccae5cc0")
	)
	(wire
		(pts
			(xy 147.32 54.61) (xy 147.32 62.23)
		)
		(stroke
			(width 0)
			(type default)
		)
		(uuid "449cd513-4bde-4cd0-bd61-8ad19f418624")
	)
	(wire
		(pts
			(xy 81.28 68.58) (xy 86.36 68.58)
		)
		(stroke
			(width 0)
			(type default)
		)
		(uuid "467a206c-2923-4f7d-aae1-8789bc4c659a")
	)
	(wire
		(pts
			(xy 76.2 41.91) (xy 76.2 55.88)
		)
		(stroke
			(width 0)
			(type default)
		)
		(uuid "49100024-00b7-476e-9a0a-ef4a06aff1f0")
	)
	(wire
		(pts
			(xy 187.96 36.83) (xy 168.91 36.83)
		)
		(stroke
			(width 0)
			(type default)
		)
		(uuid "4e18aa8a-21c1-4495-a008-558a8ca93294")
	)
	(wire
		(pts
			(xy 69.85 66.04) (xy 78.74 66.04)
		)
		(stroke
			(width 0)
			(type default)
		)
		(uuid "59480a76-db5e-4a62-af25-b1c080f050f8")
	)
	(wire
		(pts
			(xy 171.45 39.37) (xy 170.18 39.37)
		)
		(stroke
			(width 0)
			(type default)
		)
		(uuid "5b081539-a58a-48a1-95a3-742d425e62b8")
	)
	(wire
		(pts
			(xy 81.28 41.91) (xy 81.28 68.58)
		)
		(stroke
			(width 0)
			(type default)
		)
		(uuid "5ecdf910-d7ab-44fe-9323-f75bea34908e")
	)
	(wire
		(pts
			(xy 83.82 41.91) (xy 83.82 71.12)
		)
		(stroke
			(width 0)
			(type default)
		)
		(uuid "69567623-924b-43e1-954d-5120a173ef31")
	)
	(wire
		(pts
			(xy 170.18 46.99) (xy 157.48 46.99)
		)
		(stroke
			(width 0)
			(type default)
		)
		(uuid "6ada95fd-ae7f-478f-9421-ae9ad3c89636")
	)
	(wire
		(pts
			(xy 198.12 25.4) (xy 198.12 27.94)
		)
		(stroke
			(width 0)
			(type default)
		)
		(uuid "78f0e96d-1018-408c-9f84-dd664b34dd8f")
	)
	(wire
		(pts
			(xy 69.85 71.12) (xy 83.82 71.12)
		)
		(stroke
			(width 0)
			(type default)
		)
		(uuid "7d1613c6-513a-49fa-8af3-7b91c03ba871")
	)
	(wire
		(pts
			(xy 71.12 48.26) (xy 86.36 48.26)
		)
		(stroke
			(width 0)
			(type default)
		)
		(uuid "836ed7da-ba7e-47c5-9491-f2a5026ecc42")
	)
	(wire
		(pts
			(xy 69.85 58.42) (xy 96.52 58.42)
		)
		(stroke
			(width 0)
			(type default)
		)
		(uuid "8ba0010d-ec1b-4e66-ad9e-085310ee194a")
	)
	(wire
		(pts
			(xy 162.56 59.69) (xy 162.56 62.23)
		)
		(stroke
			(width 0)
			(type default)
		)
		(uuid "99c34c43-5a04-49a1-a662-885759e80d99")
	)
	(wire
		(pts
			(xy 171.45 30.48) (xy 171.45 39.37)
		)
		(stroke
			(width 0)
			(type default)
		)
		(uuid "9d9ef9a3-e0fb-48b0-82ec-6878bde6054e")
	)
	(wire
		(pts
			(xy 76.2 55.88) (xy 86.36 55.88)
		)
		(stroke
			(width 0)
			(type default)
		)
		(uuid "a9bdaa4e-63be-4c5c-b846-74c31f9412da")
	)
	(wire
		(pts
			(xy 73.66 41.91) (xy 73.66 53.34)
		)
		(stroke
			(width 0)
			(type default)
		)
		(uuid "aa793a71-ff0c-4d2f-84fe-0222d8cd485d")
	)
	(wire
		(pts
			(xy 181.61 27.94) (xy 186.69 27.94)
		)
		(stroke
			(width 0)
			(type default)
		)
		(uuid "aac00efa-be8b-4c28-8ad1-5f4beb2540d0")
	)
	(wire
		(pts
			(xy 200.66 52.07) (xy 200.66 63.5)
		)
		(stroke
			(width 0)
			(type default)
		)
		(uuid "adcf9255-499c-48e2-972a-7e0c5ea41927")
	)
	(wire
		(pts
			(xy 157.48 49.53) (xy 162.56 49.53)
		)
		(stroke
			(width 0)
			(type default)
		)
		(uuid "b998a6be-ab9f-4127-a46a-820784a0e693")
	)
	(wire
		(pts
			(xy 69.85 68.58) (xy 81.28 68.58)
		)
		(stroke
			(width 0)
			(type default)
		)
		(uuid "b9aea46b-b3d4-4c62-a3f6-864c6f356527")
	)
	(wire
		(pts
			(xy 71.12 41.91) (xy 71.12 48.26)
		)
		(stroke
			(width 0)
			(type default)
		)
		(uuid "ba108c36-d075-4c16-9912-24abe86dfd01")
	)
	(wire
		(pts
			(xy 162.56 49.53) (xy 162.56 52.07)
		)
		(stroke
			(width 0)
			(type default)
		)
		(uuid "bafa6695-ab96-413b-9257-9dc1b4dd39e2")
	)
	(wire
		(pts
			(xy 200.66 25.4) (xy 205.74 25.4)
		)
		(stroke
			(width 0)
			(type default)
		)
		(uuid "bf61aae3-f8c2-48cd-8d41-919eb563fbb5")
	)
	(wire
		(pts
			(xy 168.91 44.45) (xy 157.48 44.45)
		)
		(stroke
			(width 0)
			(type default)
		)
		(uuid "c9b972fe-8605-4cff-a438-b9150d16c1e3")
	)
	(wire
		(pts
			(xy 213.36 25.4) (xy 218.44 25.4)
		)
		(stroke
			(width 0)
			(type default)
		)
		(uuid "d1c68a70-846a-47ae-aa00-69eddffdbb17")
	)
	(wire
		(pts
			(xy 69.85 60.96) (xy 86.36 60.96)
		)
		(stroke
			(width 0)
			(type default)
		)
		(uuid "dc8c72d2-2975-4f65-baad-4ac14e623dd9")
	)
	(wire
		(pts
			(xy 200.66 25.4) (xy 200.66 31.75)
		)
		(stroke
			(width 0)
			(type default)
		)
		(uuid "dd6de8f2-01e3-4dd8-95f7-382aeac225bf")
	)
	(wire
		(pts
			(xy 163.83 39.37) (xy 157.48 39.37)
		)
		(stroke
			(width 0)
			(type default)
		)
		(uuid "dd963e93-1473-4aa8-8c63-a1ba9ccbe6c9")
	)
	(wire
		(pts
			(xy 78.74 66.04) (xy 86.36 66.04)
		)
		(stroke
			(width 0)
			(type default)
		)
		(uuid "e6a2f941-bbbe-47a6-aa13-df565edb9e17")
	)
	(wire
		(pts
			(xy 69.85 63.5) (xy 96.52 63.5)
		)
		(stroke
			(width 0)
			(type default)
		)
		(uuid "eb2c25ab-a683-4324-8c44-22235bf53c00")
	)
	(wire
		(pts
			(xy 71.12 26.67) (xy 71.12 31.75)
		)
		(stroke
			(width 0)
			(type default)
		)
		(uuid "ed3a9e5c-1d42-4bc4-baa5-905b65b665a8")
	)
	(wire
		(pts
			(xy 69.85 53.34) (xy 73.66 53.34)
		)
		(stroke
			(width 0)
			(type default)
		)
		(uuid "ee70d4b5-bbe5-43a4-b340-3fa514003dfd")
	)
	(wire
		(pts
			(xy 143.51 29.21) (xy 147.32 29.21)
		)
		(stroke
			(width 0)
			(type default)
		)
		(uuid "ef338b60-227f-4d90-a54a-0406ec6ffda1")
	)
	(wire
		(pts
			(xy 198.12 27.94) (xy 198.12 31.75)
		)
		(stroke
			(width 0)
			(type default)
		)
		(uuid "ef47c834-993e-4d92-b9d5-6a5f15f23cec")
	)
	(wire
		(pts
			(xy 69.85 55.88) (xy 76.2 55.88)
		)
		(stroke
			(width 0)
			(type default)
		)
		(uuid "f7a79637-b806-4d86-a46f-d11210f37d93")
	)
	(wire
		(pts
			(xy 163.83 31.75) (xy 163.83 39.37)
		)
		(stroke
			(width 0)
			(type default)
		)
		(uuid "f9313cbf-2485-4900-8561-4e2f2b68ce0a")
	)
	(text_box ""
		(exclude_from_sim no)
		(at 118.11 16.51 0)
		(size 55.88 52.07)
		(stroke
			(width 0)
			(type dash)
		)
		(fill
			(type none)
		)
		(effects
			(font
				(size 1.27 1.27)
				(bold yes)
				(italic yes)
			)
			(justify left top)
		)
		(uuid "6329bcdc-32ff-4662-b10d-98fcabd537bc")
	)
	(text_box ""
		(exclude_from_sim no)
		(at 176.53 16.51 0)
		(size 55.88 52.07)
		(stroke
			(width 0)
			(type dash)
		)
		(fill
			(type none)
		)
		(effects
			(font
				(size 1.27 1.27)
				(bold yes)
				(italic yes)
			)
			(justify left top)
		)
		(uuid "7f21158d-1b12-4f3d-a3ab-4a4173f99cee")
	)
	(text_box "SD CARD\nTO USE STRAP THE JUMPERS OF SD CARD"
		(exclude_from_sim no)
		(at 15.24 16.51 0)
		(size 96.52 68.58)
		(stroke
			(width 0)
			(type dash)
		)
		(fill
			(type none)
		)
		(effects
			(font
				(size 1.27 1.27)
				(bold yes)
				(italic yes)
			)
			(justify left top)
		)
		(uuid "9f99fc35-d6b6-40cf-8cd9-885c372e2f44")
	)
	(text "AD ADDRESS\n0X48"
		(exclude_from_sim no)
		(at 129.794 64.77 0)
		(effects
			(font
				(size 1.27 1.27)
				(bold yes)
				(italic yes)
			)
		)
		(uuid "6dddd4da-1e26-4ead-8fb8-64477a8be293")
	)
	(text "RTC ADDRESS\n0X68"
		(exclude_from_sim no)
		(at 223.774 65.024 0)
		(effects
			(font
				(size 1.27 1.27)
				(bold yes)
				(italic yes)
			)
		)
		(uuid "9fd7a0db-8285-447d-a8a5-24ca00f05f52")
	)
	(hierarchical_label "SD_CLK"
		(shape input)
		(at 86.36 60.96 0)
		(fields_autoplaced yes)
		(effects
			(font
				(size 1.016 1.016)
				(bold yes)
				(italic yes)
			)
			(justify left)
		)
		(uuid "1cb326a3-305a-4ec5-afcb-a6628ec03abc")
	)
	(hierarchical_label "SD_MISO"
		(shape input)
		(at 86.36 55.88 0)
		(fields_autoplaced yes)
		(effects
			(font
				(size 1.016 1.016)
				(bold yes)
				(italic yes)
			)
			(justify left)
		)
		(uuid "4a390ebc-a646-41eb-b9c4-f26a29ec8929")
	)
	(hierarchical_label "SD_MOSI"
		(shape input)
		(at 86.36 66.04 0)
		(fields_autoplaced yes)
		(effects
			(font
				(size 1.016 1.016)
				(bold yes)
				(italic yes)
			)
			(justify left)
		)
		(uuid "5517a50b-5a6f-4471-809b-6f4fbb94decb")
	)
	(hierarchical_label "SD_CS"
		(shape input)
		(at 86.36 68.58 0)
		(fields_autoplaced yes)
		(effects
			(font
				(size 1.016 1.016)
				(bold yes)
				(italic yes)
			)
			(justify left)
		)
		(uuid "8bfa68e5-312d-4031-9789-405ba651ca09")
	)
	(hierarchical_label "I2C_SDA"
		(shape input)
		(at 171.45 30.48 90)
		(fields_autoplaced yes)
		(effects
			(font
				(size 1.016 1.016)
				(bold yes)
				(italic yes)
			)
			(justify left)
		)
		(uuid "8dde40e2-973f-4399-90d4-1ea879736757")
	)
	(hierarchical_label "I2C_SCL"
		(shape input)
		(at 168.91 30.48 90)
		(fields_autoplaced yes)
		(effects
			(font
				(size 1.016 1.016)
				(bold yes)
				(italic yes)
			)
			(justify left)
		)
		(uuid "ece02f89-09b9-41a4-95d1-8e8d0978465d")
	)
	(hierarchical_label "SD_CARD_DETECT"
		(shape input)
		(at 86.36 48.26 0)
		(fields_autoplaced yes)
		(effects
			(font
				(size 1.016 1.016)
				(bold yes)
				(italic yes)
			)
			(justify left)
		)
		(uuid "ffb1379c-4061-4f78-aa6b-68678dded7b2")
	)
	(symbol
		(lib_id "Connector:Micro_SD_Card_Det1")
		(at 46.99 60.96 180)
		(unit 1)
		(exclude_from_sim no)
		(in_bom yes)
		(on_board yes)
		(dnp no)
		(fields_autoplaced yes)
		(uuid "12895ca6-06cf-4cc6-ae8f-ed8de0acddb3")
		(property "Reference" "J3"
			(at 46.355 39.37 0)
			(effects
				(font
					(size 1.27 1.27)
				)
			)
		)
		(property "Value" "Micro_SD_Card_Det1"
			(at 46.355 41.91 0)
			(effects
				(font
					(size 1.27 1.27)
				)
			)
		)
		(property "Footprint" "Connector_Card:microSD_HC_Hirose_DM3AT-SF-PEJM5"
			(at -5.08 78.74 0)
			(effects
				(font
					(size 1.27 1.27)
				)
				(hide yes)
			)
		)
		(property "Datasheet" "https://datasheet.lcsc.com/lcsc/2110151630_XKB-Connectivity-XKTF-015-N_C381082.pdf"
			(at 46.99 63.5 0)
			(effects
				(font
					(size 1.27 1.27)
				)
				(hide yes)
			)
		)
		(property "Description" "Micro SD Card Socket with one card detection pin"
			(at 46.99 60.96 0)
			(effects
				(font
					(size 1.27 1.27)
				)
				(hide yes)
			)
		)
		(pin "4"
			(uuid "915a8c65-b2bf-4cfa-94c6-a1f6d2b2935b")
		)
		(pin "7"
			(uuid "73bce584-2bfc-4a87-bd4d-ba89a2dd7382")
		)
		(pin "3"
			(uuid "e00eba99-9a4d-4925-b0ed-436b8cd372e0")
		)
		(pin "8"
			(uuid "55e934b5-c925-41ea-9ec6-67f3fe13cd1b")
		)
		(pin "2"
			(uuid "d4cf214f-d923-441d-9d9f-cbea8ecb6080")
		)
		(pin "10"
			(uuid "275c39f6-b9d0-4706-9304-b6839958d25d")
		)
		(pin "1"
			(uuid "74406e7d-6e3c-41b8-99fe-f1a00802ceae")
		)
		(pin "6"
			(uuid "2d4dd2df-0400-494a-ac2c-426b86b2e6b6")
		)
		(pin "9"
			(uuid "8068ab52-c0f1-4e34-8eb5-48e0c7dc758b")
		)
		(pin "5"
			(uuid "87953500-fe26-4e87-a0b5-e93a7e65fd9d")
		)
		(instances
			(project "ESP32_DevKit"
				(path "/85173ce3-35f6-48d6-9ade-c8b780c7bf44/e87e86e8-fd12-48d1-814a-5ad29891b5cf"
					(reference "J3")
					(unit 1)
				)
			)
		)
	)
	(symbol
		(lib_id "power:GNDD")
		(at 130.81 29.21 270)
		(unit 1)
		(exclude_from_sim no)
		(in_bom yes)
		(on_board yes)
		(dnp no)
		(fields_autoplaced yes)
		(uuid "17241a5b-df23-4934-82e0-dc976d40df97")
		(property "Reference" "#PWR022"
			(at 124.46 29.21 0)
			(effects
				(font
					(size 1.27 1.27)
				)
				(hide yes)
			)
		)
		(property "Value" "GNDD"
			(at 127 29.2099 90)
			(effects
				(font
					(size 1.27 1.27)
				)
				(justify right)
			)
		)
		(property "Footprint" ""
			(at 130.81 29.21 0)
			(effects
				(font
					(size 1.27 1.27)
				)
				(hide yes)
			)
		)
		(property "Datasheet" ""
			(at 130.81 29.21 0)
			(effects
				(font
					(size 1.27 1.27)
				)
				(hide yes)
			)
		)
		(property "Description" "Power symbol creates a global label with name \"GNDD\" , digital ground"
			(at 130.81 29.21 0)
			(effects
				(font
					(size 1.27 1.27)
				)
				(hide yes)
			)
		)
		(pin "1"
			(uuid "75f45362-b534-44f3-a684-422efb910abc")
		)
		(instances
			(project "ESP32_DevKit"
				(path "/85173ce3-35f6-48d6-9ade-c8b780c7bf44/e87e86e8-fd12-48d1-814a-5ad29891b5cf"
					(reference "#PWR022")
					(unit 1)
				)
			)
		)
	)
	(symbol
		(lib_id "Device:R_US")
		(at 163.83 27.94 180)
		(unit 1)
		(exclude_from_sim no)
		(in_bom yes)
		(on_board yes)
		(dnp no)
		(uuid "174c43f9-362c-4a5b-9d1e-a9f00f1ad447")
		(property "Reference" "R14"
			(at 161.798 27.94 90)
			(effects
				(font
					(size 1.27 1.27)
				)
			)
		)
		(property "Value" "10K"
			(at 166.116 27.686 90)
			(effects
				(font
					(size 1.27 1.27)
				)
			)
		)
		(property "Footprint" "Resistor_SMD:R_0805_2012Metric_Pad1.20x1.40mm_HandSolder"
			(at 162.814 27.686 90)
			(effects
				(font
					(size 1.27 1.27)
				)
				(hide yes)
			)
		)
		(property "Datasheet" "~"
			(at 163.83 27.94 0)
			(effects
				(font
					(size 1.27 1.27)
				)
				(hide yes)
			)
		)
		(property "Description" "Resistor, US symbol"
			(at 163.83 27.94 0)
			(effects
				(font
					(size 1.27 1.27)
				)
				(hide yes)
			)
		)
		(pin "2"
			(uuid "c2d199f9-3f48-4a04-b9fa-d43a8f52e6e8")
		)
		(pin "1"
			(uuid "aadd8ba8-b205-4402-afe4-3912c1e0bf88")
		)
		(instances
			(project "ESP32_DevKit"
				(path "/85173ce3-35f6-48d6-9ade-c8b780c7bf44/e87e86e8-fd12-48d1-814a-5ad29891b5cf"
					(reference "R14")
					(unit 1)
				)
			)
		)
	)
	(symbol
		(lib_id "power:GNDD")
		(at 181.61 27.94 270)
		(unit 1)
		(exclude_from_sim no)
		(in_bom yes)
		(on_board yes)
		(dnp no)
		(uuid "1eec9453-f8a1-4dcc-9fb5-2b985567ced3")
		(property "Reference" "#PWR028"
			(at 175.26 27.94 0)
			(effects
				(font
					(size 1.27 1.27)
				)
				(hide yes)
			)
		)
		(property "Value" "GNDD"
			(at 182.118 27.432 0)
			(effects
				(font
					(size 1.27 1.27)
				)
				(justify right)
			)
		)
		(property "Footprint" ""
			(at 181.61 27.94 0)
			(effects
				(font
					(size 1.27 1.27)
				)
				(hide yes)
			)
		)
		(property "Datasheet" ""
			(at 181.61 27.94 0)
			(effects
				(font
					(size 1.27 1.27)
				)
				(hide yes)
			)
		)
		(property "Description" "Power symbol creates a global label with name \"GNDD\" , digital ground"
			(at 181.61 27.94 0)
			(effects
				(font
					(size 1.27 1.27)
				)
				(hide yes)
			)
		)
		(pin "1"
			(uuid "00d152a3-c03d-465c-9dbf-89c61aa0471a")
		)
		(instances
			(project "ESP32_DevKit"
				(path "/85173ce3-35f6-48d6-9ade-c8b780c7bf44/e87e86e8-fd12-48d1-814a-5ad29891b5cf"
					(reference "#PWR028")
					(unit 1)
				)
			)
		)
	)
	(symbol
		(lib_id "Analog_ADC:ADS1115IDGS")
		(at 147.32 44.45 0)
		(unit 1)
		(exclude_from_sim no)
		(in_bom yes)
		(on_board yes)
		(dnp no)
		(fields_autoplaced yes)
		(uuid "3219af6c-4d45-4388-948b-5be8a88de2be")
		(property "Reference" "U5"
			(at 149.5141 29.21 0)
			(effects
				(font
					(size 1.27 1.27)
				)
				(justify left)
			)
		)
		(property "Value" "ADS1115IDGS"
			(at 149.5141 31.75 0)
			(effects
				(font
					(size 1.27 1.27)
				)
				(justify left)
			)
		)
		(property "Footprint" "Package_SO:TSSOP-10_3x3mm_P0.5mm"
			(at 147.32 57.15 0)
			(effects
				(font
					(size 1.27 1.27)
				)
				(hide yes)
			)
		)
		(property "Datasheet" "http://www.ti.com/lit/ds/symlink/ads1113.pdf"
			(at 146.05 67.31 0)
			(effects
				(font
					(size 1.27 1.27)
				)
				(hide yes)
			)
		)
		(property "Description" "Ultra-Small, Low-Power, I2C-Compatible, 860-SPS, 16-Bit ADCs With Internal Reference, Oscillator, and Programmable Comparator, VSSOP-10"
			(at 147.32 44.45 0)
			(effects
				(font
					(size 1.27 1.27)
				)
				(hide yes)
			)
		)
		(pin "1"
			(uuid "4b8faa0d-a453-4ab9-a6a0-f35457b4863b")
		)
		(pin "9"
			(uuid "7f58aa41-ec52-40c7-a39d-55c42a7fce24")
		)
		(pin "4"
			(uuid "e7ab31ff-431e-450b-a747-3a8ebd2238a9")
		)
		(pin "5"
			(uuid "5e1451f1-b9f5-4160-b00c-6dcbfbafcaa7")
		)
		(pin "3"
			(uuid "e2a92163-ab65-4a09-bf16-0cfb5a882ac4")
		)
		(pin "6"
			(uuid "0fc7057e-091a-454f-989a-5b96bf1b4b8e")
		)
		(pin "10"
			(uuid "6eb54ed7-586d-4b2d-bc68-4cbd3313a9b6")
		)
		(pin "7"
			(uuid "b9bc362b-d9b3-4772-a7d5-19b4ebc1acca")
		)
		(pin "2"
			(uuid "5abb6e62-35ad-4fae-addf-f25052f5b512")
		)
		(pin "8"
			(uuid "0e2a48a6-96d2-4527-9278-e4ad6c527c8e")
		)
		(instances
			(project "ESP32_DevKit"
				(path "/85173ce3-35f6-48d6-9ade-c8b780c7bf44/e87e86e8-fd12-48d1-814a-5ad29891b5cf"
					(reference "U5")
					(unit 1)
				)
			)
		)
	)
	(symbol
		(lib_id "power:+3.3V")
		(at 198.12 25.4 0)
		(unit 1)
		(exclude_from_sim no)
		(in_bom yes)
		(on_board yes)
		(dnp no)
		(fields_autoplaced yes)
		(uuid "3a84fcf5-5614-4b8b-9e02-069b1204133a")
		(property "Reference" "#PWR029"
			(at 198.12 29.21 0)
			(effects
				(font
					(size 1.27 1.27)
				)
				(hide yes)
			)
		)
		(property "Value" "+3.3V"
			(at 198.12 20.32 0)
			(effects
				(font
					(size 1.27 1.27)
				)
			)
		)
		(property "Footprint" ""
			(at 198.12 25.4 0)
			(effects
				(font
					(size 1.27 1.27)
				)
				(hide yes)
			)
		)
		(property "Datasheet" ""
			(at 198.12 25.4 0)
			(effects
				(font
					(size 1.27 1.27)
				)
				(hide yes)
			)
		)
		(property "Description" "Power symbol creates a global label with name \"+3.3V\""
			(at 198.12 25.4 0)
			(effects
				(font
					(size 1.27 1.27)
				)
				(hide yes)
			)
		)
		(pin "1"
			(uuid "10f822f8-1735-4c7e-9ffe-4d84b2226ada")
		)
		(instances
			(project "ESP32_DevKit"
				(path "/85173ce3-35f6-48d6-9ade-c8b780c7bf44/e87e86e8-fd12-48d1-814a-5ad29891b5cf"
					(reference "#PWR029")
					(unit 1)
				)
			)
		)
	)
	(symbol
		(lib_id "power:GNDD")
		(at 162.56 62.23 0)
		(unit 1)
		(exclude_from_sim no)
		(in_bom yes)
		(on_board yes)
		(dnp no)
		(fields_autoplaced yes)
		(uuid "5a08ecb6-bdd4-4567-8b17-78640253d5aa")
		(property "Reference" "#PWR025"
			(at 162.56 68.58 0)
			(effects
				(font
					(size 1.27 1.27)
				)
				(hide yes)
			)
		)
		(property "Value" "GNDD"
			(at 162.56 66.04 0)
			(effects
				(font
					(size 1.27 1.27)
				)
			)
		)
		(property "Footprint" ""
			(at 162.56 62.23 0)
			(effects
				(font
					(size 1.27 1.27)
				)
				(hide yes)
			)
		)
		(property "Datasheet" ""
			(at 162.56 62.23 0)
			(effects
				(font
					(size 1.27 1.27)
				)
				(hide yes)
			)
		)
		(property "Description" "Power symbol creates a global label with name \"GNDD\" , digital ground"
			(at 162.56 62.23 0)
			(effects
				(font
					(size 1.27 1.27)
				)
				(hide yes)
			)
		)
		(pin "1"
			(uuid "ecf9b12c-e089-4b46-914b-3f4a90540aae")
		)
		(instances
			(project "ESP32_DevKit"
				(path "/85173ce3-35f6-48d6-9ade-c8b780c7bf44/e87e86e8-fd12-48d1-814a-5ad29891b5cf"
					(reference "#PWR025")
					(unit 1)
				)
			)
		)
	)
	(symbol
		(lib_id "power:+3.3V")
		(at 96.52 63.5 270)
		(unit 1)
		(exclude_from_sim no)
		(in_bom yes)
		(on_board yes)
		(dnp no)
		(fields_autoplaced yes)
		(uuid "716f2fa9-bd0c-4aa6-8686-362a46df9563")
		(property "Reference" "#PWR035"
			(at 92.71 63.5 0)
			(effects
				(font
					(size 1.27 1.27)
				)
				(hide yes)
			)
		)
		(property "Value" "+3.3V"
			(at 100.33 63.4999 90)
			(effects
				(font
					(size 1.27 1.27)
				)
				(justify left)
			)
		)
		(property "Footprint" ""
			(at 96.52 63.5 0)
			(effects
				(font
					(size 1.27 1.27)
				)
				(hide yes)
			)
		)
		(property "Datasheet" ""
			(at 96.52 63.5 0)
			(effects
				(font
					(size 1.27 1.27)
				)
				(hide yes)
			)
		)
		(property "Description" "Power symbol creates a global label with name \"+3.3V\""
			(at 96.52 63.5 0)
			(effects
				(font
					(size 1.27 1.27)
				)
				(hide yes)
			)
		)
		(pin "1"
			(uuid "dc424088-298b-429b-b757-1b08abd838aa")
		)
		(instances
			(project "ESP32_DevKit"
				(path "/85173ce3-35f6-48d6-9ade-c8b780c7bf44/e87e86e8-fd12-48d1-814a-5ad29891b5cf"
					(reference "#PWR035")
					(unit 1)
				)
			)
		)
	)
	(symbol
		(lib_id "Device:C")
		(at 139.7 29.21 90)
		(unit 1)
		(exclude_from_sim no)
		(in_bom yes)
		(on_board yes)
		(dnp no)
		(fields_autoplaced yes)
		(uuid "86e8d991-35ba-4118-b850-b8ae62788216")
		(property "Reference" "C8"
			(at 139.7 21.59 90)
			(effects
				(font
					(size 1.27 1.27)
				)
			)
		)
		(property "Value" "C"
			(at 139.7 24.13 90)
			(effects
				(font
					(size 1.27 1.27)
				)
			)
		)
		(property "Footprint" "Capacitor_SMD:C_0805_2012Metric_Pad1.18x1.45mm_HandSolder"
			(at 143.51 28.2448 0)
			(effects
				(font
					(size 1.27 1.27)
				)
				(hide yes)
			)
		)
		(property "Datasheet" "~"
			(at 139.7 29.21 0)
			(effects
				(font
					(size 1.27 1.27)
				)
				(hide yes)
			)
		)
		(property "Description" "Unpolarized capacitor"
			(at 139.7 29.21 0)
			(effects
				(font
					(size 1.27 1.27)
				)
				(hide yes)
			)
		)
		(pin "1"
			(uuid "15a50047-7cf5-480a-8759-a388d274a154")
		)
		(pin "2"
			(uuid "80b5eb57-f95f-4316-bccb-0338bb2f2242")
		)
		(instances
			(project "ESP32_DevKit"
				(path "/85173ce3-35f6-48d6-9ade-c8b780c7bf44/e87e86e8-fd12-48d1-814a-5ad29891b5cf"
					(reference "C8")
					(unit 1)
				)
			)
		)
	)
	(symbol
		(lib_id "Device:Battery_Cell")
		(at 210.82 25.4 90)
		(unit 1)
		(exclude_from_sim no)
		(in_bom yes)
		(on_board yes)
		(dnp no)
		(uuid "8f0368fa-cc47-4207-872e-6ef9721367e3")
		(property "Reference" "BT1"
			(at 214.376 23.876 90)
			(effects
				(font
					(size 1.27 1.27)
				)
			)
		)
		(property "Value" "Battery_Cell"
			(at 208.9785 20.32 90)
			(effects
				(font
					(size 1.27 1.27)
				)
			)
		)
		(property "Footprint" "Battery:BatteryHolder_Keystone_1058_1x2032"
			(at 209.296 25.4 90)
			(effects
				(font
					(size 1.27 1.27)
				)
				(hide yes)
			)
		)
		(property "Datasheet" "~"
			(at 209.296 25.4 90)
			(effects
				(font
					(size 1.27 1.27)
				)
				(hide yes)
			)
		)
		(property "Description" "Single-cell battery"
			(at 210.82 25.4 0)
			(effects
				(font
					(size 1.27 1.27)
				)
				(hide yes)
			)
		)
		(pin "1"
			(uuid "3631ada3-cea7-43bb-bd79-f155729f74d2")
		)
		(pin "2"
			(uuid "e512e9f8-13db-45c2-a303-25a962f5caf1")
		)
		(instances
			(project "ESP32_DevKit"
				(path "/85173ce3-35f6-48d6-9ade-c8b780c7bf44/e87e86e8-fd12-48d1-814a-5ad29891b5cf"
					(reference "BT1")
					(unit 1)
				)
			)
		)
	)
	(symbol
		(lib_id "Device:R_US")
		(at 162.56 55.88 180)
		(unit 1)
		(exclude_from_sim no)
		(in_bom yes)
		(on_board yes)
		(dnp no)
		(uuid "90c629b0-5870-4f8a-9e14-2aef9ea15ac5")
		(property "Reference" "R13"
			(at 160.528 55.88 90)
			(effects
				(font
					(size 1.27 1.27)
				)
			)
		)
		(property "Value" "10K"
			(at 164.846 55.626 90)
			(effects
				(font
					(size 1.27 1.27)
				)
			)
		)
		(property "Footprint" "Resistor_SMD:R_0805_2012Metric_Pad1.20x1.40mm_HandSolder"
			(at 161.544 55.626 90)
			(effects
				(font
					(size 1.27 1.27)
				)
				(hide yes)
			)
		)
		(property "Datasheet" "~"
			(at 162.56 55.88 0)
			(effects
				(font
					(size 1.27 1.27)
				)
				(hide yes)
			)
		)
		(property "Description" "Resistor, US symbol"
			(at 162.56 55.88 0)
			(effects
				(font
					(size 1.27 1.27)
				)
				(hide yes)
			)
		)
		(pin "2"
			(uuid "e042dcff-98bd-4a36-9d62-f6e530a133ba")
		)
		(pin "1"
			(uuid "f198d540-2eac-4b48-bb64-be7669689ac0")
		)
		(instances
			(project "ESP32_DevKit"
				(path "/85173ce3-35f6-48d6-9ade-c8b780c7bf44/e87e86e8-fd12-48d1-814a-5ad29891b5cf"
					(reference "R13")
					(unit 1)
				)
			)
		)
	)
	(symbol
		(lib_id "power:GNDD")
		(at 200.66 63.5 0)
		(unit 1)
		(exclude_from_sim no)
		(in_bom yes)
		(on_board yes)
		(dnp no)
		(fields_autoplaced yes)
		(uuid "a84c5a6a-d408-4141-bc9c-b86f61a2362a")
		(property "Reference" "#PWR030"
			(at 200.66 69.85 0)
			(effects
				(font
					(size 1.27 1.27)
				)
				(hide yes)
			)
		)
		(property "Value" "GNDD"
			(at 200.66 67.31 0)
			(effects
				(font
					(size 1.27 1.27)
				)
			)
		)
		(property "Footprint" ""
			(at 200.66 63.5 0)
			(effects
				(font
					(size 1.27 1.27)
				)
				(hide yes)
			)
		)
		(property "Datasheet" ""
			(at 200.66 63.5 0)
			(effects
				(font
					(size 1.27 1.27)
				)
				(hide yes)
			)
		)
		(property "Description" "Power symbol creates a global label with name \"GNDD\" , digital ground"
			(at 200.66 63.5 0)
			(effects
				(font
					(size 1.27 1.27)
				)
				(hide yes)
			)
		)
		(pin "1"
			(uuid "0b454ffc-819a-4e0e-8b6f-7256cc09bbc7")
		)
		(instances
			(project "ESP32_DevKit"
				(path "/85173ce3-35f6-48d6-9ade-c8b780c7bf44/e87e86e8-fd12-48d1-814a-5ad29891b5cf"
					(reference "#PWR030")
					(unit 1)
				)
			)
		)
	)
	(symbol
		(lib_id "Device:C")
		(at 190.5 27.94 90)
		(unit 1)
		(exclude_from_sim no)
		(in_bom yes)
		(on_board yes)
		(dnp no)
		(fields_autoplaced yes)
		(uuid "ab1286ae-168a-4e14-8eee-e2af9b160de1")
		(property "Reference" "C9"
			(at 190.5 20.32 90)
			(effects
				(font
					(size 1.27 1.27)
				)
			)
		)
		(property "Value" "C"
			(at 190.5 22.86 90)
			(effects
				(font
					(size 1.27 1.27)
				)
			)
		)
		(property "Footprint" "Capacitor_SMD:C_0805_2012Metric_Pad1.18x1.45mm_HandSolder"
			(at 194.31 26.9748 0)
			(effects
				(font
					(size 1.27 1.27)
				)
				(hide yes)
			)
		)
		(property "Datasheet" "~"
			(at 190.5 27.94 0)
			(effects
				(font
					(size 1.27 1.27)
				)
				(hide yes)
			)
		)
		(property "Description" "Unpolarized capacitor"
			(at 190.5 27.94 0)
			(effects
				(font
					(size 1.27 1.27)
				)
				(hide yes)
			)
		)
		(pin "1"
			(uuid "4c49296e-211e-43b2-bef5-ae0590c127c9")
		)
		(pin "2"
			(uuid "b9ba9dd8-16d7-4615-a39b-770380d944ac")
		)
		(instances
			(project "ESP32_DevKit"
				(path "/85173ce3-35f6-48d6-9ade-c8b780c7bf44/e87e86e8-fd12-48d1-814a-5ad29891b5cf"
					(reference "C9")
					(unit 1)
				)
			)
		)
	)
	(symbol
		(lib_id "Timer_RTC:DS3231M")
		(at 200.66 41.91 0)
		(unit 1)
		(exclude_from_sim no)
		(in_bom yes)
		(on_board yes)
		(dnp no)
		(fields_autoplaced yes)
		(uuid "b3352cef-8551-44f4-b11f-04cbbfe995f8")
		(property "Reference" "U6"
			(at 202.8541 52.07 0)
			(effects
				(font
					(size 1.27 1.27)
				)
				(justify left)
			)
		)
		(property "Value" "DS3231M"
			(at 202.8541 54.61 0)
			(effects
				(font
					(size 1.27 1.27)
				)
				(justify left)
			)
		)
		(property "Footprint" "Package_SO:SOIC-16W_7.5x10.3mm_P1.27mm"
			(at 200.66 57.15 0)
			(effects
				(font
					(size 1.27 1.27)
				)
				(hide yes)
			)
		)
		(property "Datasheet" "http://datasheets.maximintegrated.com/en/ds/DS3231.pdf"
			(at 207.518 40.64 0)
			(effects
				(font
					(size 1.27 1.27)
				)
				(hide yes)
			)
		)
		(property "Description" "Extremely Accurate I2C-Integrated RTC/TCXO/Crystal SOIC-16"
			(at 200.66 41.91 0)
			(effects
				(font
					(size 1.27 1.27)
				)
				(hide yes)
			)
		)
		(pin "11"
			(uuid "af7dfa63-203b-4a8e-b1de-c8ecaf20a743")
		)
		(pin "2"
			(uuid "b0c836c1-de69-4159-a999-70616b4c7433")
		)
		(pin "3"
			(uuid "0bce5f4c-ed55-490f-aec4-00fabe1c1e4d")
		)
		(pin "12"
			(uuid "468691ba-8ccf-4ba9-a736-3f87fe2589ef")
		)
		(pin "15"
			(uuid "cdbb3ca4-6518-431d-8f81-a9cee97caf49")
		)
		(pin "13"
			(uuid "23fe06d1-1068-4664-98fc-40ea54d82d7f")
		)
		(pin "14"
			(uuid "0df13703-a025-4260-9d62-930114780054")
		)
		(pin "5"
			(uuid "bc96872b-0656-4e44-ae16-fd7f41746b43")
		)
		(pin "6"
			(uuid "4c2e45a3-a626-4e65-a956-6a5be957c576")
		)
		(pin "9"
			(uuid "3310828e-c99a-4181-bdab-df48e5bb8b46")
		)
		(pin "10"
			(uuid "9f6df27b-00c7-419f-a656-bc9ae6a359bf")
		)
		(pin "7"
			(uuid "1bd55312-82ea-4773-8ec4-6e527be2c32b")
		)
		(pin "4"
			(uuid "917ceed9-d11f-41aa-844e-04481956cb1c")
		)
		(pin "8"
			(uuid "3f712640-b426-462d-8059-a9ac80875d60")
		)
		(pin "1"
			(uuid "65675eeb-e883-4f93-a253-e9c6c6bf599a")
		)
		(pin "16"
			(uuid "81e959d0-d85f-4f5b-bc0b-68d6e32f8e7d")
		)
		(instances
			(project "ESP32_DevKit"
				(path "/85173ce3-35f6-48d6-9ade-c8b780c7bf44/e87e86e8-fd12-48d1-814a-5ad29891b5cf"
					(reference "U6")
					(unit 1)
				)
			)
		)
	)
	(symbol
		(lib_id "power:+3.3V")
		(at 163.83 21.59 0)
		(unit 1)
		(exclude_from_sim no)
		(in_bom yes)
		(on_board yes)
		(dnp no)
		(uuid "b53488c2-491a-489e-9869-e824ce58282b")
		(property "Reference" "#PWR026"
			(at 163.83 25.4 0)
			(effects
				(font
					(size 1.27 1.27)
				)
				(hide yes)
			)
		)
		(property "Value" "+3.3V"
			(at 160.274 21.336 0)
			(effects
				(font
					(size 1.27 1.27)
				)
			)
		)
		(property "Footprint" ""
			(at 163.83 21.59 0)
			(effects
				(font
					(size 1.27 1.27)
				)
				(hide yes)
			)
		)
		(property "Datasheet" ""
			(at 163.83 21.59 0)
			(effects
				(font
					(size 1.27 1.27)
				)
				(hide yes)
			)
		)
		(property "Description" "Power symbol creates a global label with name \"+3.3V\""
			(at 163.83 21.59 0)
			(effects
				(font
					(size 1.27 1.27)
				)
				(hide yes)
			)
		)
		(pin "1"
			(uuid "31592f94-f63f-4168-9f70-4e4611e8ea7c")
		)
		(instances
			(project "ESP32_DevKit"
				(path "/85173ce3-35f6-48d6-9ade-c8b780c7bf44/e87e86e8-fd12-48d1-814a-5ad29891b5cf"
					(reference "#PWR026")
					(unit 1)
				)
			)
		)
	)
	(symbol
		(lib_id "power:+3.3V")
		(at 71.12 26.67 0)
		(unit 1)
		(exclude_from_sim no)
		(in_bom yes)
		(on_board yes)
		(dnp no)
		(fields_autoplaced yes)
		(uuid "cd522e4f-1637-442e-ae35-fbda1e318289")
		(property "Reference" "#PWR033"
			(at 71.12 30.48 0)
			(effects
				(font
					(size 1.27 1.27)
				)
				(hide yes)
			)
		)
		(property "Value" "+3.3V"
			(at 71.12 21.59 0)
			(effects
				(font
					(size 1.27 1.27)
				)
			)
		)
		(property "Footprint" ""
			(at 71.12 26.67 0)
			(effects
				(font
					(size 1.27 1.27)
				)
				(hide yes)
			)
		)
		(property "Datasheet" ""
			(at 71.12 26.67 0)
			(effects
				(font
					(size 1.27 1.27)
				)
				(hide yes)
			)
		)
		(property "Description" "Power symbol creates a global label with name \"+3.3V\""
			(at 71.12 26.67 0)
			(effects
				(font
					(size 1.27 1.27)
				)
				(hide yes)
			)
		)
		(pin "1"
			(uuid "49041fac-4c44-4c37-9bf6-533956a6dbb5")
		)
		(instances
			(project "ESP32_DevKit"
				(path "/85173ce3-35f6-48d6-9ade-c8b780c7bf44/e87e86e8-fd12-48d1-814a-5ad29891b5cf"
					(reference "#PWR033")
					(unit 1)
				)
			)
		)
	)
	(symbol
		(lib_id "power:GNDD")
		(at 147.32 62.23 0)
		(unit 1)
		(exclude_from_sim no)
		(in_bom yes)
		(on_board yes)
		(dnp no)
		(fields_autoplaced yes)
		(uuid "da149d1a-03c5-4c64-8e4c-235e92496eac")
		(property "Reference" "#PWR024"
			(at 147.32 68.58 0)
			(effects
				(font
					(size 1.27 1.27)
				)
				(hide yes)
			)
		)
		(property "Value" "GNDD"
			(at 147.32 66.04 0)
			(effects
				(font
					(size 1.27 1.27)
				)
			)
		)
		(property "Footprint" ""
			(at 147.32 62.23 0)
			(effects
				(font
					(size 1.27 1.27)
				)
				(hide yes)
			)
		)
		(property "Datasheet" ""
			(at 147.32 62.23 0)
			(effects
				(font
					(size 1.27 1.27)
				)
				(hide yes)
			)
		)
		(property "Description" "Power symbol creates a global label with name \"GNDD\" , digital ground"
			(at 147.32 62.23 0)
			(effects
				(font
					(size 1.27 1.27)
				)
				(hide yes)
			)
		)
		(pin "1"
			(uuid "0a710913-132d-4938-9208-424e8ec6f2d9")
		)
		(instances
			(project "ESP32_DevKit"
				(path "/85173ce3-35f6-48d6-9ade-c8b780c7bf44/e87e86e8-fd12-48d1-814a-5ad29891b5cf"
					(reference "#PWR024")
					(unit 1)
				)
			)
		)
	)
	(symbol
		(lib_id "Device:R_Network06_US")
		(at 78.74 36.83 0)
		(unit 1)
		(exclude_from_sim no)
		(in_bom yes)
		(on_board yes)
		(dnp no)
		(fields_autoplaced yes)
		(uuid "dbe5a08f-f953-40bb-8ec9-fd9e5e8f5b0d")
		(property "Reference" "RN1"
			(at 86.36 35.8139 0)
			(effects
				(font
					(size 1.27 1.27)
				)
				(justify left)
			)
		)
		(property "Value" "10K"
			(at 86.36 38.3539 0)
			(effects
				(font
					(size 1.27 1.27)
				)
				(justify left)
			)
		)
		(property "Footprint" "Resistor_THT:R_Array_SIP7"
			(at 88.265 36.83 90)
			(effects
				(font
					(size 1.27 1.27)
				)
				(hide yes)
			)
		)
		(property "Datasheet" "http://www.vishay.com/docs/31509/csc.pdf"
			(at 78.74 36.83 0)
			(effects
				(font
					(size 1.27 1.27)
				)
				(hide yes)
			)
		)
		(property "Description" "6 resistor network, star topology, bussed resistors, small US symbol"
			(at 78.74 36.83 0)
			(effects
				(font
					(size 1.27 1.27)
				)
				(hide yes)
			)
		)
		(pin "4"
			(uuid "c09ead59-2541-4050-9af0-fe7de2967654")
		)
		(pin "2"
			(uuid "cae97589-3586-48e6-9fb8-962e5e2c14b3")
		)
		(pin "1"
			(uuid "863ce620-0ac8-4472-8d88-925adea95ee3")
		)
		(pin "3"
			(uuid "d6ba2182-b415-4cc7-b7f7-8b3032133f35")
		)
		(pin "6"
			(uuid "df17de0a-b6d9-494f-849f-ed1ec555d543")
		)
		(pin "7"
			(uuid "0d6631be-4795-465e-9535-66f299805d92")
		)
		(pin "5"
			(uuid "45d38b57-be0b-4161-a6fe-a5e2755af10e")
		)
		(instances
			(project "ESP32_DevKit"
				(path "/85173ce3-35f6-48d6-9ade-c8b780c7bf44/e87e86e8-fd12-48d1-814a-5ad29891b5cf"
					(reference "RN1")
					(unit 1)
				)
			)
		)
	)
	(symbol
		(lib_id "power:GNDD")
		(at 96.52 58.42 90)
		(unit 1)
		(exclude_from_sim no)
		(in_bom yes)
		(on_board yes)
		(dnp no)
		(fields_autoplaced yes)
		(uuid "e04c844c-b054-4f36-8af5-5b922e61f170")
		(property "Reference" "#PWR034"
			(at 102.87 58.42 0)
			(effects
				(font
					(size 1.27 1.27)
				)
				(hide yes)
			)
		)
		(property "Value" "GNDD"
			(at 100.33 58.4199 90)
			(effects
				(font
					(size 1.27 1.27)
				)
				(justify right)
			)
		)
		(property "Footprint" ""
			(at 96.52 58.42 0)
			(effects
				(font
					(size 1.27 1.27)
				)
				(hide yes)
			)
		)
		(property "Datasheet" ""
			(at 96.52 58.42 0)
			(effects
				(font
					(size 1.27 1.27)
				)
				(hide yes)
			)
		)
		(property "Description" "Power symbol creates a global label with name \"GNDD\" , digital ground"
			(at 96.52 58.42 0)
			(effects
				(font
					(size 1.27 1.27)
				)
				(hide yes)
			)
		)
		(pin "1"
			(uuid "807f9df1-71c9-4507-a5c8-f34f1ffa12e5")
		)
		(instances
			(project "ESP32_DevKit"
				(path "/85173ce3-35f6-48d6-9ade-c8b780c7bf44/e87e86e8-fd12-48d1-814a-5ad29891b5cf"
					(reference "#PWR034")
					(unit 1)
				)
			)
		)
	)
	(symbol
		(lib_id "power:GNDD")
		(at 218.44 25.4 90)
		(unit 1)
		(exclude_from_sim no)
		(in_bom yes)
		(on_board yes)
		(dnp no)
		(fields_autoplaced yes)
		(uuid "e4ea70fe-d168-4896-9e56-d48f7d757136")
		(property "Reference" "#PWR031"
			(at 224.79 25.4 0)
			(effects
				(font
					(size 1.27 1.27)
				)
				(hide yes)
			)
		)
		(property "Value" "GNDD"
			(at 222.25 25.3999 90)
			(effects
				(font
					(size 1.27 1.27)
				)
				(justify right)
			)
		)
		(property "Footprint" ""
			(at 218.44 25.4 0)
			(effects
				(font
					(size 1.27 1.27)
				)
				(hide yes)
			)
		)
		(property "Datasheet" ""
			(at 218.44 25.4 0)
			(effects
				(font
					(size 1.27 1.27)
				)
				(hide yes)
			)
		)
		(property "Description" "Power symbol creates a global label with name \"GNDD\" , digital ground"
			(at 218.44 25.4 0)
			(effects
				(font
					(size 1.27 1.27)
				)
				(hide yes)
			)
		)
		(pin "1"
			(uuid "380a68db-7d46-466a-9bc9-2a857a0eafbc")
		)
		(instances
			(project "ESP32_DevKit"
				(path "/85173ce3-35f6-48d6-9ade-c8b780c7bf44/e87e86e8-fd12-48d1-814a-5ad29891b5cf"
					(reference "#PWR031")
					(unit 1)
				)
			)
		)
	)
	(symbol
		(lib_id "power:+3.3V")
		(at 147.32 25.4 0)
		(unit 1)
		(exclude_from_sim no)
		(in_bom yes)
		(on_board yes)
		(dnp no)
		(fields_autoplaced yes)
		(uuid "f513c3e4-6460-4d95-a6e6-84bf294e0e64")
		(property "Reference" "#PWR023"
			(at 147.32 29.21 0)
			(effects
				(font
					(size 1.27 1.27)
				)
				(hide yes)
			)
		)
		(property "Value" "+3.3V"
			(at 147.32 20.32 0)
			(effects
				(font
					(size 1.27 1.27)
				)
			)
		)
		(property "Footprint" ""
			(at 147.32 25.4 0)
			(effects
				(font
					(size 1.27 1.27)
				)
				(hide yes)
			)
		)
		(property "Datasheet" ""
			(at 147.32 25.4 0)
			(effects
				(font
					(size 1.27 1.27)
				)
				(hide yes)
			)
		)
		(property "Description" "Power symbol creates a global label with name \"+3.3V\""
			(at 147.32 25.4 0)
			(effects
				(font
					(size 1.27 1.27)
				)
				(hide yes)
			)
		)
		(pin "1"
			(uuid "a169bdf6-b3f3-4cd2-9ee2-dcb13ea45d84")
		)
		(instances
			(project "ESP32_DevKit"
				(path "/85173ce3-35f6-48d6-9ade-c8b780c7bf44/e87e86e8-fd12-48d1-814a-5ad29891b5cf"
					(reference "#PWR023")
					(unit 1)
				)
			)
		)
	)
	(symbol
		(lib_id "power:GNDD")
		(at 24.13 48.26 270)
		(unit 1)
		(exclude_from_sim no)
		(in_bom yes)
		(on_board yes)
		(dnp no)
		(fields_autoplaced yes)
		(uuid "f969a399-6d9a-4074-bd47-3e0ab99acc2f")
		(property "Reference" "#PWR032"
			(at 17.78 48.26 0)
			(effects
				(font
					(size 1.27 1.27)
				)
				(hide yes)
			)
		)
		(property "Value" "GNDD"
			(at 20.32 48.2599 90)
			(effects
				(font
					(size 1.27 1.27)
				)
				(justify right)
			)
		)
		(property "Footprint" ""
			(at 24.13 48.26 0)
			(effects
				(font
					(size 1.27 1.27)
				)
				(hide yes)
			)
		)
		(property "Datasheet" ""
			(at 24.13 48.26 0)
			(effects
				(font
					(size 1.27 1.27)
				)
				(hide yes)
			)
		)
		(property "Description" "Power symbol creates a global label with name \"GNDD\" , digital ground"
			(at 24.13 48.26 0)
			(effects
				(font
					(size 1.27 1.27)
				)
				(hide yes)
			)
		)
		(pin "1"
			(uuid "f7dd3559-9fc2-4155-b188-6a0b74588b36")
		)
		(instances
			(project "ESP32_DevKit"
				(path "/85173ce3-35f6-48d6-9ade-c8b780c7bf44/e87e86e8-fd12-48d1-814a-5ad29891b5cf"
					(reference "#PWR032")
					(unit 1)
				)
			)
		)
	)
)
