(kicad_sch
	(version 20231120)
	(generator "eeschema")
	(generator_version "8.0")
	(uuid "17d2ace0-230c-4753-bb3d-7e6215ea006a")
	(paper "A4")
	(lib_symbols
		(symbol "Connector:USB_C_Receptacle_USB2.0_14P"
			(pin_names
				(offset 1.016)
			)
			(exclude_from_sim no)
			(in_bom yes)
			(on_board yes)
			(property "Reference" "J"
				(at 0 22.225 0)
				(effects
					(font
						(size 1.27 1.27)
					)
				)
			)
			(property "Value" "USB_C_Receptacle_USB2.0_14P"
				(at 0 19.685 0)
				(effects
					(font
						(size 1.27 1.27)
					)
				)
			)
			(property "Footprint" ""
				(at 3.81 0 0)
				(effects
					(font
						(size 1.27 1.27)
					)
					(hide yes)
				)
			)
			(property "Datasheet" "https://www.usb.org/sites/default/files/documents/usb_type-c.zip"
				(at 3.81 0 0)
				(effects
					(font
						(size 1.27 1.27)
					)
					(hide yes)
				)
			)
			(property "Description" "USB 2.0-only 14P Type-C Receptacle connector"
				(at 0 0 0)
				(effects
					(font
						(size 1.27 1.27)
					)
					(hide yes)
				)
			)
			(property "ki_keywords" "usb universal serial bus type-C USB2.0"
				(at 0 0 0)
				(effects
					(font
						(size 1.27 1.27)
					)
					(hide yes)
				)
			)
			(property "ki_fp_filters" "USB*C*Receptacle*"
				(at 0 0 0)
				(effects
					(font
						(size 1.27 1.27)
					)
					(hide yes)
				)
			)
			(symbol "USB_C_Receptacle_USB2.0_14P_0_0"
				(rectangle
					(start -0.254 -17.78)
					(end 0.254 -16.764)
					(stroke
						(width 0)
						(type default)
					)
					(fill
						(type none)
					)
				)
				(rectangle
					(start 10.16 -4.826)
					(end 9.144 -5.334)
					(stroke
						(width 0)
						(type default)
					)
					(fill
						(type none)
					)
				)
				(rectangle
					(start 10.16 -2.286)
					(end 9.144 -2.794)
					(stroke
						(width 0)
						(type default)
					)
					(fill
						(type none)
					)
				)
				(rectangle
					(start 10.16 0.254)
					(end 9.144 -0.254)
					(stroke
						(width 0)
						(type default)
					)
					(fill
						(type none)
					)
				)
				(rectangle
					(start 10.16 2.794)
					(end 9.144 2.286)
					(stroke
						(width 0)
						(type default)
					)
					(fill
						(type none)
					)
				)
				(rectangle
					(start 10.16 7.874)
					(end 9.144 7.366)
					(stroke
						(width 0)
						(type default)
					)
					(fill
						(type none)
					)
				)
				(rectangle
					(start 10.16 10.414)
					(end 9.144 9.906)
					(stroke
						(width 0)
						(type default)
					)
					(fill
						(type none)
					)
				)
				(rectangle
					(start 10.16 15.494)
					(end 9.144 14.986)
					(stroke
						(width 0)
						(type default)
					)
					(fill
						(type none)
					)
				)
			)
			(symbol "USB_C_Receptacle_USB2.0_14P_0_1"
				(rectangle
					(start -10.16 17.78)
					(end 10.16 -17.78)
					(stroke
						(width 0.254)
						(type default)
					)
					(fill
						(type background)
					)
				)
				(arc
					(start -8.89 -3.81)
					(mid -6.985 -5.7067)
					(end -5.08 -3.81)
					(stroke
						(width 0.508)
						(type default)
					)
					(fill
						(type none)
					)
				)
				(arc
					(start -7.62 -3.81)
					(mid -6.985 -4.4423)
					(end -6.35 -3.81)
					(stroke
						(width 0.254)
						(type default)
					)
					(fill
						(type none)
					)
				)
				(arc
					(start -7.62 -3.81)
					(mid -6.985 -4.4423)
					(end -6.35 -3.81)
					(stroke
						(width 0.254)
						(type default)
					)
					(fill
						(type outline)
					)
				)
				(rectangle
					(start -7.62 -3.81)
					(end -6.35 3.81)
					(stroke
						(width 0.254)
						(type default)
					)
					(fill
						(type outline)
					)
				)
				(arc
					(start -6.35 3.81)
					(mid -6.985 4.4423)
					(end -7.62 3.81)
					(stroke
						(width 0.254)
						(type default)
					)
					(fill
						(type none)
					)
				)
				(arc
					(start -6.35 3.81)
					(mid -6.985 4.4423)
					(end -7.62 3.81)
					(stroke
						(width 0.254)
						(type default)
					)
					(fill
						(type outline)
					)
				)
				(arc
					(start -5.08 3.81)
					(mid -6.985 5.7067)
					(end -8.89 3.81)
					(stroke
						(width 0.508)
						(type default)
					)
					(fill
						(type none)
					)
				)
				(circle
					(center -2.54 1.143)
					(radius 0.635)
					(stroke
						(width 0.254)
						(type default)
					)
					(fill
						(type outline)
					)
				)
				(circle
					(center 0 -5.842)
					(radius 1.27)
					(stroke
						(width 0)
						(type default)
					)
					(fill
						(type outline)
					)
				)
				(polyline
					(pts
						(xy -8.89 -3.81) (xy -8.89 3.81)
					)
					(stroke
						(width 0.508)
						(type default)
					)
					(fill
						(type none)
					)
				)
				(polyline
					(pts
						(xy -5.08 3.81) (xy -5.08 -3.81)
					)
					(stroke
						(width 0.508)
						(type default)
					)
					(fill
						(type none)
					)
				)
				(polyline
					(pts
						(xy 0 -5.842) (xy 0 4.318)
					)
					(stroke
						(width 0.508)
						(type default)
					)
					(fill
						(type none)
					)
				)
				(polyline
					(pts
						(xy 0 -3.302) (xy -2.54 -0.762) (xy -2.54 0.508)
					)
					(stroke
						(width 0.508)
						(type default)
					)
					(fill
						(type none)
					)
				)
				(polyline
					(pts
						(xy 0 -2.032) (xy 2.54 0.508) (xy 2.54 1.778)
					)
					(stroke
						(width 0.508)
						(type default)
					)
					(fill
						(type none)
					)
				)
				(polyline
					(pts
						(xy -1.27 4.318) (xy 0 6.858) (xy 1.27 4.318) (xy -1.27 4.318)
					)
					(stroke
						(width 0.254)
						(type default)
					)
					(fill
						(type outline)
					)
				)
				(rectangle
					(start 1.905 1.778)
					(end 3.175 3.048)
					(stroke
						(width 0.254)
						(type default)
					)
					(fill
						(type outline)
					)
				)
			)
			(symbol "USB_C_Receptacle_USB2.0_14P_1_1"
				(pin passive line
					(at 0 -22.86 90)
					(length 5.08)
					(name "GND"
						(effects
							(font
								(size 1.27 1.27)
							)
						)
					)
					(number "A1"
						(effects
							(font
								(size 1.27 1.27)
							)
						)
					)
				)
				(pin passive line
					(at 0 -22.86 90)
					(length 5.08) hide
					(name "GND"
						(effects
							(font
								(size 1.27 1.27)
							)
						)
					)
					(number "A12"
						(effects
							(font
								(size 1.27 1.27)
							)
						)
					)
				)
				(pin passive line
					(at 15.24 15.24 180)
					(length 5.08)
					(name "VBUS"
						(effects
							(font
								(size 1.27 1.27)
							)
						)
					)
					(number "A4"
						(effects
							(font
								(size 1.27 1.27)
							)
						)
					)
				)
				(pin bidirectional line
					(at 15.24 10.16 180)
					(length 5.08)
					(name "CC1"
						(effects
							(font
								(size 1.27 1.27)
							)
						)
					)
					(number "A5"
						(effects
							(font
								(size 1.27 1.27)
							)
						)
					)
				)
				(pin bidirectional line
					(at 15.24 -2.54 180)
					(length 5.08)
					(name "D+"
						(effects
							(font
								(size 1.27 1.27)
							)
						)
					)
					(number "A6"
						(effects
							(font
								(size 1.27 1.27)
							)
						)
					)
				)
				(pin bidirectional line
					(at 15.24 2.54 180)
					(length 5.08)
					(name "D-"
						(effects
							(font
								(size 1.27 1.27)
							)
						)
					)
					(number "A7"
						(effects
							(font
								(size 1.27 1.27)
							)
						)
					)
				)
				(pin passive line
					(at 15.24 15.24 180)
					(length 5.08) hide
					(name "VBUS"
						(effects
							(font
								(size 1.27 1.27)
							)
						)
					)
					(number "A9"
						(effects
							(font
								(size 1.27 1.27)
							)
						)
					)
				)
				(pin passive line
					(at 0 -22.86 90)
					(length 5.08) hide
					(name "GND"
						(effects
							(font
								(size 1.27 1.27)
							)
						)
					)
					(number "B1"
						(effects
							(font
								(size 1.27 1.27)
							)
						)
					)
				)
				(pin passive line
					(at 0 -22.86 90)
					(length 5.08) hide
					(name "GND"
						(effects
							(font
								(size 1.27 1.27)
							)
						)
					)
					(number "B12"
						(effects
							(font
								(size 1.27 1.27)
							)
						)
					)
				)
				(pin passive line
					(at 15.24 15.24 180)
					(length 5.08) hide
					(name "VBUS"
						(effects
							(font
								(size 1.27 1.27)
							)
						)
					)
					(number "B4"
						(effects
							(font
								(size 1.27 1.27)
							)
						)
					)
				)
				(pin bidirectional line
					(at 15.24 7.62 180)
					(length 5.08)
					(name "CC2"
						(effects
							(font
								(size 1.27 1.27)
							)
						)
					)
					(number "B5"
						(effects
							(font
								(size 1.27 1.27)
							)
						)
					)
				)
				(pin bidirectional line
					(at 15.24 -5.08 180)
					(length 5.08)
					(name "D+"
						(effects
							(font
								(size 1.27 1.27)
							)
						)
					)
					(number "B6"
						(effects
							(font
								(size 1.27 1.27)
							)
						)
					)
				)
				(pin bidirectional line
					(at 15.24 0 180)
					(length 5.08)
					(name "D-"
						(effects
							(font
								(size 1.27 1.27)
							)
						)
					)
					(number "B7"
						(effects
							(font
								(size 1.27 1.27)
							)
						)
					)
				)
				(pin passive line
					(at 15.24 15.24 180)
					(length 5.08) hide
					(name "VBUS"
						(effects
							(font
								(size 1.27 1.27)
							)
						)
					)
					(number "B9"
						(effects
							(font
								(size 1.27 1.27)
							)
						)
					)
				)
				(pin passive line
					(at -7.62 -22.86 90)
					(length 5.08)
					(name "SHIELD"
						(effects
							(font
								(size 1.27 1.27)
							)
						)
					)
					(number "S1"
						(effects
							(font
								(size 1.27 1.27)
							)
						)
					)
				)
			)
		)
		(symbol "Device:D_Schottky"
			(pin_numbers hide)
			(pin_names
				(offset 1.016) hide)
			(exclude_from_sim no)
			(in_bom yes)
			(on_board yes)
			(property "Reference" "D"
				(at 0 2.54 0)
				(effects
					(font
						(size 1.27 1.27)
					)
				)
			)
			(property "Value" "D_Schottky"
				(at 0 -2.54 0)
				(effects
					(font
						(size 1.27 1.27)
					)
				)
			)
			(property "Footprint" ""
				(at 0 0 0)
				(effects
					(font
						(size 1.27 1.27)
					)
					(hide yes)
				)
			)
			(property "Datasheet" "~"
				(at 0 0 0)
				(effects
					(font
						(size 1.27 1.27)
					)
					(hide yes)
				)
			)
			(property "Description" "Schottky diode"
				(at 0 0 0)
				(effects
					(font
						(size 1.27 1.27)
					)
					(hide yes)
				)
			)
			(property "ki_keywords" "diode Schottky"
				(at 0 0 0)
				(effects
					(font
						(size 1.27 1.27)
					)
					(hide yes)
				)
			)
			(property "ki_fp_filters" "TO-???* *_Diode_* *SingleDiode* D_*"
				(at 0 0 0)
				(effects
					(font
						(size 1.27 1.27)
					)
					(hide yes)
				)
			)
			(symbol "D_Schottky_0_1"
				(polyline
					(pts
						(xy 1.27 0) (xy -1.27 0)
					)
					(stroke
						(width 0)
						(type default)
					)
					(fill
						(type none)
					)
				)
				(polyline
					(pts
						(xy 1.27 1.27) (xy 1.27 -1.27) (xy -1.27 0) (xy 1.27 1.27)
					)
					(stroke
						(width 0.254)
						(type default)
					)
					(fill
						(type none)
					)
				)
				(polyline
					(pts
						(xy -1.905 0.635) (xy -1.905 1.27) (xy -1.27 1.27) (xy -1.27 -1.27) (xy -0.635 -1.27) (xy -0.635 -0.635)
					)
					(stroke
						(width 0.254)
						(type default)
					)
					(fill
						(type none)
					)
				)
			)
			(symbol "D_Schottky_1_1"
				(pin passive line
					(at -3.81 0 0)
					(length 2.54)
					(name "K"
						(effects
							(font
								(size 1.27 1.27)
							)
						)
					)
					(number "1"
						(effects
							(font
								(size 1.27 1.27)
							)
						)
					)
				)
				(pin passive line
					(at 3.81 0 180)
					(length 2.54)
					(name "A"
						(effects
							(font
								(size 1.27 1.27)
							)
						)
					)
					(number "2"
						(effects
							(font
								(size 1.27 1.27)
							)
						)
					)
				)
			)
		)
		(symbol "Device:R_US"
			(pin_numbers hide)
			(pin_names
				(offset 0)
			)
			(exclude_from_sim no)
			(in_bom yes)
			(on_board yes)
			(property "Reference" "R"
				(at 2.54 0 90)
				(effects
					(font
						(size 1.27 1.27)
					)
				)
			)
			(property "Value" "R_US"
				(at -2.54 0 90)
				(effects
					(font
						(size 1.27 1.27)
					)
				)
			)
			(property "Footprint" ""
				(at 1.016 -0.254 90)
				(effects
					(font
						(size 1.27 1.27)
					)
					(hide yes)
				)
			)
			(property "Datasheet" "~"
				(at 0 0 0)
				(effects
					(font
						(size 1.27 1.27)
					)
					(hide yes)
				)
			)
			(property "Description" "Resistor, US symbol"
				(at 0 0 0)
				(effects
					(font
						(size 1.27 1.27)
					)
					(hide yes)
				)
			)
			(property "ki_keywords" "R res resistor"
				(at 0 0 0)
				(effects
					(font
						(size 1.27 1.27)
					)
					(hide yes)
				)
			)
			(property "ki_fp_filters" "R_*"
				(at 0 0 0)
				(effects
					(font
						(size 1.27 1.27)
					)
					(hide yes)
				)
			)
			(symbol "R_US_0_1"
				(polyline
					(pts
						(xy 0 -2.286) (xy 0 -2.54)
					)
					(stroke
						(width 0)
						(type default)
					)
					(fill
						(type none)
					)
				)
				(polyline
					(pts
						(xy 0 2.286) (xy 0 2.54)
					)
					(stroke
						(width 0)
						(type default)
					)
					(fill
						(type none)
					)
				)
				(polyline
					(pts
						(xy 0 -0.762) (xy 1.016 -1.143) (xy 0 -1.524) (xy -1.016 -1.905) (xy 0 -2.286)
					)
					(stroke
						(width 0)
						(type default)
					)
					(fill
						(type none)
					)
				)
				(polyline
					(pts
						(xy 0 0.762) (xy 1.016 0.381) (xy 0 0) (xy -1.016 -0.381) (xy 0 -0.762)
					)
					(stroke
						(width 0)
						(type default)
					)
					(fill
						(type none)
					)
				)
				(polyline
					(pts
						(xy 0 2.286) (xy 1.016 1.905) (xy 0 1.524) (xy -1.016 1.143) (xy 0 0.762)
					)
					(stroke
						(width 0)
						(type default)
					)
					(fill
						(type none)
					)
				)
			)
			(symbol "R_US_1_1"
				(pin passive line
					(at 0 3.81 270)
					(length 1.27)
					(name "~"
						(effects
							(font
								(size 1.27 1.27)
							)
						)
					)
					(number "1"
						(effects
							(font
								(size 1.27 1.27)
							)
						)
					)
				)
				(pin passive line
					(at 0 -3.81 90)
					(length 1.27)
					(name "~"
						(effects
							(font
								(size 1.27 1.27)
							)
						)
					)
					(number "2"
						(effects
							(font
								(size 1.27 1.27)
							)
						)
					)
				)
			)
		)
		(symbol "Interface_USB:CP2102N-Axx-xQFN24"
			(exclude_from_sim no)
			(in_bom yes)
			(on_board yes)
			(property "Reference" "U"
				(at -8.89 26.67 0)
				(effects
					(font
						(size 1.27 1.27)
					)
				)
			)
			(property "Value" "CP2102N-Axx-xQFN24"
				(at 13.97 26.67 0)
				(effects
					(font
						(size 1.27 1.27)
					)
				)
			)
			(property "Footprint" "Package_DFN_QFN:QFN-24-1EP_4x4mm_P0.5mm_EP2.6x2.6mm"
				(at 31.75 -26.67 0)
				(effects
					(font
						(size 1.27 1.27)
					)
					(hide yes)
				)
			)
			(property "Datasheet" "https://www.silabs.com/documents/public/data-sheets/cp2102n-datasheet.pdf"
				(at 1.27 -19.05 0)
				(effects
					(font
						(size 1.27 1.27)
					)
					(hide yes)
				)
			)
			(property "Description" "USB to UART master bridge, QFN-24"
				(at 0 0 0)
				(effects
					(font
						(size 1.27 1.27)
					)
					(hide yes)
				)
			)
			(property "ki_keywords" "USB UART bridge"
				(at 0 0 0)
				(effects
					(font
						(size 1.27 1.27)
					)
					(hide yes)
				)
			)
			(property "ki_fp_filters" "QFN*4x4mm*P0.5mm*"
				(at 0 0 0)
				(effects
					(font
						(size 1.27 1.27)
					)
					(hide yes)
				)
			)
			(symbol "CP2102N-Axx-xQFN24_0_1"
				(rectangle
					(start -10.16 25.4)
					(end 10.16 -25.4)
					(stroke
						(width 0.254)
						(type default)
					)
					(fill
						(type background)
					)
				)
			)
			(symbol "CP2102N-Axx-xQFN24_1_1"
				(pin bidirectional line
					(at 12.7 5.08 180)
					(length 2.54)
					(name "~{RI}/CLK"
						(effects
							(font
								(size 1.27 1.27)
							)
						)
					)
					(number "1"
						(effects
							(font
								(size 1.27 1.27)
							)
						)
					)
				)
				(pin no_connect line
					(at -10.16 -22.86 0)
					(length 2.54) hide
					(name "NC"
						(effects
							(font
								(size 1.27 1.27)
							)
						)
					)
					(number "10"
						(effects
							(font
								(size 1.27 1.27)
							)
						)
					)
				)
				(pin bidirectional line
					(at 12.7 -15.24 180)
					(length 2.54)
					(name "~{WAKEUP}/GPIO.3"
						(effects
							(font
								(size 1.27 1.27)
							)
						)
					)
					(number "11"
						(effects
							(font
								(size 1.27 1.27)
							)
						)
					)
				)
				(pin bidirectional line
					(at 12.7 -12.7 180)
					(length 2.54)
					(name "RS485/GPIO.2"
						(effects
							(font
								(size 1.27 1.27)
							)
						)
					)
					(number "12"
						(effects
							(font
								(size 1.27 1.27)
							)
						)
					)
				)
				(pin bidirectional line
					(at 12.7 -10.16 180)
					(length 2.54)
					(name "~{RXT}/GPIO.1"
						(effects
							(font
								(size 1.27 1.27)
							)
						)
					)
					(number "13"
						(effects
							(font
								(size 1.27 1.27)
							)
						)
					)
				)
				(pin bidirectional line
					(at 12.7 -7.62 180)
					(length 2.54)
					(name "~{TXT}/GPIO.0"
						(effects
							(font
								(size 1.27 1.27)
							)
						)
					)
					(number "14"
						(effects
							(font
								(size 1.27 1.27)
							)
						)
					)
				)
				(pin output line
					(at 12.7 -2.54 180)
					(length 2.54)
					(name "~{SUSPEND}"
						(effects
							(font
								(size 1.27 1.27)
							)
						)
					)
					(number "15"
						(effects
							(font
								(size 1.27 1.27)
							)
						)
					)
				)
				(pin no_connect line
					(at 10.16 -22.86 180)
					(length 2.54) hide
					(name "NC"
						(effects
							(font
								(size 1.27 1.27)
							)
						)
					)
					(number "16"
						(effects
							(font
								(size 1.27 1.27)
							)
						)
					)
				)
				(pin output line
					(at 12.7 0 180)
					(length 2.54)
					(name "SUSPEND"
						(effects
							(font
								(size 1.27 1.27)
							)
						)
					)
					(number "17"
						(effects
							(font
								(size 1.27 1.27)
							)
						)
					)
				)
				(pin input line
					(at 12.7 15.24 180)
					(length 2.54)
					(name "~{CTS}"
						(effects
							(font
								(size 1.27 1.27)
							)
						)
					)
					(number "18"
						(effects
							(font
								(size 1.27 1.27)
							)
						)
					)
				)
				(pin output line
					(at 12.7 17.78 180)
					(length 2.54)
					(name "~{RTS}"
						(effects
							(font
								(size 1.27 1.27)
							)
						)
					)
					(number "19"
						(effects
							(font
								(size 1.27 1.27)
							)
						)
					)
				)
				(pin power_in line
					(at 0 -27.94 90)
					(length 2.54)
					(name "GND"
						(effects
							(font
								(size 1.27 1.27)
							)
						)
					)
					(number "2"
						(effects
							(font
								(size 1.27 1.27)
							)
						)
					)
				)
				(pin input line
					(at 12.7 20.32 180)
					(length 2.54)
					(name "RXD"
						(effects
							(font
								(size 1.27 1.27)
							)
						)
					)
					(number "20"
						(effects
							(font
								(size 1.27 1.27)
							)
						)
					)
				)
				(pin output line
					(at 12.7 22.86 180)
					(length 2.54)
					(name "TXD"
						(effects
							(font
								(size 1.27 1.27)
							)
						)
					)
					(number "21"
						(effects
							(font
								(size 1.27 1.27)
							)
						)
					)
				)
				(pin input line
					(at 12.7 12.7 180)
					(length 2.54)
					(name "~{DSR}"
						(effects
							(font
								(size 1.27 1.27)
							)
						)
					)
					(number "22"
						(effects
							(font
								(size 1.27 1.27)
							)
						)
					)
				)
				(pin output line
					(at 12.7 10.16 180)
					(length 2.54)
					(name "~{DTR}"
						(effects
							(font
								(size 1.27 1.27)
							)
						)
					)
					(number "23"
						(effects
							(font
								(size 1.27 1.27)
							)
						)
					)
				)
				(pin input line
					(at 12.7 7.62 180)
					(length 2.54)
					(name "~{DCD}"
						(effects
							(font
								(size 1.27 1.27)
							)
						)
					)
					(number "24"
						(effects
							(font
								(size 1.27 1.27)
							)
						)
					)
				)
				(pin passive line
					(at 0 -27.94 90)
					(length 2.54) hide
					(name "GND"
						(effects
							(font
								(size 1.27 1.27)
							)
						)
					)
					(number "25"
						(effects
							(font
								(size 1.27 1.27)
							)
						)
					)
				)
				(pin bidirectional line
					(at -12.7 5.08 0)
					(length 2.54)
					(name "D+"
						(effects
							(font
								(size 1.27 1.27)
							)
						)
					)
					(number "3"
						(effects
							(font
								(size 1.27 1.27)
							)
						)
					)
				)
				(pin bidirectional line
					(at -12.7 7.62 0)
					(length 2.54)
					(name "D-"
						(effects
							(font
								(size 1.27 1.27)
							)
						)
					)
					(number "4"
						(effects
							(font
								(size 1.27 1.27)
							)
						)
					)
				)
				(pin power_in line
					(at 2.54 27.94 270)
					(length 2.54)
					(name "VIO"
						(effects
							(font
								(size 1.27 1.27)
							)
						)
					)
					(number "5"
						(effects
							(font
								(size 1.27 1.27)
							)
						)
					)
				)
				(pin power_in line
					(at 0 27.94 270)
					(length 2.54)
					(name "VDD"
						(effects
							(font
								(size 1.27 1.27)
							)
						)
					)
					(number "6"
						(effects
							(font
								(size 1.27 1.27)
							)
						)
					)
				)
				(pin power_in line
					(at -2.54 27.94 270)
					(length 2.54)
					(name "VREGIN"
						(effects
							(font
								(size 1.27 1.27)
							)
						)
					)
					(number "7"
						(effects
							(font
								(size 1.27 1.27)
							)
						)
					)
				)
				(pin input line
					(at -12.7 10.16 0)
					(length 2.54)
					(name "VBUS"
						(effects
							(font
								(size 1.27 1.27)
							)
						)
					)
					(number "8"
						(effects
							(font
								(size 1.27 1.27)
							)
						)
					)
				)
				(pin input line
					(at -12.7 22.86 0)
					(length 2.54)
					(name "~{RST}"
						(effects
							(font
								(size 1.27 1.27)
							)
						)
					)
					(number "9"
						(effects
							(font
								(size 1.27 1.27)
							)
						)
					)
				)
			)
		)
		(symbol "Power_Protection:SP0503BAHT"
			(pin_names hide)
			(exclude_from_sim no)
			(in_bom yes)
			(on_board yes)
			(property "Reference" "D"
				(at 5.715 2.54 0)
				(effects
					(font
						(size 1.27 1.27)
					)
					(justify left)
				)
			)
			(property "Value" "SP0503BAHT"
				(at 5.715 0.635 0)
				(effects
					(font
						(size 1.27 1.27)
					)
					(justify left)
				)
			)
			(property "Footprint" "Package_TO_SOT_SMD:SOT-143"
				(at 5.715 -1.27 0)
				(effects
					(font
						(size 1.27 1.27)
					)
					(justify left)
					(hide yes)
				)
			)
			(property "Datasheet" "http://www.littelfuse.com/~/media/files/littelfuse/technical%20resources/documents/data%20sheets/sp05xxba.pdf"
				(at 3.175 3.175 0)
				(effects
					(font
						(size 1.27 1.27)
					)
					(hide yes)
				)
			)
			(property "Description" "TVS Diode Array, 5.5V Standoff, 3 Channels, SOT-143 package"
				(at 0 0 0)
				(effects
					(font
						(size 1.27 1.27)
					)
					(hide yes)
				)
			)
			(property "ki_keywords" "usb esd protection suppression transient"
				(at 0 0 0)
				(effects
					(font
						(size 1.27 1.27)
					)
					(hide yes)
				)
			)
			(property "ki_fp_filters" "SOT?143*"
				(at 0 0 0)
				(effects
					(font
						(size 1.27 1.27)
					)
					(hide yes)
				)
			)
			(symbol "SP0503BAHT_0_0"
				(pin passive line
					(at 0 -5.08 90)
					(length 2.54)
					(name "A"
						(effects
							(font
								(size 1.27 1.27)
							)
						)
					)
					(number "1"
						(effects
							(font
								(size 1.27 1.27)
							)
						)
					)
				)
			)
			(symbol "SP0503BAHT_0_1"
				(rectangle
					(start -4.445 2.54)
					(end 4.445 -2.54)
					(stroke
						(width 0.254)
						(type default)
					)
					(fill
						(type background)
					)
				)
				(circle
					(center 0 -1.27)
					(radius 0.254)
					(stroke
						(width 0)
						(type default)
					)
					(fill
						(type outline)
					)
				)
				(polyline
					(pts
						(xy -2.54 2.54) (xy -2.54 1.27)
					)
					(stroke
						(width 0)
						(type default)
					)
					(fill
						(type none)
					)
				)
				(polyline
					(pts
						(xy 0 -1.27) (xy 0 -2.54)
					)
					(stroke
						(width 0)
						(type default)
					)
					(fill
						(type none)
					)
				)
				(polyline
					(pts
						(xy 0 -1.27) (xy 0 1.27)
					)
					(stroke
						(width 0)
						(type default)
					)
					(fill
						(type none)
					)
				)
				(polyline
					(pts
						(xy 0 2.54) (xy 0 1.27)
					)
					(stroke
						(width 0)
						(type default)
					)
					(fill
						(type none)
					)
				)
				(polyline
					(pts
						(xy 0.635 1.27) (xy 0.762 1.27)
					)
					(stroke
						(width 0)
						(type default)
					)
					(fill
						(type none)
					)
				)
				(polyline
					(pts
						(xy 2.54 2.54) (xy 2.54 1.27)
					)
					(stroke
						(width 0)
						(type default)
					)
					(fill
						(type none)
					)
				)
				(polyline
					(pts
						(xy 0.635 1.27) (xy -0.762 1.27) (xy -0.762 1.016)
					)
					(stroke
						(width 0)
						(type default)
					)
					(fill
						(type none)
					)
				)
				(polyline
					(pts
						(xy -3.302 1.016) (xy -3.302 1.27) (xy -1.905 1.27) (xy -1.778 1.27)
					)
					(stroke
						(width 0)
						(type default)
					)
					(fill
						(type none)
					)
				)
				(polyline
					(pts
						(xy -2.54 1.27) (xy -2.54 -1.27) (xy 2.54 -1.27) (xy 2.54 1.27)
					)
					(stroke
						(width 0)
						(type default)
					)
					(fill
						(type none)
					)
				)
				(polyline
					(pts
						(xy -2.54 1.27) (xy -1.905 0) (xy -3.175 0) (xy -2.54 1.27)
					)
					(stroke
						(width 0)
						(type default)
					)
					(fill
						(type none)
					)
				)
				(polyline
					(pts
						(xy 0.635 0) (xy -0.635 0) (xy 0 1.27) (xy 0.635 0)
					)
					(stroke
						(width 0)
						(type default)
					)
					(fill
						(type none)
					)
				)
				(polyline
					(pts
						(xy 1.778 1.016) (xy 1.778 1.27) (xy 3.175 1.27) (xy 3.302 1.27)
					)
					(stroke
						(width 0)
						(type default)
					)
					(fill
						(type none)
					)
				)
				(polyline
					(pts
						(xy 2.54 1.27) (xy 1.905 0) (xy 3.175 0) (xy 2.54 1.27)
					)
					(stroke
						(width 0)
						(type default)
					)
					(fill
						(type none)
					)
				)
			)
			(symbol "SP0503BAHT_1_1"
				(pin passive line
					(at -2.54 5.08 270)
					(length 2.54)
					(name "K"
						(effects
							(font
								(size 1.27 1.27)
							)
						)
					)
					(number "2"
						(effects
							(font
								(size 1.27 1.27)
							)
						)
					)
				)
				(pin passive line
					(at 0 5.08 270)
					(length 2.54)
					(name "K"
						(effects
							(font
								(size 1.27 1.27)
							)
						)
					)
					(number "3"
						(effects
							(font
								(size 1.27 1.27)
							)
						)
					)
				)
				(pin passive line
					(at 2.54 5.08 270)
					(length 2.54)
					(name "K"
						(effects
							(font
								(size 1.27 1.27)
							)
						)
					)
					(number "4"
						(effects
							(font
								(size 1.27 1.27)
							)
						)
					)
				)
			)
		)
		(symbol "Transistor_BJT:BC817"
			(pin_names
				(offset 0) hide)
			(exclude_from_sim no)
			(in_bom yes)
			(on_board yes)
			(property "Reference" "Q"
				(at 5.08 1.905 0)
				(effects
					(font
						(size 1.27 1.27)
					)
					(justify left)
				)
			)
			(property "Value" "BC817"
				(at 5.08 0 0)
				(effects
					(font
						(size 1.27 1.27)
					)
					(justify left)
				)
			)
			(property "Footprint" "Package_TO_SOT_SMD:SOT-23"
				(at 5.08 -1.905 0)
				(effects
					(font
						(size 1.27 1.27)
						(italic yes)
					)
					(justify left)
					(hide yes)
				)
			)
			(property "Datasheet" "https://www.onsemi.com/pub/Collateral/BC818-D.pdf"
				(at 0 0 0)
				(effects
					(font
						(size 1.27 1.27)
					)
					(justify left)
					(hide yes)
				)
			)
			(property "Description" "0.8A Ic, 45V Vce, NPN Transistor, SOT-23"
				(at 0 0 0)
				(effects
					(font
						(size 1.27 1.27)
					)
					(hide yes)
				)
			)
			(property "ki_keywords" "NPN Transistor"
				(at 0 0 0)
				(effects
					(font
						(size 1.27 1.27)
					)
					(hide yes)
				)
			)
			(property "ki_fp_filters" "SOT?23*"
				(at 0 0 0)
				(effects
					(font
						(size 1.27 1.27)
					)
					(hide yes)
				)
			)
			(symbol "BC817_0_1"
				(polyline
					(pts
						(xy 0.635 0.635) (xy 2.54 2.54)
					)
					(stroke
						(width 0)
						(type default)
					)
					(fill
						(type none)
					)
				)
				(polyline
					(pts
						(xy 0.635 -0.635) (xy 2.54 -2.54) (xy 2.54 -2.54)
					)
					(stroke
						(width 0)
						(type default)
					)
					(fill
						(type none)
					)
				)
				(polyline
					(pts
						(xy 0.635 1.905) (xy 0.635 -1.905) (xy 0.635 -1.905)
					)
					(stroke
						(width 0.508)
						(type default)
					)
					(fill
						(type none)
					)
				)
				(polyline
					(pts
						(xy 1.27 -1.778) (xy 1.778 -1.27) (xy 2.286 -2.286) (xy 1.27 -1.778) (xy 1.27 -1.778)
					)
					(stroke
						(width 0)
						(type default)
					)
					(fill
						(type outline)
					)
				)
				(circle
					(center 1.27 0)
					(radius 2.8194)
					(stroke
						(width 0.254)
						(type default)
					)
					(fill
						(type none)
					)
				)
			)
			(symbol "BC817_1_1"
				(pin input line
					(at -5.08 0 0)
					(length 5.715)
					(name "B"
						(effects
							(font
								(size 1.27 1.27)
							)
						)
					)
					(number "1"
						(effects
							(font
								(size 1.27 1.27)
							)
						)
					)
				)
				(pin passive line
					(at 2.54 -5.08 90)
					(length 2.54)
					(name "E"
						(effects
							(font
								(size 1.27 1.27)
							)
						)
					)
					(number "2"
						(effects
							(font
								(size 1.27 1.27)
							)
						)
					)
				)
				(pin passive line
					(at 2.54 5.08 270)
					(length 2.54)
					(name "C"
						(effects
							(font
								(size 1.27 1.27)
							)
						)
					)
					(number "3"
						(effects
							(font
								(size 1.27 1.27)
							)
						)
					)
				)
			)
		)
		(symbol "power:+3.3V"
			(power)
			(pin_numbers hide)
			(pin_names
				(offset 0) hide)
			(exclude_from_sim no)
			(in_bom yes)
			(on_board yes)
			(property "Reference" "#PWR"
				(at 0 -3.81 0)
				(effects
					(font
						(size 1.27 1.27)
					)
					(hide yes)
				)
			)
			(property "Value" "+3.3V"
				(at 0 3.556 0)
				(effects
					(font
						(size 1.27 1.27)
					)
				)
			)
			(property "Footprint" ""
				(at 0 0 0)
				(effects
					(font
						(size 1.27 1.27)
					)
					(hide yes)
				)
			)
			(property "Datasheet" ""
				(at 0 0 0)
				(effects
					(font
						(size 1.27 1.27)
					)
					(hide yes)
				)
			)
			(property "Description" "Power symbol creates a global label with name \"+3.3V\""
				(at 0 0 0)
				(effects
					(font
						(size 1.27 1.27)
					)
					(hide yes)
				)
			)
			(property "ki_keywords" "global power"
				(at 0 0 0)
				(effects
					(font
						(size 1.27 1.27)
					)
					(hide yes)
				)
			)
			(symbol "+3.3V_0_1"
				(polyline
					(pts
						(xy -0.762 1.27) (xy 0 2.54)
					)
					(stroke
						(width 0)
						(type default)
					)
					(fill
						(type none)
					)
				)
				(polyline
					(pts
						(xy 0 0) (xy 0 2.54)
					)
					(stroke
						(width 0)
						(type default)
					)
					(fill
						(type none)
					)
				)
				(polyline
					(pts
						(xy 0 2.54) (xy 0.762 1.27)
					)
					(stroke
						(width 0)
						(type default)
					)
					(fill
						(type none)
					)
				)
			)
			(symbol "+3.3V_1_1"
				(pin power_in line
					(at 0 0 90)
					(length 0)
					(name "~"
						(effects
							(font
								(size 1.27 1.27)
							)
						)
					)
					(number "1"
						(effects
							(font
								(size 1.27 1.27)
							)
						)
					)
				)
			)
		)
		(symbol "power:+5V"
			(power)
			(pin_numbers hide)
			(pin_names
				(offset 0) hide)
			(exclude_from_sim no)
			(in_bom yes)
			(on_board yes)
			(property "Reference" "#PWR"
				(at 0 -3.81 0)
				(effects
					(font
						(size 1.27 1.27)
					)
					(hide yes)
				)
			)
			(property "Value" "+5V"
				(at 0 3.556 0)
				(effects
					(font
						(size 1.27 1.27)
					)
				)
			)
			(property "Footprint" ""
				(at 0 0 0)
				(effects
					(font
						(size 1.27 1.27)
					)
					(hide yes)
				)
			)
			(property "Datasheet" ""
				(at 0 0 0)
				(effects
					(font
						(size 1.27 1.27)
					)
					(hide yes)
				)
			)
			(property "Description" "Power symbol creates a global label with name \"+5V\""
				(at 0 0 0)
				(effects
					(font
						(size 1.27 1.27)
					)
					(hide yes)
				)
			)
			(property "ki_keywords" "global power"
				(at 0 0 0)
				(effects
					(font
						(size 1.27 1.27)
					)
					(hide yes)
				)
			)
			(symbol "+5V_0_1"
				(polyline
					(pts
						(xy -0.762 1.27) (xy 0 2.54)
					)
					(stroke
						(width 0)
						(type default)
					)
					(fill
						(type none)
					)
				)
				(polyline
					(pts
						(xy 0 0) (xy 0 2.54)
					)
					(stroke
						(width 0)
						(type default)
					)
					(fill
						(type none)
					)
				)
				(polyline
					(pts
						(xy 0 2.54) (xy 0.762 1.27)
					)
					(stroke
						(width 0)
						(type default)
					)
					(fill
						(type none)
					)
				)
			)
			(symbol "+5V_1_1"
				(pin power_in line
					(at 0 0 90)
					(length 0)
					(name "~"
						(effects
							(font
								(size 1.27 1.27)
							)
						)
					)
					(number "1"
						(effects
							(font
								(size 1.27 1.27)
							)
						)
					)
				)
			)
		)
		(symbol "power:GNDD"
			(power)
			(pin_numbers hide)
			(pin_names
				(offset 0) hide)
			(exclude_from_sim no)
			(in_bom yes)
			(on_board yes)
			(property "Reference" "#PWR"
				(at 0 -6.35 0)
				(effects
					(font
						(size 1.27 1.27)
					)
					(hide yes)
				)
			)
			(property "Value" "GNDD"
				(at 0 -3.175 0)
				(effects
					(font
						(size 1.27 1.27)
					)
				)
			)
			(property "Footprint" ""
				(at 0 0 0)
				(effects
					(font
						(size 1.27 1.27)
					)
					(hide yes)
				)
			)
			(property "Datasheet" ""
				(at 0 0 0)
				(effects
					(font
						(size 1.27 1.27)
					)
					(hide yes)
				)
			)
			(property "Description" "Power symbol creates a global label with name \"GNDD\" , digital ground"
				(at 0 0 0)
				(effects
					(font
						(size 1.27 1.27)
					)
					(hide yes)
				)
			)
			(property "ki_keywords" "global power"
				(at 0 0 0)
				(effects
					(font
						(size 1.27 1.27)
					)
					(hide yes)
				)
			)
			(symbol "GNDD_0_1"
				(rectangle
					(start -1.27 -1.524)
					(end 1.27 -2.032)
					(stroke
						(width 0.254)
						(type default)
					)
					(fill
						(type outline)
					)
				)
				(polyline
					(pts
						(xy 0 0) (xy 0 -1.524)
					)
					(stroke
						(width 0)
						(type default)
					)
					(fill
						(type none)
					)
				)
			)
			(symbol "GNDD_1_1"
				(pin power_in line
					(at 0 0 270)
					(length 0)
					(name "~"
						(effects
							(font
								(size 1.27 1.27)
							)
						)
					)
					(number "1"
						(effects
							(font
								(size 1.27 1.27)
							)
						)
					)
				)
			)
		)
		(symbol "power:VDD"
			(power)
			(pin_numbers hide)
			(pin_names
				(offset 0) hide)
			(exclude_from_sim no)
			(in_bom yes)
			(on_board yes)
			(property "Reference" "#PWR"
				(at 0 -3.81 0)
				(effects
					(font
						(size 1.27 1.27)
					)
					(hide yes)
				)
			)
			(property "Value" "VDD"
				(at 0 3.556 0)
				(effects
					(font
						(size 1.27 1.27)
					)
				)
			)
			(property "Footprint" ""
				(at 0 0 0)
				(effects
					(font
						(size 1.27 1.27)
					)
					(hide yes)
				)
			)
			(property "Datasheet" ""
				(at 0 0 0)
				(effects
					(font
						(size 1.27 1.27)
					)
					(hide yes)
				)
			)
			(property "Description" "Power symbol creates a global label with name \"VDD\""
				(at 0 0 0)
				(effects
					(font
						(size 1.27 1.27)
					)
					(hide yes)
				)
			)
			(property "ki_keywords" "global power"
				(at 0 0 0)
				(effects
					(font
						(size 1.27 1.27)
					)
					(hide yes)
				)
			)
			(symbol "VDD_0_1"
				(polyline
					(pts
						(xy -0.762 1.27) (xy 0 2.54)
					)
					(stroke
						(width 0)
						(type default)
					)
					(fill
						(type none)
					)
				)
				(polyline
					(pts
						(xy 0 0) (xy 0 2.54)
					)
					(stroke
						(width 0)
						(type default)
					)
					(fill
						(type none)
					)
				)
				(polyline
					(pts
						(xy 0 2.54) (xy 0.762 1.27)
					)
					(stroke
						(width 0)
						(type default)
					)
					(fill
						(type none)
					)
				)
			)
			(symbol "VDD_1_1"
				(pin power_in line
					(at 0 0 90)
					(length 0)
					(name "~"
						(effects
							(font
								(size 1.27 1.27)
							)
						)
					)
					(number "1"
						(effects
							(font
								(size 1.27 1.27)
							)
						)
					)
				)
			)
		)
	)
	(junction
		(at 237.49 90.17)
		(diameter 0)
		(color 0 0 0 0)
		(uuid "0542e6bd-9f99-4462-afd4-e8584fc9782e")
	)
	(junction
		(at 76.2 63.5)
		(diameter 0)
		(color 0 0 0 0)
		(uuid "2ef08014-ade2-4f09-a7aa-acc2c39a0c03")
	)
	(junction
		(at 222.25 85.09)
		(diameter 0)
		(color 0 0 0 0)
		(uuid "359d290d-6a77-418b-9d99-c39078b3abf5")
	)
	(junction
		(at 76.2 77.47)
		(diameter 0)
		(color 0 0 0 0)
		(uuid "5328777e-742b-4724-ac9a-ccc6ef05f5d9")
	)
	(junction
		(at 229.87 63.5)
		(diameter 0)
		(color 0 0 0 0)
		(uuid "60fadf46-0f92-4493-ab4f-ddda6e78cf00")
	)
	(junction
		(at 76.2 82.55)
		(diameter 0)
		(color 0 0 0 0)
		(uuid "7583b5f0-4ac1-4796-9d72-ea78c9c3a3d8")
	)
	(junction
		(at 200.66 91.44)
		(diameter 0)
		(color 0 0 0 0)
		(uuid "7672f40a-491c-4e90-84ac-8bc61be0fe28")
	)
	(junction
		(at 76.2 76.2)
		(diameter 0)
		(color 0 0 0 0)
		(uuid "962aea07-bf86-4a5e-8c4c-d53d0429acef")
	)
	(junction
		(at 86.36 69.85)
		(diameter 0)
		(color 0 0 0 0)
		(uuid "9c38c868-2487-43c3-b504-51041424232c")
	)
	(junction
		(at 76.2 83.82)
		(diameter 0)
		(color 0 0 0 0)
		(uuid "b6a9033e-b452-4bef-8214-67aea267f9b9")
	)
	(junction
		(at 100.33 76.2)
		(diameter 0)
		(color 0 0 0 0)
		(uuid "f32eb81e-b24a-4f20-bdff-266a1eafd320")
	)
	(junction
		(at 207.01 104.14)
		(diameter 0)
		(color 0 0 0 0)
		(uuid "f3660c83-aac6-403d-a138-d8717ca1c80e")
	)
	(junction
		(at 49.53 113.03)
		(diameter 0)
		(color 0 0 0 0)
		(uuid "fb7d3936-7491-47c3-9ff0-c2a55a22e051")
	)
	(no_connect
		(at 158.75 93.98)
		(uuid "4b355cc6-95cf-48c7-a6f7-5c62639c8787")
	)
	(no_connect
		(at 158.75 71.12)
		(uuid "83c2a200-375e-47a1-be1c-6ae69c2e472d")
	)
	(no_connect
		(at 158.75 96.52)
		(uuid "91fb881d-f0fd-484f-8229-1592b2bc5d88")
	)
	(no_connect
		(at 158.75 86.36)
		(uuid "99f2bcef-6d25-42c2-bd04-f6d60bf64534")
	)
	(no_connect
		(at 158.75 78.74)
		(uuid "a441cfb3-d388-44f0-895d-1aef4ac34b2a")
	)
	(no_connect
		(at 148.59 58.42)
		(uuid "a907a1b0-3e77-44b2-9fa9-1fe4d84d8e5f")
	)
	(no_connect
		(at 158.75 81.28)
		(uuid "c9a3b9ae-e08f-4326-8814-9454a481ce67")
	)
	(no_connect
		(at 158.75 99.06)
		(uuid "cba53112-1943-4d5f-9950-5ea2926c40ff")
	)
	(no_connect
		(at 158.75 101.6)
		(uuid "ee6a119c-bb8f-4de2-9190-f1fbe6165a87")
	)
	(no_connect
		(at 158.75 73.66)
		(uuid "f3c48434-e843-43f4-94d1-8f74564c9812")
	)
	(wire
		(pts
			(xy 68.58 63.5) (xy 76.2 63.5)
		)
		(stroke
			(width 0)
			(type default)
		)
		(uuid "03daa4ba-cc22-4720-a00d-d970aad47607")
	)
	(wire
		(pts
			(xy 229.87 59.69) (xy 229.87 63.5)
		)
		(stroke
			(width 0)
			(type default)
		)
		(uuid "03fd2fd2-e659-493a-a16a-01ea27edbcb9")
	)
	(wire
		(pts
			(xy 76.2 77.47) (xy 76.2 78.74)
		)
		(stroke
			(width 0)
			(type default)
		)
		(uuid "079d4bd1-181b-46bf-99d5-f0d26cb2c911")
	)
	(wire
		(pts
			(xy 85.09 83.82) (xy 85.09 77.47)
		)
		(stroke
			(width 0)
			(type default)
		)
		(uuid "0cfd495a-841b-49f8-9139-b21553f3839d")
	)
	(wire
		(pts
			(xy 129.54 78.74) (xy 133.35 78.74)
		)
		(stroke
			(width 0)
			(type default)
		)
		(uuid "0d295540-dd66-4f7f-9ad7-c5d3c7064e8a")
	)
	(wire
		(pts
			(xy 198.12 104.14) (xy 207.01 104.14)
		)
		(stroke
			(width 0)
			(type default)
		)
		(uuid "0e24a2ca-093a-471b-bfc1-39eb217c889c")
	)
	(wire
		(pts
			(xy 53.34 101.6) (xy 53.34 113.03)
		)
		(stroke
			(width 0)
			(type default)
		)
		(uuid "12da97e0-2387-4813-98b4-091ba33ba8af")
	)
	(wire
		(pts
			(xy 45.72 113.03) (xy 49.53 113.03)
		)
		(stroke
			(width 0)
			(type default)
		)
		(uuid "12fb78fb-8379-4d52-95d4-4019134b6fa9")
	)
	(wire
		(pts
			(xy 223.52 104.14) (xy 229.87 104.14)
		)
		(stroke
			(width 0)
			(type default)
		)
		(uuid "13a8f6c4-b547-4f1a-896e-d5fc25749233")
	)
	(wire
		(pts
			(xy 95.25 63.5) (xy 88.9 63.5)
		)
		(stroke
			(width 0)
			(type default)
		)
		(uuid "145528a3-3d0d-4d2d-b528-909e318269b6")
	)
	(wire
		(pts
			(xy 76.2 76.2) (xy 76.2 77.47)
		)
		(stroke
			(width 0)
			(type default)
		)
		(uuid "181dcdbb-f664-4b72-bef5-e0642d44f02d")
	)
	(wire
		(pts
			(xy 143.51 53.34) (xy 143.51 58.42)
		)
		(stroke
			(width 0)
			(type default)
		)
		(uuid "19f0b17b-9e38-492f-86ea-ad45e29f3db6")
	)
	(wire
		(pts
			(xy 100.33 76.2) (xy 100.33 55.88)
		)
		(stroke
			(width 0)
			(type default)
		)
		(uuid "1a4a7c06-c3e3-45ce-8695-232bbef7bab2")
	)
	(wire
		(pts
			(xy 237.49 113.03) (xy 200.66 113.03)
		)
		(stroke
			(width 0)
			(type default)
		)
		(uuid "1e3aff5f-225f-4e48-bef9-52e97103a48f")
	)
	(wire
		(pts
			(xy 85.09 77.47) (xy 76.2 77.47)
		)
		(stroke
			(width 0)
			(type default)
		)
		(uuid "256bde4c-dde8-4eed-b577-1be0becee293")
	)
	(wire
		(pts
			(xy 68.58 76.2) (xy 76.2 76.2)
		)
		(stroke
			(width 0)
			(type default)
		)
		(uuid "2b9606f3-d702-4e0c-8a63-97ea1e562eca")
	)
	(wire
		(pts
			(xy 129.54 81.28) (xy 133.35 81.28)
		)
		(stroke
			(width 0)
			(type default)
		)
		(uuid "310425f0-f49c-4c54-8f8b-29133f2938ea")
	)
	(wire
		(pts
			(xy 207.01 104.14) (xy 215.9 104.14)
		)
		(stroke
			(width 0)
			(type default)
		)
		(uuid "32d5d2de-93e6-4ae6-90ea-229d8fa935e3")
	)
	(wire
		(pts
			(xy 76.2 82.55) (xy 76.2 83.82)
		)
		(stroke
			(width 0)
			(type default)
		)
		(uuid "33455fb0-42fa-4417-91fa-274a1fc5b613")
	)
	(wire
		(pts
			(xy 100.33 76.2) (xy 133.35 76.2)
		)
		(stroke
			(width 0)
			(type default)
		)
		(uuid "342b3fcb-55b7-419e-94c0-686c6809f6c8")
	)
	(wire
		(pts
			(xy 82.55 82.55) (xy 76.2 82.55)
		)
		(stroke
			(width 0)
			(type default)
		)
		(uuid "351277d9-44fc-4104-821f-334be1913b60")
	)
	(wire
		(pts
			(xy 45.72 101.6) (xy 45.72 113.03)
		)
		(stroke
			(width 0)
			(type default)
		)
		(uuid "35435c8a-73a6-4cb5-a2a5-2f9cd1986b30")
	)
	(wire
		(pts
			(xy 222.25 80.01) (xy 222.25 85.09)
		)
		(stroke
			(width 0)
			(type default)
		)
		(uuid "36047201-00b0-44e4-be11-9b2691e806b2")
	)
	(wire
		(pts
			(xy 68.58 68.58) (xy 73.66 68.58)
		)
		(stroke
			(width 0)
			(type default)
		)
		(uuid "36fe53af-e917-437f-9b89-b77683e36e1e")
	)
	(wire
		(pts
			(xy 222.25 99.06) (xy 207.01 99.06)
		)
		(stroke
			(width 0)
			(type default)
		)
		(uuid "38173c77-e304-4cf6-ae81-023cf2eb7272")
	)
	(wire
		(pts
			(xy 237.49 63.5) (xy 237.49 72.39)
		)
		(stroke
			(width 0)
			(type default)
		)
		(uuid "39127d84-e7ff-4b4f-aa1a-b5609e8dd14f")
	)
	(wire
		(pts
			(xy 222.25 63.5) (xy 229.87 63.5)
		)
		(stroke
			(width 0)
			(type default)
		)
		(uuid "3bb8a6c1-b0f0-450e-b6f8-fef5510656d4")
	)
	(wire
		(pts
			(xy 129.54 52.07) (xy 129.54 55.88)
		)
		(stroke
			(width 0)
			(type default)
		)
		(uuid "3d579746-1bbd-468d-94e2-d8c64ebfc0ec")
	)
	(wire
		(pts
			(xy 74.93 73.66) (xy 76.2 73.66)
		)
		(stroke
			(width 0)
			(type default)
		)
		(uuid "3d6c06e1-b7cb-4c62-b9b9-c18f0d706244")
	)
	(wire
		(pts
			(xy 158.75 66.04) (xy 167.64 66.04)
		)
		(stroke
			(width 0)
			(type default)
		)
		(uuid "40b2744f-3e26-403a-bb3b-a89580bfcb1f")
	)
	(wire
		(pts
			(xy 49.53 113.03) (xy 53.34 113.03)
		)
		(stroke
			(width 0)
			(type default)
		)
		(uuid "4ee8ee43-58b3-47da-a349-03523126df8f")
	)
	(wire
		(pts
			(xy 237.49 109.22) (xy 237.49 113.03)
		)
		(stroke
			(width 0)
			(type default)
		)
		(uuid "505e9680-7234-4451-b0ce-a993ab614938")
	)
	(wire
		(pts
			(xy 200.66 91.44) (xy 203.2 91.44)
		)
		(stroke
			(width 0)
			(type default)
		)
		(uuid "53539c2d-710d-40e2-9a56-82007179606b")
	)
	(wire
		(pts
			(xy 82.55 83.82) (xy 82.55 82.55)
		)
		(stroke
			(width 0)
			(type default)
		)
		(uuid "55b737cc-305f-434d-93d5-b69356c5358e")
	)
	(wire
		(pts
			(xy 171.45 88.9) (xy 175.26 88.9)
		)
		(stroke
			(width 0)
			(type default)
		)
		(uuid "5a94ec8a-8a9f-484b-8aab-3bd7c9ff2e71")
	)
	(wire
		(pts
			(xy 76.2 73.66) (xy 76.2 76.2)
		)
		(stroke
			(width 0)
			(type default)
		)
		(uuid "5e4266df-b9c2-4e8e-acf9-c327fc9d54ce")
	)
	(wire
		(pts
			(xy 76.2 83.82) (xy 76.2 87.63)
		)
		(stroke
			(width 0)
			(type default)
		)
		(uuid "6212dec5-f167-4609-9e64-091799e440e0")
	)
	(wire
		(pts
			(xy 86.36 68.58) (xy 86.36 69.85)
		)
		(stroke
			(width 0)
			(type default)
		)
		(uuid "6367e61d-ddff-4237-91e5-0a2d618bb6e5")
	)
	(wire
		(pts
			(xy 210.82 91.44) (xy 214.63 91.44)
		)
		(stroke
			(width 0)
			(type default)
		)
		(uuid "63aa9a6d-953f-4e89-82a8-837c523ed478")
	)
	(wire
		(pts
			(xy 222.25 63.5) (xy 222.25 72.39)
		)
		(stroke
			(width 0)
			(type default)
		)
		(uuid "70fc705a-7481-4d8b-916e-846bef4d4229")
	)
	(wire
		(pts
			(xy 129.54 63.5) (xy 133.35 63.5)
		)
		(stroke
			(width 0)
			(type default)
		)
		(uuid "73bc6fe2-ebd2-4e66-9a4d-580b6cc5f7fb")
	)
	(wire
		(pts
			(xy 207.01 99.06) (xy 207.01 104.14)
		)
		(stroke
			(width 0)
			(type default)
		)
		(uuid "741a83e5-a682-4347-a05c-46444f7642e9")
	)
	(wire
		(pts
			(xy 81.28 68.58) (xy 86.36 68.58)
		)
		(stroke
			(width 0)
			(type default)
		)
		(uuid "770744ec-cdfd-4a8c-92e8-5fb49e070f45")
	)
	(wire
		(pts
			(xy 68.58 81.28) (xy 76.2 81.28)
		)
		(stroke
			(width 0)
			(type default)
		)
		(uuid "8056e2b4-07fb-4762-98f2-4f5e21e1e621")
	)
	(wire
		(pts
			(xy 237.49 80.01) (xy 237.49 90.17)
		)
		(stroke
			(width 0)
			(type default)
		)
		(uuid "8071d8ad-df67-4473-a775-de50ea5090ed")
	)
	(wire
		(pts
			(xy 100.33 83.82) (xy 87.63 83.82)
		)
		(stroke
			(width 0)
			(type default)
		)
		(uuid "8181f6a7-2354-489d-9c77-4a40b1cf0672")
	)
	(wire
		(pts
			(xy 158.75 68.58) (xy 167.64 68.58)
		)
		(stroke
			(width 0)
			(type default)
		)
		(uuid "8902e8ce-5cb2-43ab-aad9-e7499ab80158")
	)
	(wire
		(pts
			(xy 229.87 63.5) (xy 237.49 63.5)
		)
		(stroke
			(width 0)
			(type default)
		)
		(uuid "8d51c94c-255a-4716-bc2d-1152ede0e41d")
	)
	(wire
		(pts
			(xy 158.75 76.2) (xy 167.64 76.2)
		)
		(stroke
			(width 0)
			(type default)
		)
		(uuid "91d9eecd-8d98-430b-a0df-7560b1c6998a")
	)
	(wire
		(pts
			(xy 76.2 81.28) (xy 76.2 82.55)
		)
		(stroke
			(width 0)
			(type default)
		)
		(uuid "92a2737b-53cc-4c14-acff-621701735e42")
	)
	(wire
		(pts
			(xy 76.2 63.5) (xy 81.28 63.5)
		)
		(stroke
			(width 0)
			(type default)
		)
		(uuid "9a7c2a41-d973-4343-ae08-86377685711c")
	)
	(wire
		(pts
			(xy 68.58 71.12) (xy 73.66 71.12)
		)
		(stroke
			(width 0)
			(type default)
		)
		(uuid "9b67fd75-3084-47b0-9f42-0c87c8c580a3")
	)
	(wire
		(pts
			(xy 237.49 90.17) (xy 242.57 90.17)
		)
		(stroke
			(width 0)
			(type default)
		)
		(uuid "a0191639-887a-4d2b-bc9d-69700b124224")
	)
	(wire
		(pts
			(xy 222.25 96.52) (xy 222.25 99.06)
		)
		(stroke
			(width 0)
			(type default)
		)
		(uuid "a0c877ef-01b9-4274-be20-e5bf0daed180")
	)
	(wire
		(pts
			(xy 85.09 93.98) (xy 85.09 99.06)
		)
		(stroke
			(width 0)
			(type default)
		)
		(uuid "abf1483a-ec5d-4ab0-91e6-ab494d5bd9af")
	)
	(wire
		(pts
			(xy 95.25 57.15) (xy 95.25 63.5)
		)
		(stroke
			(width 0)
			(type default)
		)
		(uuid "ac3d263f-1a06-4f51-9181-e51d698225bc")
	)
	(wire
		(pts
			(xy 146.05 114.3) (xy 146.05 119.38)
		)
		(stroke
			(width 0)
			(type default)
		)
		(uuid "ae9ffd4d-82b2-46d2-a45b-ed5c374438a1")
	)
	(wire
		(pts
			(xy 74.93 87.63) (xy 76.2 87.63)
		)
		(stroke
			(width 0)
			(type default)
		)
		(uuid "aeb4d039-d170-4598-86c8-5fb7da4654fb")
	)
	(wire
		(pts
			(xy 76.2 83.82) (xy 68.58 83.82)
		)
		(stroke
			(width 0)
			(type default)
		)
		(uuid "b152c7d6-b2fa-4074-ab1c-c8a6db6bcc27")
	)
	(wire
		(pts
			(xy 158.75 63.5) (xy 167.64 63.5)
		)
		(stroke
			(width 0)
			(type default)
		)
		(uuid "bac9e852-5694-4102-b582-aebfa2123c26")
	)
	(wire
		(pts
			(xy 198.12 91.44) (xy 200.66 91.44)
		)
		(stroke
			(width 0)
			(type default)
		)
		(uuid "c18fe8f2-c4ee-4031-b3ba-abce718c6cfb")
	)
	(wire
		(pts
			(xy 76.2 78.74) (xy 68.58 78.74)
		)
		(stroke
			(width 0)
			(type default)
		)
		(uuid "c20a76b8-d866-47a1-ab9e-7f22c833f876")
	)
	(wire
		(pts
			(xy 222.25 85.09) (xy 242.57 85.09)
		)
		(stroke
			(width 0)
			(type default)
		)
		(uuid "c5312c03-6664-47ea-a505-35dad053590b")
	)
	(wire
		(pts
			(xy 81.28 71.12) (xy 86.36 71.12)
		)
		(stroke
			(width 0)
			(type default)
		)
		(uuid "d06c0727-46f0-441c-b67c-a0373d400645")
	)
	(wire
		(pts
			(xy 158.75 88.9) (xy 163.83 88.9)
		)
		(stroke
			(width 0)
			(type default)
		)
		(uuid "d204316d-3de5-4a1c-ae3f-3f0306c07268")
	)
	(wire
		(pts
			(xy 146.05 53.34) (xy 146.05 58.42)
		)
		(stroke
			(width 0)
			(type default)
		)
		(uuid "d432615a-ccd4-4791-83bc-74e77e7b64ec")
	)
	(wire
		(pts
			(xy 200.66 113.03) (xy 200.66 91.44)
		)
		(stroke
			(width 0)
			(type default)
		)
		(uuid "d4c959df-0abc-4796-a014-69dfd615609c")
	)
	(wire
		(pts
			(xy 100.33 83.82) (xy 100.33 76.2)
		)
		(stroke
			(width 0)
			(type default)
		)
		(uuid "e2d89330-23fa-48aa-83a0-d8ec66ac6af7")
	)
	(wire
		(pts
			(xy 86.36 71.12) (xy 86.36 69.85)
		)
		(stroke
			(width 0)
			(type default)
		)
		(uuid "ea4f6d89-99db-4780-b99e-46289a224f50")
	)
	(wire
		(pts
			(xy 237.49 90.17) (xy 237.49 99.06)
		)
		(stroke
			(width 0)
			(type default)
		)
		(uuid "ee913c7e-71dd-43dd-a9e8-8732c33a1ee5")
	)
	(wire
		(pts
			(xy 222.25 85.09) (xy 222.25 86.36)
		)
		(stroke
			(width 0)
			(type default)
		)
		(uuid "f5ed0e54-bc0e-462b-b3a7-12aa6d3d41ba")
	)
	(wire
		(pts
			(xy 76.2 55.88) (xy 76.2 63.5)
		)
		(stroke
			(width 0)
			(type default)
		)
		(uuid "fc61fb2f-6e2c-4ea4-a833-fea8120bab76")
	)
	(text_box "USB PROGRAMMING\nAUTO BOOT ESP32"
		(exclude_from_sim no)
		(at 30.48 38.1 0)
		(size 236.22 93.98)
		(stroke
			(width 0)
			(type dash)
		)
		(fill
			(type none)
		)
		(effects
			(font
				(size 1.27 1.27)
				(bold yes)
			)
			(justify left top)
		)
		(uuid "e98047fb-8607-4e40-a39e-826edb343ca5")
	)
	(global_label "UART_DTR"
		(shape input)
		(at 198.12 91.44 180)
		(fields_autoplaced yes)
		(effects
			(font
				(size 1.27 1.27)
			)
			(justify right)
		)
		(uuid "04959c22-2cb7-4e5b-a0b7-d74af8c1701c")
		(property "Intersheetrefs" "${INTERSHEET_REFS}"
			(at 186.0029 91.44 0)
			(effects
				(font
					(size 1.27 1.27)
				)
				(justify right)
				(hide yes)
			)
		)
	)
	(global_label "UART_RTS"
		(shape input)
		(at 198.12 104.14 180)
		(fields_autoplaced yes)
		(effects
			(font
				(size 1.27 1.27)
			)
			(justify right)
		)
		(uuid "282cc652-9363-4276-ad32-4fbfe4954b89")
		(property "Intersheetrefs" "${INTERSHEET_REFS}"
			(at 186.0634 104.14 0)
			(effects
				(font
					(size 1.27 1.27)
				)
				(justify right)
				(hide yes)
			)
		)
	)
	(global_label "UART_DTR"
		(shape input)
		(at 167.64 76.2 0)
		(fields_autoplaced yes)
		(effects
			(font
				(size 1.016 1.016)
			)
			(justify left)
		)
		(uuid "2a59b299-ea2b-4d0e-ba3c-6e2376851500")
		(property "Intersheetrefs" "${INTERSHEET_REFS}"
			(at 177.3335 76.2 0)
			(effects
				(font
					(size 1.27 1.27)
				)
				(justify left)
				(hide yes)
			)
		)
	)
	(global_label "VBUS"
		(shape input)
		(at 76.2 55.88 90)
		(fields_autoplaced yes)
		(effects
			(font
				(size 1.27 1.27)
				(bold yes)
			)
			(justify left)
		)
		(uuid "468d191d-8849-4397-b533-efa49678817b")
		(property "Intersheetrefs" "${INTERSHEET_REFS}"
			(at 76.2 47.5202 90)
			(effects
				(font
					(size 1.27 1.27)
				)
				(justify left)
				(hide yes)
			)
		)
	)
	(global_label "D+"
		(shape input)
		(at 129.54 81.28 180)
		(fields_autoplaced yes)
		(effects
			(font
				(size 1.016 1.016)
				(bold yes)
			)
			(justify right)
		)
		(uuid "58251b13-a0a8-4b76-ac0f-0dfe4acaf0d1")
		(property "Intersheetrefs" "${INTERSHEET_REFS}"
			(at 124.4972 81.28 0)
			(effects
				(font
					(size 1.27 1.27)
				)
				(justify right)
				(hide yes)
			)
		)
	)
	(global_label "D-"
		(shape input)
		(at 74.93 73.66 180)
		(fields_autoplaced yes)
		(effects
			(font
				(size 1.27 1.27)
				(bold yes)
			)
			(justify right)
		)
		(uuid "7e060fe1-f8e9-42c5-93b1-746e5a98ea39")
		(property "Intersheetrefs" "${INTERSHEET_REFS}"
			(at 68.6264 73.66 0)
			(effects
				(font
					(size 1.27 1.27)
				)
				(justify right)
				(hide yes)
			)
		)
	)
	(global_label "UART_RTS"
		(shape input)
		(at 167.64 68.58 0)
		(fields_autoplaced yes)
		(effects
			(font
				(size 1.016 1.016)
			)
			(justify left)
		)
		(uuid "8448b248-bdba-4dc4-a7b0-947f684d6852")
		(property "Intersheetrefs" "${INTERSHEET_REFS}"
			(at 177.2851 68.58 0)
			(effects
				(font
					(size 1.27 1.27)
				)
				(justify left)
				(hide yes)
			)
		)
	)
	(global_label "D+"
		(shape input)
		(at 74.93 87.63 180)
		(fields_autoplaced yes)
		(effects
			(font
				(size 1.27 1.27)
				(bold yes)
			)
			(justify right)
		)
		(uuid "b4f952a8-d77a-476e-b579-e5691115915e")
		(property "Intersheetrefs" "${INTERSHEET_REFS}"
			(at 68.6264 87.63 0)
			(effects
				(font
					(size 1.27 1.27)
				)
				(justify right)
				(hide yes)
			)
		)
	)
	(global_label "D-"
		(shape input)
		(at 129.54 78.74 180)
		(fields_autoplaced yes)
		(effects
			(font
				(size 1.016 1.016)
				(bold yes)
			)
			(justify right)
		)
		(uuid "cbfe0672-e04f-46de-b1c5-56d42e15a039")
		(property "Intersheetrefs" "${INTERSHEET_REFS}"
			(at 124.4972 78.74 0)
			(effects
				(font
					(size 1.27 1.27)
				)
				(justify right)
				(hide yes)
			)
		)
	)
	(global_label "VBUS"
		(shape input)
		(at 100.33 55.88 90)
		(fields_autoplaced yes)
		(effects
			(font
				(size 1.27 1.27)
				(bold yes)
			)
			(justify left)
		)
		(uuid "cd9aed2f-7bed-41e4-bae3-0b3c149ac021")
		(property "Intersheetrefs" "${INTERSHEET_REFS}"
			(at 100.33 47.5202 90)
			(effects
				(font
					(size 1.27 1.27)
				)
				(justify left)
				(hide yes)
			)
		)
	)
	(hierarchical_label "PWR_5V"
		(shape input)
		(at 95.25 57.15 90)
		(fields_autoplaced yes)
		(effects
			(font
				(size 1.27 1.27)
			)
			(justify left)
		)
		(uuid "64ed3549-3dbf-4861-b4f2-1ca359a9460b")
	)
	(hierarchical_label "BOOT"
		(shape input)
		(at 242.57 90.17 0)
		(fields_autoplaced yes)
		(effects
			(font
				(size 0.7112 0.7112)
			)
			(justify left)
		)
		(uuid "961206c8-e7b4-4b45-9e9c-941ea5af457c")
	)
	(hierarchical_label "RXD_ESP32"
		(shape output)
		(at 167.64 63.5 0)
		(fields_autoplaced yes)
		(effects
			(font
				(size 1.016 1.016)
				(bold yes)
			)
			(justify left)
		)
		(uuid "96877661-cf68-44dc-adea-438326066fba")
	)
	(hierarchical_label "TXD_ESP32"
		(shape input)
		(at 167.64 66.04 0)
		(fields_autoplaced yes)
		(effects
			(font
				(size 1.016 1.016)
				(bold yes)
			)
			(justify left)
		)
		(uuid "b9a2c496-0002-4d30-bc6e-e52f01d4f0bb")
	)
	(hierarchical_label "RESET"
		(shape input)
		(at 242.57 85.09 0)
		(fields_autoplaced yes)
		(effects
			(font
				(size 0.7112 0.7112)
			)
			(justify left)
		)
		(uuid "fb03db2f-9097-4214-944a-fdc848d089e2")
	)
	(symbol
		(lib_id "Device:R_US")
		(at 219.71 104.14 270)
		(unit 1)
		(exclude_from_sim no)
		(in_bom yes)
		(on_board yes)
		(dnp no)
		(uuid "00bc0030-3f43-4e1c-81df-e5abc5d4cab3")
		(property "Reference" "R7"
			(at 221.2086 100.33 0)
			(effects
				(font
					(size 1.778 1.5113)
				)
				(justify left bottom)
			)
		)
		(property "Value" "4k7"
			(at 216.408 100.33 0)
			(effects
				(font
					(size 1.778 1.5113)
				)
				(justify left bottom)
			)
		)
		(property "Footprint" "Resistor_SMD:R_0402_1005Metric_Pad0.72x0.64mm_HandSolder"
			(at 219.456 105.156 90)
			(effects
				(font
					(size 1.27 1.27)
				)
				(hide yes)
			)
		)
		(property "Datasheet" "~"
			(at 219.71 104.14 0)
			(effects
				(font
					(size 1.27 1.27)
				)
				(hide yes)
			)
		)
		(property "Description" "Resistor, US symbol"
			(at 219.71 104.14 0)
			(effects
				(font
					(size 1.27 1.27)
				)
				(hide yes)
			)
		)
		(pin "1"
			(uuid "0cc45fb7-54a5-4a71-afe6-e648283cb3a2")
		)
		(pin "2"
			(uuid "c36faaff-9025-4a78-bde7-6a70891a7606")
		)
		(instances
			(project "ESP32_DevKit"
				(path "/85173ce3-35f6-48d6-9ade-c8b780c7bf44/4880bcc7-908b-475d-a98c-f11e3f07fb7b"
					(reference "R7")
					(unit 1)
				)
			)
		)
	)
	(symbol
		(lib_id "power:GNDD")
		(at 86.36 69.85 90)
		(unit 1)
		(exclude_from_sim no)
		(in_bom yes)
		(on_board yes)
		(dnp no)
		(fields_autoplaced yes)
		(uuid "02bdc59b-1186-45ea-a1f1-d101614d2e31")
		(property "Reference" "#PWR05"
			(at 92.71 69.85 0)
			(effects
				(font
					(size 1.27 1.27)
				)
				(hide yes)
			)
		)
		(property "Value" "GNDD"
			(at 90.17 69.8499 90)
			(effects
				(font
					(size 1.27 1.27)
				)
				(justify right)
			)
		)
		(property "Footprint" ""
			(at 86.36 69.85 0)
			(effects
				(font
					(size 1.27 1.27)
				)
				(hide yes)
			)
		)
		(property "Datasheet" ""
			(at 86.36 69.85 0)
			(effects
				(font
					(size 1.27 1.27)
				)
				(hide yes)
			)
		)
		(property "Description" "Power symbol creates a global label with name \"GNDD\" , digital ground"
			(at 86.36 69.85 0)
			(effects
				(font
					(size 1.27 1.27)
				)
				(hide yes)
			)
		)
		(pin "1"
			(uuid "93c8d353-7fad-4638-9625-a307a17bb3de")
		)
		(instances
			(project "ESP32_DevKit"
				(path "/85173ce3-35f6-48d6-9ade-c8b780c7bf44/4880bcc7-908b-475d-a98c-f11e3f07fb7b"
					(reference "#PWR05")
					(unit 1)
				)
			)
		)
	)
	(symbol
		(lib_id "power:VDD")
		(at 146.05 53.34 0)
		(unit 1)
		(exclude_from_sim no)
		(in_bom yes)
		(on_board yes)
		(dnp no)
		(fields_autoplaced yes)
		(uuid "04a00b3e-bf91-4c18-93a6-a321e0645dab")
		(property "Reference" "#PWR013"
			(at 146.05 57.15 0)
			(effects
				(font
					(size 1.27 1.27)
				)
				(hide yes)
			)
		)
		(property "Value" "VDD"
			(at 146.05 48.26 0)
			(effects
				(font
					(size 1.27 1.27)
				)
			)
		)
		(property "Footprint" ""
			(at 146.05 53.34 0)
			(effects
				(font
					(size 1.27 1.27)
				)
				(hide yes)
			)
		)
		(property "Datasheet" ""
			(at 146.05 53.34 0)
			(effects
				(font
					(size 1.27 1.27)
				)
				(hide yes)
			)
		)
		(property "Description" "Power symbol creates a global label with name \"VDD\""
			(at 146.05 53.34 0)
			(effects
				(font
					(size 1.27 1.27)
				)
				(hide yes)
			)
		)
		(pin "1"
			(uuid "efb71296-3fdb-41f0-9718-0f2733a1ba68")
		)
		(instances
			(project "ESP32_DevKit"
				(path "/85173ce3-35f6-48d6-9ade-c8b780c7bf44/4880bcc7-908b-475d-a98c-f11e3f07fb7b"
					(reference "#PWR013")
					(unit 1)
				)
			)
		)
	)
	(symbol
		(lib_id "Connector:USB_C_Receptacle_USB2.0_14P")
		(at 53.34 78.74 0)
		(unit 1)
		(exclude_from_sim no)
		(in_bom yes)
		(on_board yes)
		(dnp no)
		(fields_autoplaced yes)
		(uuid "0734624a-8bb6-4a3f-b44d-1ea2331b3c01")
		(property "Reference" "J2"
			(at 53.34 55.88 0)
			(effects
				(font
					(size 1.27 1.27)
				)
			)
		)
		(property "Value" "USB_C_Receptacle_USB2.0_14P"
			(at 53.34 58.42 0)
			(effects
				(font
					(size 1.27 1.27)
				)
			)
		)
		(property "Footprint" "Connector_USB:USB_C_Receptacle_GCT_USB4105-xx-A_16P_TopMnt_Horizontal"
			(at 57.15 78.74 0)
			(effects
				(font
					(size 1.27 1.27)
				)
				(hide yes)
			)
		)
		(property "Datasheet" "https://www.usb.org/sites/default/files/documents/usb_type-c.zip"
			(at 57.15 78.74 0)
			(effects
				(font
					(size 1.27 1.27)
				)
				(hide yes)
			)
		)
		(property "Description" "USB 2.0-only 14P Type-C Receptacle connector"
			(at 53.34 78.74 0)
			(effects
				(font
					(size 1.27 1.27)
				)
				(hide yes)
			)
		)
		(pin "B7"
			(uuid "b6e53036-8445-465a-bab8-3772bebb21c4")
		)
		(pin "A7"
			(uuid "c6bdc939-612e-4be0-a240-be94bb395304")
		)
		(pin "A4"
			(uuid "3daa2c5f-1c5c-4593-a652-2dbeefee533f")
		)
		(pin "A6"
			(uuid "60ea748c-ad2c-4a14-b625-b044ab41d181")
		)
		(pin "B4"
			(uuid "e3c57f0f-2571-4e24-8981-67a43406babf")
		)
		(pin "B9"
			(uuid "744adb52-14cb-426f-bdd4-53e9a52ac1d0")
		)
		(pin "A12"
			(uuid "5bcd8227-a117-42c6-b132-90249d4fb365")
		)
		(pin "A5"
			(uuid "bc7da815-1a45-4f85-a6e0-0f59c52a6da0")
		)
		(pin "B6"
			(uuid "86a0bd2d-7946-4323-b509-5ad46c2470de")
		)
		(pin "A9"
			(uuid "41bfcf6c-8f46-4a63-a31d-88c79d880f53")
		)
		(pin "B5"
			(uuid "47971f08-c9ad-4e74-937a-9eba4c9aff45")
		)
		(pin "A1"
			(uuid "7820153c-87f7-47ee-abd0-53c88792a9eb")
		)
		(pin "B1"
			(uuid "0599ae9e-e427-482c-8b2b-5cc5c7805fd5")
		)
		(pin "S1"
			(uuid "7c2b1ac2-3f4e-4269-a1b3-96d4098c45bd")
		)
		(pin "B12"
			(uuid "44f7ca1c-45ea-44b3-b8ea-d2c1a443163b")
		)
		(instances
			(project "ESP32_DevKit"
				(path "/85173ce3-35f6-48d6-9ade-c8b780c7bf44/4880bcc7-908b-475d-a98c-f11e3f07fb7b"
					(reference "J2")
					(unit 1)
				)
			)
		)
	)
	(symbol
		(lib_id "Device:R_US")
		(at 77.47 71.12 90)
		(unit 1)
		(exclude_from_sim no)
		(in_bom yes)
		(on_board yes)
		(dnp no)
		(uuid "152cd97d-8b13-4363-855f-64e3a074caf9")
		(property "Reference" "R2"
			(at 77.47 72.898 90)
			(effects
				(font
					(size 1.27 1.27)
				)
			)
		)
		(property "Value" "5K1"
			(at 81.788 72.644 90)
			(effects
				(font
					(size 1.27 1.27)
				)
			)
		)
		(property "Footprint" "Resistor_SMD:R_0805_2012Metric_Pad1.20x1.40mm_HandSolder"
			(at 77.724 70.104 90)
			(effects
				(font
					(size 1.27 1.27)
				)
				(hide yes)
			)
		)
		(property "Datasheet" "~"
			(at 77.47 71.12 0)
			(effects
				(font
					(size 1.27 1.27)
				)
				(hide yes)
			)
		)
		(property "Description" "Resistor, US symbol"
			(at 77.47 71.12 0)
			(effects
				(font
					(size 1.27 1.27)
				)
				(hide yes)
			)
		)
		(pin "2"
			(uuid "5a473388-b721-4bb8-b49c-5f80bdefe5b1")
		)
		(pin "1"
			(uuid "0f817ac7-36f9-45ce-b080-89418ba6f482")
		)
		(instances
			(project "ESP32_DevKit"
				(path "/85173ce3-35f6-48d6-9ade-c8b780c7bf44/4880bcc7-908b-475d-a98c-f11e3f07fb7b"
					(reference "R2")
					(unit 1)
				)
			)
		)
	)
	(symbol
		(lib_id "Transistor_BJT:BC817")
		(at 234.95 104.14 0)
		(unit 1)
		(exclude_from_sim no)
		(in_bom yes)
		(on_board yes)
		(dnp no)
		(uuid "213f084f-4e2e-4e72-9863-d6baa6c65ab6")
		(property "Reference" "Q2"
			(at 240.03 102.8699 0)
			(effects
				(font
					(size 1.27 1.27)
				)
				(justify left)
			)
		)
		(property "Value" "BC817"
			(at 240.03 105.4099 0)
			(effects
				(font
					(size 1.27 1.27)
				)
				(justify left)
			)
		)
		(property "Footprint" "Package_TO_SOT_SMD:SOT-23"
			(at 240.03 106.045 0)
			(effects
				(font
					(size 1.27 1.27)
					(italic yes)
				)
				(justify left)
				(hide yes)
			)
		)
		(property "Datasheet" "https://www.onsemi.com/pub/Collateral/BC818-D.pdf"
			(at 234.95 104.14 0)
			(effects
				(font
					(size 1.27 1.27)
				)
				(justify left)
				(hide yes)
			)
		)
		(property "Description" "0.8A Ic, 45V Vce, NPN Transistor, SOT-23"
			(at 234.95 104.14 0)
			(effects
				(font
					(size 1.27 1.27)
				)
				(hide yes)
			)
		)
		(pin "3"
			(uuid "0810a94d-0570-43d7-b84a-1b3aa3c06f2a")
		)
		(pin "1"
			(uuid "c0b950a2-845c-437e-bc3f-109d9d5fb671")
		)
		(pin "2"
			(uuid "081a744e-5fb3-4836-a0c2-f2ba9fa0024b")
		)
		(instances
			(project "ESP32_DevKit"
				(path "/85173ce3-35f6-48d6-9ade-c8b780c7bf44/4880bcc7-908b-475d-a98c-f11e3f07fb7b"
					(reference "Q2")
					(unit 1)
				)
			)
		)
	)
	(symbol
		(lib_id "Device:R_US")
		(at 167.64 88.9 270)
		(unit 1)
		(exclude_from_sim no)
		(in_bom yes)
		(on_board yes)
		(dnp no)
		(uuid "21e2881f-ec11-44c2-b902-a6bf1dfed51c")
		(property "Reference" "R4"
			(at 167.64 90.932 90)
			(effects
				(font
					(size 1.27 1.27)
				)
			)
		)
		(property "Value" "10k"
			(at 163.83 89.916 90)
			(effects
				(font
					(size 1.27 1.27)
				)
			)
		)
		(property "Footprint" "Resistor_SMD:R_0402_1005Metric_Pad0.72x0.64mm_HandSolder"
			(at 167.386 89.916 90)
			(effects
				(font
					(size 1.27 1.27)
				)
				(hide yes)
			)
		)
		(property "Datasheet" "~"
			(at 167.64 88.9 0)
			(effects
				(font
					(size 1.27 1.27)
				)
				(hide yes)
			)
		)
		(property "Description" "Resistor, US symbol"
			(at 167.64 88.9 0)
			(effects
				(font
					(size 1.27 1.27)
				)
				(hide yes)
			)
		)
		(pin "2"
			(uuid "42fa2cce-39ef-45e7-b021-71acceae8f23")
		)
		(pin "1"
			(uuid "6fd397c4-b737-43d0-af6a-f64ea77effce")
		)
		(instances
			(project "ESP32_DevKit"
				(path "/85173ce3-35f6-48d6-9ade-c8b780c7bf44/4880bcc7-908b-475d-a98c-f11e3f07fb7b"
					(reference "R4")
					(unit 1)
				)
			)
		)
	)
	(symbol
		(lib_id "power:GNDD")
		(at 175.26 88.9 90)
		(unit 1)
		(exclude_from_sim no)
		(in_bom yes)
		(on_board yes)
		(dnp no)
		(fields_autoplaced yes)
		(uuid "26b67189-fa83-493c-bea8-566a68676a45")
		(property "Reference" "#PWR09"
			(at 181.61 88.9 0)
			(effects
				(font
					(size 1.27 1.27)
				)
				(hide yes)
			)
		)
		(property "Value" "GNDD"
			(at 179.07 88.8999 90)
			(effects
				(font
					(size 1.27 1.27)
				)
				(justify right)
			)
		)
		(property "Footprint" ""
			(at 175.26 88.9 0)
			(effects
				(font
					(size 1.27 1.27)
				)
				(hide yes)
			)
		)
		(property "Datasheet" ""
			(at 175.26 88.9 0)
			(effects
				(font
					(size 1.27 1.27)
				)
				(hide yes)
			)
		)
		(property "Description" "Power symbol creates a global label with name \"GNDD\" , digital ground"
			(at 175.26 88.9 0)
			(effects
				(font
					(size 1.27 1.27)
				)
				(hide yes)
			)
		)
		(pin "1"
			(uuid "f3a0510c-f370-4bd3-93b9-d89e0e06d362")
		)
		(instances
			(project "ESP32_DevKit"
				(path "/85173ce3-35f6-48d6-9ade-c8b780c7bf44/4880bcc7-908b-475d-a98c-f11e3f07fb7b"
					(reference "#PWR09")
					(unit 1)
				)
			)
		)
	)
	(symbol
		(lib_id "Device:R_US")
		(at 222.25 76.2 0)
		(unit 1)
		(exclude_from_sim no)
		(in_bom yes)
		(on_board yes)
		(dnp no)
		(uuid "2b01b497-716b-43ad-8c8e-df8922055f42")
		(property "Reference" "R6"
			(at 218.44 74.7014 0)
			(effects
				(font
					(size 1.778 1.5113)
				)
				(justify left bottom)
			)
		)
		(property "Value" "10k"
			(at 218.44 79.502 0)
			(effects
				(font
					(size 1.778 1.5113)
				)
				(justify left bottom)
			)
		)
		(property "Footprint" "Resistor_SMD:R_0402_1005Metric_Pad0.72x0.64mm_HandSolder"
			(at 223.266 76.454 90)
			(effects
				(font
					(size 1.27 1.27)
				)
				(hide yes)
			)
		)
		(property "Datasheet" "~"
			(at 222.25 76.2 0)
			(effects
				(font
					(size 1.27 1.27)
				)
				(hide yes)
			)
		)
		(property "Description" "Resistor, US symbol"
			(at 222.25 76.2 0)
			(effects
				(font
					(size 1.27 1.27)
				)
				(hide yes)
			)
		)
		(pin "1"
			(uuid "cc5caad7-676e-4d43-b9fe-c5a98d36009d")
		)
		(pin "2"
			(uuid "53d4aad5-bb25-4c99-b792-85741ef0bb1d")
		)
		(instances
			(project "ESP32_DevKit"
				(path "/85173ce3-35f6-48d6-9ade-c8b780c7bf44/4880bcc7-908b-475d-a98c-f11e3f07fb7b"
					(reference "R6")
					(unit 1)
				)
			)
		)
	)
	(symbol
		(lib_id "power:GNDD")
		(at 85.09 99.06 0)
		(unit 1)
		(exclude_from_sim no)
		(in_bom yes)
		(on_board yes)
		(dnp no)
		(fields_autoplaced yes)
		(uuid "3401527b-348b-48fa-8255-99a3e3290348")
		(property "Reference" "#PWR07"
			(at 85.09 105.41 0)
			(effects
				(font
					(size 1.27 1.27)
				)
				(hide yes)
			)
		)
		(property "Value" "GNDD"
			(at 85.09 102.87 0)
			(effects
				(font
					(size 1.27 1.27)
				)
			)
		)
		(property "Footprint" ""
			(at 85.09 99.06 0)
			(effects
				(font
					(size 1.27 1.27)
				)
				(hide yes)
			)
		)
		(property "Datasheet" ""
			(at 85.09 99.06 0)
			(effects
				(font
					(size 1.27 1.27)
				)
				(hide yes)
			)
		)
		(property "Description" "Power symbol creates a global label with name \"GNDD\" , digital ground"
			(at 85.09 99.06 0)
			(effects
				(font
					(size 1.27 1.27)
				)
				(hide yes)
			)
		)
		(pin "1"
			(uuid "b0b0b439-a105-44d4-b6c9-eb3255c9eae2")
		)
		(instances
			(project "ESP32_DevKit"
				(path "/85173ce3-35f6-48d6-9ade-c8b780c7bf44/4880bcc7-908b-475d-a98c-f11e3f07fb7b"
					(reference "#PWR07")
					(unit 1)
				)
			)
		)
	)
	(symbol
		(lib_id "Device:R_US")
		(at 207.01 91.44 270)
		(unit 1)
		(exclude_from_sim no)
		(in_bom yes)
		(on_board yes)
		(dnp no)
		(uuid "44d6c291-968d-4a45-8a82-358f075ece90")
		(property "Reference" "R5"
			(at 208.5086 87.63 0)
			(effects
				(font
					(size 1.778 1.5113)
				)
				(justify left bottom)
			)
		)
		(property "Value" "4k7"
			(at 203.708 87.63 0)
			(effects
				(font
					(size 1.778 1.5113)
				)
				(justify left bottom)
			)
		)
		(property "Footprint" "Resistor_SMD:R_0402_1005Metric_Pad0.72x0.64mm_HandSolder"
			(at 206.756 92.456 90)
			(effects
				(font
					(size 1.27 1.27)
				)
				(hide yes)
			)
		)
		(property "Datasheet" "~"
			(at 207.01 91.44 0)
			(effects
				(font
					(size 1.27 1.27)
				)
				(hide yes)
			)
		)
		(property "Description" "Resistor, US symbol"
			(at 207.01 91.44 0)
			(effects
				(font
					(size 1.27 1.27)
				)
				(hide yes)
			)
		)
		(pin "1"
			(uuid "84b825d8-73df-4711-9a66-4c5d3d8bb608")
		)
		(pin "2"
			(uuid "3131bd82-bafc-4cfd-aa7d-fd54871e0c4d")
		)
		(instances
			(project "ESP32_DevKit"
				(path "/85173ce3-35f6-48d6-9ade-c8b780c7bf44/4880bcc7-908b-475d-a98c-f11e3f07fb7b"
					(reference "R5")
					(unit 1)
				)
			)
		)
	)
	(symbol
		(lib_id "power:VDD")
		(at 129.54 52.07 0)
		(unit 1)
		(exclude_from_sim no)
		(in_bom yes)
		(on_board yes)
		(dnp no)
		(fields_autoplaced yes)
		(uuid "47244f62-e163-4ed8-9a5e-3416048d86f8")
		(property "Reference" "#PWR010"
			(at 129.54 55.88 0)
			(effects
				(font
					(size 1.27 1.27)
				)
				(hide yes)
			)
		)
		(property "Value" "VDD"
			(at 129.54 46.99 0)
			(effects
				(font
					(size 1.27 1.27)
				)
			)
		)
		(property "Footprint" ""
			(at 129.54 52.07 0)
			(effects
				(font
					(size 1.27 1.27)
				)
				(hide yes)
			)
		)
		(property "Datasheet" ""
			(at 129.54 52.07 0)
			(effects
				(font
					(size 1.27 1.27)
				)
				(hide yes)
			)
		)
		(property "Description" "Power symbol creates a global label with name \"VDD\""
			(at 129.54 52.07 0)
			(effects
				(font
					(size 1.27 1.27)
				)
				(hide yes)
			)
		)
		(pin "1"
			(uuid "cedc24a3-62c1-49d0-8502-37c9c1b341ca")
		)
		(instances
			(project "ESP32_DevKit"
				(path "/85173ce3-35f6-48d6-9ade-c8b780c7bf44/4880bcc7-908b-475d-a98c-f11e3f07fb7b"
					(reference "#PWR010")
					(unit 1)
				)
			)
		)
	)
	(symbol
		(lib_id "power:+5V")
		(at 143.51 53.34 0)
		(unit 1)
		(exclude_from_sim no)
		(in_bom yes)
		(on_board yes)
		(dnp no)
		(fields_autoplaced yes)
		(uuid "567f40e9-e0e0-4733-b05f-f07db32520ce")
		(property "Reference" "#PWR012"
			(at 143.51 57.15 0)
			(effects
				(font
					(size 1.27 1.27)
				)
				(hide yes)
			)
		)
		(property "Value" "+5V"
			(at 143.51 48.26 0)
			(effects
				(font
					(size 1.27 1.27)
				)
			)
		)
		(property "Footprint" ""
			(at 143.51 53.34 0)
			(effects
				(font
					(size 1.27 1.27)
				)
				(hide yes)
			)
		)
		(property "Datasheet" ""
			(at 143.51 53.34 0)
			(effects
				(font
					(size 1.27 1.27)
				)
				(hide yes)
			)
		)
		(property "Description" "Power symbol creates a global label with name \"+5V\""
			(at 143.51 53.34 0)
			(effects
				(font
					(size 1.27 1.27)
				)
				(hide yes)
			)
		)
		(pin "1"
			(uuid "3b05dd79-f4f7-4915-86ed-770c369a08bc")
		)
		(instances
			(project "ESP32_DevKit"
				(path "/85173ce3-35f6-48d6-9ade-c8b780c7bf44/4880bcc7-908b-475d-a98c-f11e3f07fb7b"
					(reference "#PWR012")
					(unit 1)
				)
			)
		)
	)
	(symbol
		(lib_id "power:+3.3V")
		(at 229.87 59.69 0)
		(unit 1)
		(exclude_from_sim no)
		(in_bom yes)
		(on_board yes)
		(dnp no)
		(fields_autoplaced yes)
		(uuid "793980c1-75f3-4003-894c-ac6619965b6b")
		(property "Reference" "#PWR014"
			(at 229.87 63.5 0)
			(effects
				(font
					(size 1.27 1.27)
				)
				(hide yes)
			)
		)
		(property "Value" "+3.3V"
			(at 229.87 54.61 0)
			(effects
				(font
					(size 1.27 1.27)
				)
			)
		)
		(property "Footprint" ""
			(at 229.87 59.69 0)
			(effects
				(font
					(size 1.27 1.27)
				)
				(hide yes)
			)
		)
		(property "Datasheet" ""
			(at 229.87 59.69 0)
			(effects
				(font
					(size 1.27 1.27)
				)
				(hide yes)
			)
		)
		(property "Description" "Power symbol creates a global label with name \"+3.3V\""
			(at 229.87 59.69 0)
			(effects
				(font
					(size 1.27 1.27)
				)
				(hide yes)
			)
		)
		(pin "1"
			(uuid "2209f90c-efa4-4698-9b19-d25663b3ada0")
		)
		(instances
			(project "ESP32_DevKit"
				(path "/85173ce3-35f6-48d6-9ade-c8b780c7bf44/4880bcc7-908b-475d-a98c-f11e3f07fb7b"
					(reference "#PWR014")
					(unit 1)
				)
			)
		)
	)
	(symbol
		(lib_id "Device:R_US")
		(at 77.47 68.58 90)
		(unit 1)
		(exclude_from_sim no)
		(in_bom yes)
		(on_board yes)
		(dnp no)
		(uuid "95100745-dbde-4c4d-87e1-3a8d94eaddca")
		(property "Reference" "R1"
			(at 77.47 66.548 90)
			(effects
				(font
					(size 1.27 1.27)
				)
			)
		)
		(property "Value" "5K1"
			(at 81.28 67.564 90)
			(effects
				(font
					(size 1.27 1.27)
				)
			)
		)
		(property "Footprint" "Resistor_SMD:R_0805_2012Metric_Pad1.20x1.40mm_HandSolder"
			(at 77.724 67.564 90)
			(effects
				(font
					(size 1.27 1.27)
				)
				(hide yes)
			)
		)
		(property "Datasheet" "~"
			(at 77.47 68.58 0)
			(effects
				(font
					(size 1.27 1.27)
				)
				(hide yes)
			)
		)
		(property "Description" "Resistor, US symbol"
			(at 77.47 68.58 0)
			(effects
				(font
					(size 1.27 1.27)
				)
				(hide yes)
			)
		)
		(pin "2"
			(uuid "1a6e12d7-a7b2-4108-91fa-57c25d0c5680")
		)
		(pin "1"
			(uuid "718c04c5-f05f-4f37-a41b-4fa1920a6760")
		)
		(instances
			(project "ESP32_DevKit"
				(path "/85173ce3-35f6-48d6-9ade-c8b780c7bf44/4880bcc7-908b-475d-a98c-f11e3f07fb7b"
					(reference "R1")
					(unit 1)
				)
			)
		)
	)
	(symbol
		(lib_id "Device:R_US")
		(at 129.54 59.69 180)
		(unit 1)
		(exclude_from_sim no)
		(in_bom yes)
		(on_board yes)
		(dnp no)
		(uuid "9809e5bf-7190-45d8-8662-ab98c5afa23b")
		(property "Reference" "R3"
			(at 127.508 59.69 90)
			(effects
				(font
					(size 1.27 1.27)
				)
			)
		)
		(property "Value" "4k7"
			(at 128.524 55.88 90)
			(effects
				(font
					(size 1.27 1.27)
				)
			)
		)
		(property "Footprint" "Resistor_SMD:R_0402_1005Metric_Pad0.72x0.64mm_HandSolder"
			(at 128.524 59.436 90)
			(effects
				(font
					(size 1.27 1.27)
				)
				(hide yes)
			)
		)
		(property "Datasheet" "~"
			(at 129.54 59.69 0)
			(effects
				(font
					(size 1.27 1.27)
				)
				(hide yes)
			)
		)
		(property "Description" "Resistor, US symbol"
			(at 129.54 59.69 0)
			(effects
				(font
					(size 1.27 1.27)
				)
				(hide yes)
			)
		)
		(pin "2"
			(uuid "b440dff1-87d0-4b96-8177-6566cc1f1c7a")
		)
		(pin "1"
			(uuid "0b33765b-2930-4ac9-bf86-71856f92f999")
		)
		(instances
			(project "ESP32_DevKit"
				(path "/85173ce3-35f6-48d6-9ade-c8b780c7bf44/4880bcc7-908b-475d-a98c-f11e3f07fb7b"
					(reference "R3")
					(unit 1)
				)
			)
		)
	)
	(symbol
		(lib_id "Device:R_US")
		(at 237.49 76.2 0)
		(unit 1)
		(exclude_from_sim no)
		(in_bom yes)
		(on_board yes)
		(dnp no)
		(uuid "9b86942a-0db0-4983-a957-092aba238fe5")
		(property "Reference" "R8"
			(at 233.68 74.7014 0)
			(effects
				(font
					(size 1.778 1.5113)
				)
				(justify left bottom)
			)
		)
		(property "Value" "10k"
			(at 233.68 79.502 0)
			(effects
				(font
					(size 1.778 1.5113)
				)
				(justify left bottom)
			)
		)
		(property "Footprint" "Resistor_SMD:R_0402_1005Metric_Pad0.72x0.64mm_HandSolder"
			(at 238.506 76.454 90)
			(effects
				(font
					(size 1.27 1.27)
				)
				(hide yes)
			)
		)
		(property "Datasheet" "~"
			(at 237.49 76.2 0)
			(effects
				(font
					(size 1.27 1.27)
				)
				(hide yes)
			)
		)
		(property "Description" "Resistor, US symbol"
			(at 237.49 76.2 0)
			(effects
				(font
					(size 1.27 1.27)
				)
				(hide yes)
			)
		)
		(pin "1"
			(uuid "760505a0-f465-4ce0-88cd-22fbf4583848")
		)
		(pin "2"
			(uuid "2d633af2-3f6a-484b-b458-0d58503de137")
		)
		(instances
			(project "ESP32_DevKit"
				(path "/85173ce3-35f6-48d6-9ade-c8b780c7bf44/4880bcc7-908b-475d-a98c-f11e3f07fb7b"
					(reference "R8")
					(unit 1)
				)
			)
		)
	)
	(symbol
		(lib_id "Transistor_BJT:BC817")
		(at 219.71 91.44 0)
		(unit 1)
		(exclude_from_sim no)
		(in_bom yes)
		(on_board yes)
		(dnp no)
		(fields_autoplaced yes)
		(uuid "cc67a4d1-6062-4ead-92e9-174cc5eb2c37")
		(property "Reference" "Q1"
			(at 224.79 90.1699 0)
			(effects
				(font
					(size 1.27 1.27)
				)
				(justify left)
			)
		)
		(property "Value" "BC817"
			(at 224.79 92.7099 0)
			(effects
				(font
					(size 1.27 1.27)
				)
				(justify left)
			)
		)
		(property "Footprint" "Package_TO_SOT_SMD:SOT-23"
			(at 224.79 93.345 0)
			(effects
				(font
					(size 1.27 1.27)
					(italic yes)
				)
				(justify left)
				(hide yes)
			)
		)
		(property "Datasheet" "https://www.onsemi.com/pub/Collateral/BC818-D.pdf"
			(at 219.71 91.44 0)
			(effects
				(font
					(size 1.27 1.27)
				)
				(justify left)
				(hide yes)
			)
		)
		(property "Description" "0.8A Ic, 45V Vce, NPN Transistor, SOT-23"
			(at 219.71 91.44 0)
			(effects
				(font
					(size 1.27 1.27)
				)
				(hide yes)
			)
		)
		(pin "2"
			(uuid "bf9597ef-2344-4033-9e44-c5c86ea2d765")
		)
		(pin "1"
			(uuid "4a607665-578e-4fbf-811e-47c05d462f2c")
		)
		(pin "3"
			(uuid "cfbc39a2-0992-458a-8c68-785cd1af49ef")
		)
		(instances
			(project "ESP32_DevKit"
				(path "/85173ce3-35f6-48d6-9ade-c8b780c7bf44/4880bcc7-908b-475d-a98c-f11e3f07fb7b"
					(reference "Q1")
					(unit 1)
				)
			)
		)
	)
	(symbol
		(lib_id "Interface_USB:CP2102N-Axx-xQFN24")
		(at 146.05 86.36 0)
		(unit 1)
		(exclude_from_sim no)
		(in_bom yes)
		(on_board yes)
		(dnp no)
		(fields_autoplaced yes)
		(uuid "cdcce2c8-9239-41da-9d5b-43ec3a3c2d11")
		(property "Reference" "U3"
			(at 148.2441 114.3 0)
			(effects
				(font
					(size 1.27 1.27)
				)
				(justify left)
			)
		)
		(property "Value" "CP2102N-Axx-xQFN24"
			(at 148.2441 116.84 0)
			(effects
				(font
					(size 1.27 1.27)
				)
				(justify left)
			)
		)
		(property "Footprint" "Package_DFN_QFN:QFN-24-1EP_4x4mm_P0.5mm_EP2.6x2.6mm"
			(at 177.8 113.03 0)
			(effects
				(font
					(size 1.27 1.27)
				)
				(hide yes)
			)
		)
		(property "Datasheet" "https://www.silabs.com/documents/public/data-sheets/cp2102n-datasheet.pdf"
			(at 147.32 105.41 0)
			(effects
				(font
					(size 1.27 1.27)
				)
				(hide yes)
			)
		)
		(property "Description" "USB to UART master bridge, QFN-24"
			(at 146.05 86.36 0)
			(effects
				(font
					(size 1.27 1.27)
				)
				(hide yes)
			)
		)
		(pin "15"
			(uuid "94b451e8-f32c-4e5a-8cdb-bae678e9d805")
		)
		(pin "17"
			(uuid "ee3471f9-5eec-471e-a58b-6c4249ba6462")
		)
		(pin "10"
			(uuid "3ce35ce8-9dcd-4b2a-bac8-efe87ca60b98")
		)
		(pin "20"
			(uuid "10d04781-d605-4653-a144-c3a194709099")
		)
		(pin "11"
			(uuid "bf0b6b8d-e558-4dbe-bc1f-c2558fe66678")
		)
		(pin "19"
			(uuid "521a2aea-4b48-498b-9e96-4cb51f5c2e49")
		)
		(pin "4"
			(uuid "15c057d2-6ece-4792-a26c-6ac5639e6106")
		)
		(pin "12"
			(uuid "f685b2ed-9671-45e5-9d3c-57a18607bb87")
		)
		(pin "6"
			(uuid "e3ffb11c-c62d-4692-83c2-b9704af47022")
		)
		(pin "16"
			(uuid "a14aaaf6-5482-4eab-b8f7-0229a73307a2")
		)
		(pin "1"
			(uuid "b73a6c7c-2842-455b-b6ef-a95fd5d75cc9")
		)
		(pin "24"
			(uuid "d39d29c8-e0b5-4cae-bc8a-622669a6ce85")
		)
		(pin "8"
			(uuid "04298843-414b-4a1c-a64e-34fff6a3c1ac")
		)
		(pin "2"
			(uuid "2bc691ff-51ed-4b55-b55a-26c5fffcaa9c")
		)
		(pin "7"
			(uuid "3bc5a7fc-ac12-4a00-a069-d1888dfac1d9")
		)
		(pin "13"
			(uuid "04fc7037-371b-4a53-97d9-b670b004de7d")
		)
		(pin "3"
			(uuid "6e0c0a6c-e11c-40c6-8994-fdc414a33bff")
		)
		(pin "18"
			(uuid "a6b079f8-bf57-4e33-9ce5-5c85504dd8ff")
		)
		(pin "9"
			(uuid "e4d53b8b-ce20-4829-b16a-64074b1f94ee")
		)
		(pin "14"
			(uuid "5fd6cde5-f298-4c7d-ab25-62070558808e")
		)
		(pin "23"
			(uuid "0ce32ab3-653e-4877-9bd8-7394f87a08d1")
		)
		(pin "5"
			(uuid "64815200-434b-4b95-b263-aa9015a87e7d")
		)
		(pin "22"
			(uuid "41be96ab-e846-41e3-b744-0dea9347efc6")
		)
		(pin "21"
			(uuid "315ab15f-1a25-4895-9aaf-774b384be7d4")
		)
		(pin "25"
			(uuid "25575dfe-0e41-41c2-a105-7f539d404fe9")
		)
		(instances
			(project "ESP32_DevKit"
				(path "/85173ce3-35f6-48d6-9ade-c8b780c7bf44/4880bcc7-908b-475d-a98c-f11e3f07fb7b"
					(reference "U3")
					(unit 1)
				)
			)
		)
	)
	(symbol
		(lib_id "power:GNDD")
		(at 49.53 113.03 0)
		(unit 1)
		(exclude_from_sim no)
		(in_bom yes)
		(on_board yes)
		(dnp no)
		(fields_autoplaced yes)
		(uuid "dee032ec-4399-48f9-b820-8e366f4fa68e")
		(property "Reference" "#PWR08"
			(at 49.53 119.38 0)
			(effects
				(font
					(size 1.27 1.27)
				)
				(hide yes)
			)
		)
		(property "Value" "GNDD"
			(at 49.53 116.84 0)
			(effects
				(font
					(size 1.27 1.27)
				)
			)
		)
		(property "Footprint" ""
			(at 49.53 113.03 0)
			(effects
				(font
					(size 1.27 1.27)
				)
				(hide yes)
			)
		)
		(property "Datasheet" ""
			(at 49.53 113.03 0)
			(effects
				(font
					(size 1.27 1.27)
				)
				(hide yes)
			)
		)
		(property "Description" "Power symbol creates a global label with name \"GNDD\" , digital ground"
			(at 49.53 113.03 0)
			(effects
				(font
					(size 1.27 1.27)
				)
				(hide yes)
			)
		)
		(pin "1"
			(uuid "747ff630-e778-4b77-8c82-acba81d9823d")
		)
		(instances
			(project "ESP32_DevKit"
				(path "/85173ce3-35f6-48d6-9ade-c8b780c7bf44/4880bcc7-908b-475d-a98c-f11e3f07fb7b"
					(reference "#PWR08")
					(unit 1)
				)
			)
		)
	)
	(symbol
		(lib_id "Device:D_Schottky")
		(at 85.09 63.5 180)
		(unit 1)
		(exclude_from_sim no)
		(in_bom yes)
		(on_board yes)
		(dnp no)
		(fields_autoplaced yes)
		(uuid "ebb0bf33-7655-4ccb-90c4-8a7ea6a79f0e")
		(property "Reference" "D4"
			(at 85.4075 57.15 0)
			(effects
				(font
					(size 1.27 1.27)
				)
			)
		)
		(property "Value" "D_Schottky"
			(at 85.4075 59.69 0)
			(effects
				(font
					(size 1.27 1.27)
				)
			)
		)
		(property "Footprint" "Diode_SMD:D_SMA_Handsoldering"
			(at 85.09 63.5 0)
			(effects
				(font
					(size 1.27 1.27)
				)
				(hide yes)
			)
		)
		(property "Datasheet" "~"
			(at 85.09 63.5 0)
			(effects
				(font
					(size 1.27 1.27)
				)
				(hide yes)
			)
		)
		(property "Description" "Schottky diode"
			(at 85.09 63.5 0)
			(effects
				(font
					(size 1.27 1.27)
				)
				(hide yes)
			)
		)
		(pin "2"
			(uuid "054f8745-bd18-484c-82b8-6ddc7260d499")
		)
		(pin "1"
			(uuid "5c7d3acc-8400-4851-bdca-f21ebf6a56a6")
		)
		(instances
			(project "ESP32_DevKit"
				(path "/85173ce3-35f6-48d6-9ade-c8b780c7bf44/4880bcc7-908b-475d-a98c-f11e3f07fb7b"
					(reference "D4")
					(unit 1)
				)
			)
		)
	)
	(symbol
		(lib_id "Power_Protection:SP0503BAHT")
		(at 85.09 88.9 0)
		(unit 1)
		(exclude_from_sim no)
		(in_bom yes)
		(on_board yes)
		(dnp no)
		(fields_autoplaced yes)
		(uuid "ec014bd3-f8c2-4715-8493-933b92767c0a")
		(property "Reference" "D3"
			(at 91.44 87.6299 0)
			(effects
				(font
					(size 1.27 1.27)
				)
				(justify left)
			)
		)
		(property "Value" "SP0503BAHT"
			(at 91.44 90.1699 0)
			(effects
				(font
					(size 1.27 1.27)
				)
				(justify left)
			)
		)
		(property "Footprint" "Package_TO_SOT_SMD:SOT-143"
			(at 90.805 90.17 0)
			(effects
				(font
					(size 1.27 1.27)
				)
				(justify left)
				(hide yes)
			)
		)
		(property "Datasheet" "http://www.littelfuse.com/~/media/files/littelfuse/technical%20resources/documents/data%20sheets/sp05xxba.pdf"
			(at 88.265 85.725 0)
			(effects
				(font
					(size 1.27 1.27)
				)
				(hide yes)
			)
		)
		(property "Description" "TVS Diode Array, 5.5V Standoff, 3 Channels, SOT-143 package"
			(at 85.09 88.9 0)
			(effects
				(font
					(size 1.27 1.27)
				)
				(hide yes)
			)
		)
		(pin "2"
			(uuid "e786bc95-4fdc-4337-aca9-e7471155d1a3")
		)
		(pin "3"
			(uuid "9eb7530d-d030-49b4-8d30-4401490bcadc")
		)
		(pin "4"
			(uuid "b4a67662-0a40-413b-8dc9-ad8a5ba7742b")
		)
		(pin "1"
			(uuid "61a4eb48-0a87-4c25-b8bc-7ef7b1e3902e")
		)
		(instances
			(project "ESP32_DevKit"
				(path "/85173ce3-35f6-48d6-9ade-c8b780c7bf44/4880bcc7-908b-475d-a98c-f11e3f07fb7b"
					(reference "D3")
					(unit 1)
				)
			)
		)
	)
	(symbol
		(lib_id "power:GNDD")
		(at 146.05 119.38 0)
		(unit 1)
		(exclude_from_sim no)
		(in_bom yes)
		(on_board yes)
		(dnp no)
		(fields_autoplaced yes)
		(uuid "fdcc6e6a-5f47-4c87-8a2b-25dd4bbb0383")
		(property "Reference" "#PWR011"
			(at 146.05 125.73 0)
			(effects
				(font
					(size 1.27 1.27)
				)
				(hide yes)
			)
		)
		(property "Value" "GNDD"
			(at 146.05 123.19 0)
			(effects
				(font
					(size 1.27 1.27)
				)
			)
		)
		(property "Footprint" ""
			(at 146.05 119.38 0)
			(effects
				(font
					(size 1.27 1.27)
				)
				(hide yes)
			)
		)
		(property "Datasheet" ""
			(at 146.05 119.38 0)
			(effects
				(font
					(size 1.27 1.27)
				)
				(hide yes)
			)
		)
		(property "Description" "Power symbol creates a global label with name \"GNDD\" , digital ground"
			(at 146.05 119.38 0)
			(effects
				(font
					(size 1.27 1.27)
				)
				(hide yes)
			)
		)
		(pin "1"
			(uuid "6909435a-877a-405e-a269-9db25bd93f79")
		)
		(instances
			(project "ESP32_DevKit"
				(path "/85173ce3-35f6-48d6-9ade-c8b780c7bf44/4880bcc7-908b-475d-a98c-f11e3f07fb7b"
					(reference "#PWR011")
					(unit 1)
				)
			)
		)
	)
)
